Designator Footprint               Mid X         Mid Y         Ref X         Ref Y         Pad X         Pad Y TB      Rotation Comment        

U11        SOTFL50P160X60-5N       156.3mm        88.5mm       156.3mm        88.5mm       156.8mm        89.2mm  T        270.00 Buffer         
U53        SOTFL50P160X60-5N       130.2mm        88.8mm       130.2mm        88.8mm       129.7mm        88.1mm  T         90.00 Buffer         
U23        SOTFL50P160X60-5N       170.5mm        77.7mm       170.5mm        77.7mm         171mm        78.4mm  T        270.00 Buffer         
U28        SOTFL50P160X60-5N       168.5mm        77.7mm       168.5mm        77.7mm         169mm        78.4mm  T        270.00 Buffer         
U34        SOTFL50P160X60-5N       70.65mm       73.55mm       70.65mm       73.55mm       71.35mm       73.05mm  T        180.00 Buffer         
U3         SOTFL50P160X60-5N       102.6mm        88.6mm       102.6mm        88.6mm       103.1mm        89.3mm  T        270.00 Buffer         
C1         AP1-00041             46.82mm      51.046mm       46.82mm       50.03mm       46.82mm       50.03mm  B         90.00                
C2         AP1-00041           205.506mm       77.07mm      204.49mm       77.07mm      204.49mm       77.07mm  B        360.00                
C3         AP1-00041             61.25mm      69.866mm       61.25mm       68.85mm       61.25mm       68.85mm  B         90.00                
C4         AP1-00001          135.8351mm     78.9986mm    135.8351mm     78.9986mm    136.3851mm     78.9986mm  B        180.00 CAP-NONPOL     
C5         AP1-00001            205.38mm       75.45mm      205.38mm       75.45mm      204.83mm       75.45mm  B        360.00 CAP-NONPOL     
C6         AP1-00001             75.81mm       90.64mm       75.81mm       90.64mm       75.81mm       91.19mm  B        270.00 CAP-NONPOL     
C7         AP1-00041           260.084mm        81.7mm     259.068mm        81.7mm     259.068mm        81.7mm  B        360.00                
C8         AP1-00001              47.7mm        74.6mm        47.7mm        74.6mm       48.25mm        74.6mm  B        180.00 CAP-NONPOL     
C9         AP1-00041            78.769mm       77.15mm      79.785mm       77.15mm      79.785mm       77.15mm  B        180.00                
C10        AP1-00001             78.75mm        75.4mm       78.75mm        75.4mm        79.3mm        75.4mm  B        180.00 CAP-NONPOL     
C13        AP1-00041            21.034mm        79.7mm       22.05mm        79.7mm       22.05mm        79.7mm  B        180.00                
C14        AP1-00001             53.55mm       64.45mm       53.55mm       64.45mm       53.55mm        63.9mm  B         90.00 CAP-NONPOL     
C15        AP1-00041           178.696mm       85.55mm      177.68mm       85.55mm      177.68mm       85.55mm  B        360.00                
C16        AP1-00001             153.6mm        88.7mm       153.6mm        88.7mm       153.6mm       88.15mm  B         90.00 CAP-NONPOL     
C17        AP1-00041             166.2mm      78.416mm       166.2mm        77.4mm       166.2mm        77.4mm  B         90.00                
C18        AP1-00001                46mm         103mm          46mm         103mm          46mm      102.45mm  B         90.00 CAP-NONPOL     
C19        AP1-00041            47.634mm       72.95mm       48.65mm       72.95mm       48.65mm       72.95mm  B        180.00                
C20        AP1-00001            139.77mm       88.86mm      139.77mm       88.86mm      139.77mm       88.31mm  B         90.00 CAP-NONPOL     
C21        AP1-00041           168.384mm        84.8mm     167.368mm        84.8mm     167.368mm        84.8mm  B        360.00                
C22        AP1-00001           224.805mm      91.045mm     224.805mm      91.045mm     225.355mm      91.045mm  B        180.00 CAP-NONPOL     
C23        AP1-00041           203.016mm        83.1mm         202mm        83.1mm         202mm        83.1mm  B        360.00                
C24        AP1-00041            43.734mm       62.85mm       44.75mm       62.85mm       44.75mm       62.85mm  B        180.00                
C25        AP1-00001            315.55mm       70.55mm      315.55mm       70.55mm         315mm       70.55mm  B        360.00 CAP-NONPOL     
C26        AP1-00001             43.75mm       60.35mm       43.75mm       60.35mm        44.3mm       60.35mm  B        180.00 CAP-NONPOL     
C27        AP1-00041             64.65mm      90.054mm       64.65mm       91.07mm       64.65mm       91.07mm  B        270.00                
C28        AP1-00001            259.65mm        79.3mm      259.65mm        79.3mm       259.1mm        79.3mm  B        360.00 CAP-NONPOL     
C29        AP1-00041              47.7mm     103.116mm        47.7mm       102.1mm        47.7mm       102.1mm  B         90.00                
C30        AP1-00001             48.55mm       51.35mm       48.55mm       51.35mm       48.55mm        50.8mm  B         90.00 CAP-NONPOL     
C31        AP1-00041            275.42mm      83.356mm      275.42mm       82.34mm      275.42mm       82.34mm  B         90.00                
C32        AP1-00001             178.7mm        83.6mm       178.7mm        83.6mm      178.15mm        83.6mm  B        360.00 CAP-NONPOL     
C33        AP1-00041             215.4mm      84.684mm       215.4mm        85.7mm       215.4mm        85.7mm  B        270.00                
C34        AP1-00001             326.7mm        70.5mm       326.7mm        70.5mm      326.15mm        70.5mm  B        360.00 CAP-NONPOL     
C35        AP1-00041             341.8mm     109.984mm       341.8mm     108.968mm       341.8mm     108.968mm  B         90.00                
C36        AP1-00001               203mm        84.6mm         203mm        84.6mm      202.45mm        84.6mm  B        360.00 CAP-NONPOL     
C37        1206C-GENERIC         346.9mm    112.7855mm       346.9mm     111.071mm       346.9mm     111.071mm  B         90.00 C1206C104KARACTU
C38        0603C-2U2          212.8015mm        86.8mm       213.5mm        86.8mm       213.5mm        86.8mm  B        180.00 UMK107BJ105KA-T
C39        2413                  341.8mm       102.9mm       341.8mm       102.3mm       341.8mm       100.3mm  B         90.00 T494C105K050AT 
C40        1913-X-GENERIC     301.1873mm    118.1209mm       301.2mm         116mm       301.2mm         116mm  B         90.00 ECW-U4103V17   
C41        1206R-GENERIC         320.8mm     70.3145mm       320.8mm      72.029mm       320.8mm      72.029mm  B        270.00 ECW-U1102JX5   
C42        1206R-GENERIC          85.1mm     91.3145mm        85.1mm        89.6mm        85.1mm        89.6mm  B         90.00 UMK316BBJ106ML-T
C43        1206R-GENERIC         237.7mm     78.8855mm       237.7mm      77.171mm       237.7mm      77.171mm  B         90.00 UMK316BBJ106ML-T
C44        1206R-GENERIC         352.4mm    112.7855mm       352.4mm       114.5mm       352.4mm       114.5mm  B        270.00 UMK316BBJ106ML-T
C45        1206R-GENERIC      303.6145mm        95.7mm     305.329mm        95.7mm     305.329mm        95.7mm  B        180.00 UMK316BBJ106ML-T
C46        1206R-GENERIC           291mm    117.6145mm         291mm     119.329mm         291mm     119.329mm  B        270.00 UMK316BBJ106ML-T
C47        1206C-GENERIC         337.9mm     64.9855mm       337.9mm      63.271mm       337.9mm      63.271mm  B         90.00 C1206C104KARACTU
C48        0603C-2U2             244.4mm     88.8015mm       244.4mm        89.5mm       244.4mm        89.5mm  B        270.00 UMK107BJ105KA-T
C49        2413                  341.8mm        64.8mm       341.8mm        65.4mm       341.8mm        67.4mm  B        270.00 T494C105K050AT 
C50        1913-X-GENERIC     303.6209mm     99.9127mm       301.5mm        99.9mm       301.5mm        99.9mm  B        360.00 ECW-U4103V17   
C51        1206R-GENERIC         278.1mm     83.4145mm       278.1mm        81.7mm       278.1mm        81.7mm  B         90.00 ECW-U1102JX5   
C52        1206R-GENERIC       21.3145mm        86.2mm        19.6mm        86.2mm        19.6mm        86.2mm  B        360.00 UMK316BBJ106ML-T
C53        1206R-GENERIC         85.95mm     75.9855mm       85.95mm        77.7mm       85.95mm        77.7mm  B        270.00 UMK316BBJ106ML-T
C54        1206R-GENERIC           245mm     76.3145mm         245mm      78.029mm         245mm      78.029mm  B        270.00 UMK316BBJ106ML-T
C55        1206R-GENERIC          51.2mm     64.0145mm        51.2mm      65.729mm        51.2mm      65.729mm  B        270.00 UMK316BBJ106ML-T
C56        1206R-GENERIC           291mm     96.7145mm         291mm          95mm         291mm          95mm  B         90.00 UMK316BBJ106ML-T
C57        1206C-GENERIC         61.39mm     95.7755mm       61.39mm       97.49mm       61.39mm       97.49mm  B        270.00 C1206C104KARACTU
C58        0603C-2U2          166.0015mm        92.9mm     165.303mm        92.9mm     165.303mm        92.9mm  B        360.00 UMK107BJ105KA-T
C59        2413                  290.2mm        86.5mm       290.2mm        87.1mm       290.2mm        89.1mm  B        270.00 T494C105K050AT 
C60        1913-X-GENERIC     301.1373mm    110.1709mm      301.15mm      108.05mm      301.15mm      108.05mm  B         90.00 ECW-U4103V17   
C61        1206R-GENERIC         344.5mm     51.5855mm       344.5mm        53.3mm       344.5mm        53.3mm  B        270.00 ECW-U1102JX5   
C62        1206R-GENERIC           291mm    103.7145mm         291mm         102mm         291mm         102mm  B         90.00 UMK316BBJ106ML-T
C63        1206R-GENERIC           291mm    110.2855mm         291mm         112mm         291mm         112mm  B        270.00 UMK316BBJ106ML-T
C64        1206R-GENERIC      316.6855mm        94.3mm       318.4mm        94.3mm       318.4mm        94.3mm  B        180.00 UMK316BBJ106ML-T
C65        1206R-GENERIC        237.95mm     91.4145mm      237.95mm        89.7mm      237.95mm        89.7mm  B         90.00 UMK316BBJ106ML-T
C66        1206R-GENERIC      326.7855mm        94.4mm       328.5mm        94.4mm       328.5mm        94.4mm  B        180.00 UMK316BBJ106ML-T
C67        1206C-GENERIC         88.55mm     76.0145mm       88.55mm        74.3mm       88.55mm        74.3mm  B         90.00 C1206C104KARACTU
C68        0603C-2U2             298.5mm     88.0985mm       298.5mm        87.4mm       298.5mm        87.4mm  B         90.00 UMK107BJ105KA-T
C69        2413                  350.1mm        50.7mm       350.1mm        50.1mm       350.1mm        48.1mm  B         90.00 T494C105K050AT 
C70        1913-X-GENERIC     162.2127mm     90.8791mm       162.2mm          93mm       162.2mm          93mm  B        270.00 ECW-U4103V17   
C71        1206R-GENERIC         88.22mm     91.2955mm       88.22mm       93.01mm       88.22mm       93.01mm  B        270.00 ECW-U1102JX5   
C72        1206R-GENERIC        300.55mm     87.8255mm      300.55mm       89.54mm      300.55mm       89.54mm  B        270.00 UMK316BBJ106ML-T
C73        1206R-GENERIC        276.61mm     76.0555mm      276.61mm       77.77mm      276.61mm       77.77mm  B        270.00 UMK316BBJ106ML-T
C74        1206R-GENERIC         99.23mm     91.1945mm       99.23mm       89.48mm       99.23mm       89.48mm  B         90.00 UMK316BBJ106ML-T
C75        1206R-GENERIC           301mm     56.1855mm         301mm      54.471mm         301mm      54.471mm  B         90.00 UMK316BBJ106ML-T
C76        1206R-GENERIC        273.49mm     91.9445mm      273.49mm       90.23mm      273.49mm       90.23mm  B         90.00 UMK316BBJ106ML-T
C77        AP1-00001              25.9mm        75.8mm        25.9mm        75.8mm        25.9mm       76.35mm  B        270.00 CAP-NONPOL     
C78        AP1-00041           205.684mm        89.1mm       206.7mm        89.1mm       206.7mm        89.1mm  B        180.00                
C79        AP1-00001            208.35mm        88.9mm      208.35mm        88.9mm       207.8mm        88.9mm  B        360.00 CAP-NONPOL     
J38        AP8-00852           21.5625mm          73mm          20mm          73mm        22.8mm        71.7mm  B         90.00 ZX62D-AB-5P8   
R57        AP2-00011              24.6mm        75.8mm        24.6mm        75.8mm        24.6mm        76.3mm  B        270.00 R2             
J37        45558                 311.7mm       50.45mm       307.5mm          52mm       307.5mm          52mm  T        180.00 0455580003     
J36        45558                 330.2mm       50.45mm         326mm          52mm         326mm          52mm  T        180.00 0455580003     
J35        45558                 311.7mm      116.55mm       315.9mm         115mm       315.9mm         115mm  T        360.00 0455580003     
J34        45558                 330.2mm      116.55mm       334.4mm         115mm       334.4mm         115mm  T        360.00 0455580003     
J33        46991-1024           349.65mm        83.8mm       346.9mm       106.9mm       346.9mm       106.9mm  T         90.00 ATX Power      
U68        PQFN50P400X400X90_HS-25N       49.35mm          78mm       49.35mm          78mm      47.675mm       79.25mm  T        360.00 IO Expander    
U67        SOTFL50P160X60-5N       73.25mm        90.5mm       73.25mm        90.5mm       72.75mm        89.8mm  T         90.00 Buffer         
U66        SOTFL50P160X60-5N        75.8mm        90.5mm        75.8mm        90.5mm        75.3mm        89.8mm  T         90.00 Buffer         
U65        SOTFL50P160X60-5N      241.57mm       87.86mm      241.57mm       87.86mm      240.87mm       88.36mm  T        360.00 Buffer         
U64        PQFN50P400X400X90_HS-25N      234.17mm       78.87mm      234.17mm       78.87mm     235.845mm       77.62mm  T        180.00 IO Expander    
U63        PQFN50P400X400X90_HS-25N       102.5mm        77.7mm       102.5mm        77.7mm      103.75mm      79.375mm  T        270.00 IO Expander    
U62        PQFN50P400X400X90_HS-25N      247.93mm       88.63mm      247.93mm       88.63mm      249.18mm      90.305mm  T        270.00 IO Expander    
U61        SOTFL50P160X60-5N       158.7mm        88.5mm       158.7mm        88.5mm       159.2mm        89.2mm  T        270.00 Buffer         
U60        SOTFL50P160X60-5N       121.8mm        88.8mm       121.8mm        88.8mm       121.3mm        88.1mm  T         90.00 Buffer         
U58        SOTFL50P160X60-5N       116.2mm        88.8mm       116.2mm        88.8mm       115.7mm        88.1mm  T         90.00 Buffer         
U57        PQFN50P400X400X90_HS-25N         162mm          78mm         162mm          78mm      160.75mm      76.325mm  T         90.00 IO Expander    
U56        PQFN50P400X400X90_HS-25N         156mm          78mm         156mm          78mm      154.75mm      76.325mm  T         90.00 IO Expander    
U55        PQFN50P400X400X90_HS-25N         150mm          78mm         150mm          78mm      148.75mm      76.325mm  T         90.00 IO Expander    
U54        PQFN50P400X400X90_HS-25N         144mm          78mm         144mm          78mm      142.75mm      76.325mm  T         90.00 IO Expander    
U52        S-PVQFN-N16          314.95mm        72.4mm      314.95mm        72.4mm     316.775mm      71.425mm  T        180.00 PCA9546A       
U50        S-PVQFN-N16           259.4mm        77.5mm       259.4mm        77.5mm     257.575mm      78.475mm  T          0.00 PCA9546A       
U49        SOTFL50P160X60-5N          39mm       69.75mm     39.0001mm       69.75mm        39.7mm       69.25mm  T        180.00 Buffer         
U48        S-PVQFN-N16           326.4mm       72.35mm       326.4mm       72.35mm     328.225mm      71.375mm  T        180.00 PCA9546A       
U47        S-PVQFN-N16             150mm        88.7mm         150mm        88.7mm     150.975mm      90.525mm  T        270.00 PCA9546A       
U46        SOTFL50P160X60-5N          68mm        90.5mm          68mm        90.5mm        67.5mm        89.8mm  T         90.00 Buffer         
U44        S-PVQFN-N16          225.13mm       89.22mm      225.13mm       89.22mm     223.305mm      90.195mm  T        360.00 PCA9546A       
U43        SOTFL50P160X60-5N       51.45mm        67.8mm       51.45mm        67.8mm       50.75mm        68.3mm  T        360.00 Buffer         
U42        SOTFL50P160X60-5N       124.6mm       75.85mm       124.6mm       75.85mm       123.9mm       76.35mm  T        360.00 Buffer         
U41        SOTFL50P160X60-5N        43.4mm       81.75mm        43.4mm       81.75mm        43.9mm       82.45mm  T        270.00 Buffer         
U40        S-PVQFN-N16           137.9mm        88.7mm       137.9mm        88.7mm     138.875mm      90.525mm  T        270.00 PCA9546A       
U39        PQFN50P500X500X100_HS-33N      129.35mm        77.6mm      129.35mm        77.6mm       131.1mm      80.015mm  T        270.00 MAX3421EETJ+   
U36        SOIC127P1030X265-24N        72.8mm        81.9mm        72.8mm        81.9mm      79.785mm       86.65mm  T        270.00 4to16 Decoder  
U32        SOTFL50P160X60-5N       81.39mm       90.48mm       81.39mm       90.48mm       80.89mm       89.78mm  T         90.00 Buffer         
U31        SOIC127P1030X265-24N         185mm          81mm         185mm          81mm     178.015mm       76.25mm  T         90.00 4to16 Decoder  
U30        SOTFL50P160X60-5N      241.56mm       89.95mm      241.56mm       89.95mm      240.86mm       90.45mm  T        360.00 Buffer         
U29        SOTFL50P160X60-5N       78.55mm        90.5mm       78.55mm        90.5mm       78.05mm        89.8mm  T         90.00 Buffer         
U27        SOTFL50P160X60-5N       166.5mm        77.7mm       166.5mm        77.7mm         167mm        78.4mm  T        270.00 Buffer         
U26        SOTFL50P160X60-5N       273.7mm       75.81mm       273.7mm       75.81mm       274.2mm       76.51mm  T        270.00 Buffer         
U25        SOTFL50P160X60-5N      268.82mm        75.8mm      268.82mm        75.8mm      269.32mm        76.5mm  T        270.00 Buffer         
U24        SOTFL50P160X60-5N       172.5mm        77.7mm       172.5mm        77.7mm         173mm        78.4mm  T        270.00 Buffer         
U22        SOTFL50P160X60-5N       255.3mm        90.1mm       255.3mm        90.1mm       254.8mm        89.4mm  T         90.00 Buffer         
U21        SOTFL50P160X60-5N       257.7mm        90.1mm       257.7mm        90.1mm       257.2mm        89.4mm  T         90.00 Buffer         
U20        SOTFL50P160X60-5N       124.6mm        88.8mm       124.6mm        88.8mm       124.1mm        88.1mm  T         90.00 Buffer         
U19        SOTFL50P160X60-5N       186.7mm        89.8mm       186.7mm        89.8mm       186.2mm        89.1mm  T         90.00 Buffer         
U18        TSQFP50P1300X1300X120-64N         207mm          83mm         207mm          83mm       201.3mm       86.75mm  T          0.00 SAMD21TQFP64   
U17        SOTFL50P160X60-5N       70.65mm        90.5mm       70.65mm        90.5mm       70.15mm        89.8mm  T         90.00 Buffer         
U16        SOTFL50P160X60-5N      271.52mm       75.82mm      271.52mm       75.82mm      272.02mm       76.52mm  T        270.00 Buffer         
U15        SOTFL50P160X60-5N       174.5mm        77.7mm       174.5mm        77.7mm         174mm          77mm  T         90.00 Buffer         
U14        SOTFL50P160X60-5N       277.5mm       91.78mm       277.5mm       91.78mm         278mm       92.48mm  T        270.00 Buffer         
U13        SOTFL50P160X60-5N       180.7mm        89.8mm       180.7mm        89.8mm       180.2mm        89.1mm  T         90.00 Buffer         
U10        SOTFL50P160X60-5N       252.8mm        90.1mm       252.8mm        90.1mm       252.3mm        89.4mm  T         90.00 Buffer         
U9         SOTFL50P160X60-5N       177.7mm        89.8mm       177.7mm        89.8mm       177.2mm        89.1mm  T         90.00 Buffer         
U8         SOTFL50P160X60-5N         221mm        74.9mm         221mm        74.9mm       220.5mm        74.2mm  T         90.00 Buffer         
U7         SOTFL50P160X60-5N      124.44mm       79.21mm      124.44mm       79.21mm      123.74mm       79.71mm  T        360.00 Buffer         
U6         SOTFL50P160X60-5N      228.79mm       91.48mm      228.79mm       91.48mm      229.29mm       92.18mm  T        270.00 Buffer         
U4         SOTFL50P160X60-5N       198.5mm        75.3mm       198.5mm        75.3mm         198mm        74.6mm  T         90.00 Buffer         
U2         SOTFL50P160X60-5N       195.7mm        89.8mm       195.7mm        89.8mm       195.2mm        89.1mm  T         90.00 Buffer         
R56        AP1-00001             211.4mm        92.7mm       211.4mm        92.7mm       211.4mm       93.25mm  T        270.00 Pullup         
R55        AP1-00001             310.9mm        77.2mm       310.9mm        77.2mm       310.9mm       77.75mm  B        270.00 Pullup         
R54        AP1-00001             266.2mm        74.2mm       266.2mm        74.2mm       266.2mm       73.65mm  T         90.00 Pullup         
R53        AP1-00001             264.8mm        74.2mm       264.8mm        74.2mm       264.8mm       73.65mm  T         90.00 Pullup         
R52        AP1-00001               210mm        92.7mm         210mm        92.7mm         210mm       93.25mm  T        270.00 Pullup         
R51        AP1-00001             313.5mm        77.2mm       313.5mm        77.2mm       313.5mm       77.75mm  B        270.00 Pullup         
R50        AP1-00001             263.4mm        74.2mm       263.4mm        74.2mm       263.4mm       73.65mm  T         90.00 Pullup         
R49        AP1-00001               262mm        74.2mm         262mm        74.2mm         262mm       73.65mm  T         90.00 Pullup         
R48        AP1-00001             316.2mm        77.2mm       316.2mm        77.2mm       316.2mm       77.75mm  B        270.00 Pullup         
R47        AP1-00001             256.4mm        74.2mm       256.4mm        74.2mm       256.4mm       73.65mm  T         90.00 Pullup         
R46        AP1-00001               255mm        74.2mm         255mm        74.2mm         255mm       73.65mm  T         90.00 Pullup         
R45        AP1-00001            318.85mm        77.2mm      318.85mm        77.2mm      318.85mm       77.75mm  B        270.00 Pullup         
R44        AP1-00001             253.6mm        74.2mm       253.6mm        74.2mm       253.6mm       73.65mm  T         90.00 Pullup         
R43        AP1-00001             252.2mm        74.2mm       252.2mm        74.2mm       252.2mm       73.65mm  T         90.00 Pullup         
R42        AP1-00001             321.6mm        77.2mm       321.6mm        77.2mm       321.6mm       77.75mm  B        270.00 Pullup         
R41        AP1-00001             161.7mm        92.6mm       161.7mm        92.6mm       161.7mm       93.15mm  T        270.00 Pullup         
R40        AP1-00001             160.5mm       92.58mm       160.5mm       92.58mm       160.5mm       93.13mm  T        270.00 Pullup         
R39        AP1-00001             324.4mm        77.2mm       324.4mm        77.2mm       324.4mm       77.75mm  B        270.00 Pullup         
R38        AP1-00001            141.13mm       74.43mm      141.13mm       74.43mm      140.58mm       74.43mm  B        360.00 Pullup         
R37        AP1-00001            141.13mm       73.33mm      141.13mm       73.33mm      140.58mm       73.33mm  B        360.00 Pullup         
R36        AP1-00001               327mm        77.2mm         327mm        77.2mm         327mm       77.75mm  B        270.00 Pullup         
R35        AP1-00001            145.95mm        91.1mm      145.95mm        91.1mm       145.4mm        91.1mm  T        360.00 Pullup         
R34        AP1-00001             147.9mm       93.35mm       147.9mm       93.35mm       147.9mm        93.9mm  T        270.00 Pullup         
R33        AP1-00001            329.95mm        77.2mm      329.95mm        77.2mm      329.95mm       77.75mm  B        270.00 Pullup         
R32        AP1-00001             149.3mm       93.35mm       149.3mm       93.35mm       149.3mm        93.9mm  T        270.00 Pullup         
R31        AP1-00001             150.7mm       93.35mm       150.7mm       93.35mm       150.7mm        93.9mm  T        270.00 Pullup         
R29        AP1-00001             312.1mm        77.2mm       312.1mm        77.2mm       312.1mm       77.75mm  B        270.00 Pullup         
R28        AP1-00001             230.8mm        90.3mm       230.8mm        90.3mm       230.8mm       90.85mm  T        270.00 Pullup         
R27        AP1-00001             232.1mm        90.3mm       232.1mm        90.3mm       232.1mm       90.85mm  T        270.00 Pullup         
R25        AP1-00001            314.65mm        77.2mm      314.65mm        77.2mm      314.65mm       77.75mm  B        270.00 Pullup         
R24        AP1-00001             230.8mm       87.65mm       230.8mm       87.65mm       230.8mm        88.2mm  T        270.00 Pullup         
R23        AP1-00001             232.1mm       87.65mm       232.1mm       87.65mm       232.1mm        88.2mm  T        270.00 Pullup         
R22        AP1-00001             317.6mm        77.2mm       317.6mm        77.2mm       317.6mm       77.75mm  B        270.00 Pullup         
R21        AP1-00001             218.6mm       87.65mm       218.6mm       87.65mm       218.6mm        88.2mm  T        270.00 Pullup         
R20        AP1-00001               220mm       87.65mm         220mm       87.65mm         220mm        88.2mm  T        270.00 Pullup         
R19        AP1-00001            320.05mm        77.2mm      320.05mm        77.2mm      320.05mm       77.75mm  B        270.00 Pullup         
R18        AP1-00001             218.6mm       90.25mm       218.6mm       90.25mm       218.6mm        90.8mm  T        270.00 Pullup         
R17        AP1-00001               220mm       90.25mm         220mm       90.25mm         220mm        90.8mm  T        270.00 Pullup         
R16        AP1-00001             322.9mm        77.2mm       322.9mm        77.2mm       322.9mm       77.75mm  B        270.00 Pullup         
R14        AP1-00001            182.38mm       92.63mm      182.38mm       92.63mm      182.38mm       92.08mm  T         90.00 Pullup         
R13        AP1-00001             325.7mm        77.2mm       325.7mm        77.2mm       325.7mm       77.75mm  B        270.00 Pullup         
R12        AP1-00001            157.33mm       92.54mm      157.33mm       92.54mm      157.33mm       91.99mm  T         90.00 Pullup         
R11        AP1-00001            158.53mm       92.54mm      158.53mm       92.54mm      158.53mm       91.99mm  T         90.00 Pullup         
R10        AP1-00001             328.3mm        77.2mm       328.3mm        77.2mm       328.3mm       77.75mm  B        270.00 Pullup         
R9         AP1-00001             134.7mm       93.35mm       134.7mm       93.35mm       134.7mm        93.9mm  T        270.00 Pullup         
R8         AP1-00001             136.1mm       93.35mm       136.1mm       93.35mm       136.1mm        93.9mm  T        270.00 Pullup         
R7         AP1-00001            331.05mm        77.2mm      331.05mm        77.2mm      331.05mm       77.75mm  B        270.00 Pullup         
R6         AP1-00001             137.5mm       93.35mm       137.5mm       93.35mm       137.5mm        93.9mm  T        270.00 Pullup         
R5         AP2-00000             138.9mm        93.4mm       138.9mm        93.4mm       138.9mm          94mm  T        270.00 Pullup         
R1         AP2-00011             44.25mm          84mm       44.25mm          84mm       43.75mm          84mm  T        360.00 R2             
P1         usb_a_sh            30.6317mm     52.9822mm          26mm          53mm     31.9868mm     56.4823mm  T        270.00 USB-A Conn. - 87520-xx1xx
P7-V12Neg  M3SCREW                 296mm          76mm         296mm          76mm         296mm          76mm  T          0.00 CopperScrewM3  
P12-V40SG4 M3SCREW                 282mm          78mm         282mm          78mm         282mm          78mm  T          0.00 CopperScrewM3  
P6-V12     M3SCREW                 296mm          68mm         296mm          68mm         296mm          68mm  T          0.00 CopperScrewM3  
P11-V40SG3 M3SCREW                  94mm          76mm          94mm          76mm          94mm          76mm  T          0.00 CopperScrewM3  
P5-V5      M3SCREW                 296mm          60mm         296mm          60mm         296mm          60mm  T          0.00 CopperScrewM3  
P10-V40SG2 M3SCREW                 282mm          90mm         282mm          90mm         282mm          90mm  T          0.00 CopperScrewM3  
P4-V5      M3SCREW                 296mm         108mm         296mm         108mm         296mm         108mm  T          0.00 CopperScrewM3  
P9-V40SG1  M3SCREW                  94mm          90mm          94mm          90mm          94mm          90mm  T          0.00 CopperScrewM3  
P3-V3V3    M3SCREW                 296mm         100mm         296mm         100mm         296mm         100mm  T          0.00 CopperScrewM3  
P8-V5      M3SCREW                 296mm          84mm         296mm          84mm         296mm          84mm  T          0.00 CopperScrewM3  
P2-V3V3    M3SCREW                 296mm         116mm         296mm         116mm         296mm         116mm  T          0.00 CopperScrewM3  
O2         SON254P340X265-4N    135.6851mm     78.0486mm    135.6851mm     78.0486mm    136.9551mm     79.3836mm  T        270.00 12MHZ          
O1         SON254P340X265-4N        60.5mm       69.85mm        60.5mm       69.85mm      61.835mm       68.58mm  T        180.00 3.072MHZ       
J24        WIZ820io              26.35mm       73.16mm          20mm          63mm          20mm          63mm  T         90.00 Wiznet Module (Qty 2 6 Pin .1 Header)
J23        HDR2X5                55.73mm       93.08mm          57mm          88mm          57mm          88mm  T         90.00 Header 5X2     
J22        SOP254P740X760-8N          42mm          51mm          42mm          51mm       38.19mm       47.65mm  T         90.00 8PinFemale     
J21        SOP254P740X760-8N          55mm          51mm          55mm          51mm       51.19mm       47.65mm  T         90.00 8PinFemale     
J20        HDR2X5                55.73mm      111.08mm          57mm         106mm          57mm         106mm  T         90.00 Header 5X2     
J18        PCIE-036-02-F-D-EMS3      75.508mm          69mm          66mm          69mm          66mm          69mm  T        360.00 PCI Express Connector - Saddle
J17        PCIE-036-02-F-D-EMS3      75.492mm          98mm          85mm          98mm          85mm          98mm  T        180.00 PCI Express Connector - Saddle
U37        SOTFL50P160X60-5N       192.7mm        89.8mm       192.7mm        89.8mm       192.2mm        89.1mm  T         90.00 Inverter       
J1         PCIE-036-02-F-D-EMS3     100.492mm          98mm         110mm          98mm         110mm          98mm  T        180.00 PCI Express Connector - Saddle
J2         PCIE-036-02-F-D-EMS3     125.492mm          98mm         135mm          98mm         135mm          98mm  T        180.00 PCI Express Connector - Saddle
J3         PCIE-036-02-F-D-EMS3     150.492mm          98mm         160mm          98mm         160mm          98mm  T        180.00 PCI Express Connector - Saddle
J4         PCIE-036-02-F-D-EMS3     175.492mm          98mm         185mm          98mm         185mm          98mm  T        180.00 PCI Express Connector - Saddle
J5         PCIE-036-02-F-D-EMS3     200.492mm          98mm         210mm          98mm         210mm          98mm  T        180.00 PCI Express Connector - Saddle
J6         PCIE-036-02-F-D-EMS3     225.492mm          98mm         235mm          98mm         235mm          98mm  T        180.00 PCI Express Connector - Saddle
J7         PCIE-036-02-F-D-EMS3     250.492mm          98mm         260mm          98mm         260mm          98mm  T        180.00 PCI Express Connector - Saddle
J8         PCIE-036-02-F-D-EMS3     275.492mm          98mm         285mm          98mm         285mm          98mm  T        180.00 PCI Express Connector - Saddle
J9         PCIE-036-02-F-D-EMS3     100.508mm          69mm          91mm          69mm          91mm          69mm  T        360.00 PCI Express Connector - Saddle
J10        PCIE-036-02-F-D-EMS3     125.508mm          69mm         116mm          69mm         116mm          69mm  T        360.00 PCI Express Connector - Saddle
J11        PCIE-036-02-F-D-EMS3     150.508mm          69mm         141mm          69mm         141mm          69mm  T        360.00 PCI Express Connector - Saddle
J12        PCIE-036-02-F-D-EMS3     175.508mm          69mm         166mm          69mm         166mm          69mm  T        360.00 PCI Express Connector - Saddle
J13        PCIE-036-02-F-D-EMS3     200.508mm          69mm         191mm          69mm         191mm          69mm  T        360.00 PCI Express Connector - Saddle
J14        PCIE-036-02-F-D-EMS3     225.508mm          69mm         216mm          69mm         216mm          69mm  T        360.00 PCI Express Connector - Saddle
J15        PCIE-036-02-F-D-EMS3     250.508mm          69mm         241mm          69mm         241mm          69mm  T        360.00 PCI Express Connector - Saddle
J16        PCIE-036-02-F-D-EMS3     275.508mm          69mm         266mm          69mm         266mm          69mm  T        360.00 PCI Express Connector - Saddle
U1         SOTFL50P160X60-5N         105mm        88.6mm         105mm        88.6mm       105.5mm        89.3mm  T        270.00 Buffer         
C11        AP1-00041          135.7191mm     76.9986mm    136.7351mm     76.9986mm    136.7351mm     76.9986mm  B        180.00                
C12        AP1-00001              59.5mm       69.85mm        59.5mm       69.85mm        59.5mm        69.3mm  B         90.00 CAP-NONPOL     
J19        AP8-00377             35.25mm         103mm          37mm         103mm        47.5mm     109.305mm  T         90.00 SD/MMC Card socket
R2         AP2-00000              50.2mm       85.05mm        50.2mm       85.05mm        49.6mm       85.05mm  T        360.00 R2             
R3         AP2-00000             47.05mm        84.3mm       47.05mm        84.3mm       47.05mm        84.9mm  T        270.00 R2             
R26        AP2-00000             115.7mm       77.45mm       115.7mm       77.45mm       115.7mm       76.85mm  B         90.00 R2             
R30        AP2-00000             114.4mm       77.45mm       114.4mm       77.45mm       114.4mm       78.05mm  B        270.00 R2             
J26        B4B-PH-K-S(LF)(SN)         324mm          88mm         324mm          88mm         321mm          88mm  T        360.00 B4B-PH-K-S(LF)(SN)
J27        B4B-PH-K-S(LF)(SN)         324mm          84mm         324mm          84mm         321mm          84mm  T        360.00 B4B-PH-K-S(LF)(SN)
J28        B4B-PH-K-S(LF)(SN)         324mm          80mm         324mm          80mm         321mm          80mm  T        360.00 B4B-PH-K-S(LF)(SN)
J29        B4B-PH-K-S(LF)(SN)         314mm          92mm         314mm          92mm         311mm          92mm  T        360.00 B4B-PH-K-S(LF)(SN)
J30        B4B-PH-K-S(LF)(SN)         314mm          88mm         314mm          88mm         311mm          88mm  T        360.00 B4B-PH-K-S(LF)(SN)
J31        B4B-PH-K-S(LF)(SN)         314mm          84mm         314mm          84mm         311mm          84mm  T        360.00 B4B-PH-K-S(LF)(SN)
J32        B4B-PH-K-S(LF)(SN)         314mm          80mm         314mm          80mm         311mm          80mm  T        360.00 B4B-PH-K-S(LF)(SN)
U45        SOIC127P600X175_HS-9N        40.1mm       61.25mm        40.1mm       61.25mm      42.825mm      59.345mm  T        180.00 TPS2021D       
U51        SOIC127P600X25-8N         117mm        76.7mm         117mm        76.7mm     113.725mm      78.605mm  T          0.00 AT25512        
J25        B4B-PH-K-S(LF)(SN)         324mm          92mm         324mm          92mm         321mm          92mm  T        360.00 B4B-PH-K-S(LF)(SN)
P16-GND    M3Screw                 296mm          52mm         296mm          52mm         296mm          52mm  T          0.00 CopperScrewM3  
P17-GND    M3Screw             40.0827mm          42mm     40.0827mm          42mm     40.0827mm          42mm  T          0.00 CopperScrewM3  
P13-GND    M3Screw                 110mm          76mm         110mm          76mm         110mm          76mm  T         90.00 CopperScrewM3  
P14-GND    M3Screw                 110mm          90mm         110mm          90mm         110mm          90mm  T         90.00 CopperScrewM3  
P15-GND    M3Screw                 296mm          92mm         296mm          92mm         296mm          92mm  T         90.00 CopperScrewM3  
J39        3220-10-0100         169.73mm      87.135mm      167.19mm        86.5mm      167.19mm        86.5mm  T         90.00 3220-10-0100 SWD
P2         M3Screw                  24mm          42mm          24mm          42mm          24mm          42mm  T          0.00 CopperScrewM3  
P3         M3Screw                  56mm         124mm          56mm         124mm          56mm         124mm  T          0.00 CopperScrewM3  
P4         M3Screw                 350mm          42mm         350mm          42mm         350mm          42mm  T          0.00 CopperScrewM3  
P5         M3Screw                 350mm         124mm         350mm         124mm         350mm         124mm  T          0.00 CopperScrewM3  
P6         M3Screw                  56mm          42mm          56mm          42mm          56mm          42mm  T          0.00 CopperScrewM3  
P7         M3Screw                  24mm         124mm          24mm         124mm          24mm         124mm  T          0.00 CopperScrewM3  
P8         M3Screw                 296mm          42mm         296mm          42mm         296mm          42mm  T          0.00 CopperScrewM3  
P9         M3Screw                 296mm         124mm         296mm         124mm         296mm         124mm  T          0.00 CopperScrewM3  
U38        PQFN50P500X500X100_HS-33N        55.6mm       63.95mm        55.6mm       63.95mm       57.35mm      66.365mm  T        270.00 NXP Dual Uart  
R4         AP2-00000             55.45mm       68.85mm       55.45mm       68.85mm       55.45mm       69.45mm  T        270.00 R2             
U33        SOTFL50P160X60-5N        56.2mm       77.85mm        56.2mm       77.85mm        56.9mm       77.35mm  T        180.00 Buffer         
U35        SOTFL50P160X60-5N       59.55mm       77.85mm       59.55mm       77.85mm       58.85mm       78.35mm  T        360.00 Buffer         
U69        SOTFL50P160X60-5N        56.2mm        80.8mm        56.2mm        80.8mm        56.9mm        80.3mm  T        180.00 Buffer         
R15        AP1-00001            183.48mm       92.63mm      183.48mm       92.63mm      183.48mm       92.08mm  T         90.00 Pullup         
U12        SOTFL50P160X60-5N      247.71mm       76.71mm      247.71mm       76.71mm      247.21mm       76.01mm  T         90.00 Buffer         
U59        SOTFL50P160X60-5N         119mm        88.8mm         119mm        88.8mm       118.5mm        88.1mm  T         90.00 Buffer         
U5         SOTFL50P160X60-5N       127.4mm        88.8mm       127.4mm        88.8mm       126.9mm        88.1mm  T         90.00 Buffer         

