Removed Pin From Net: NetName=GND Pin=C219-2
Removed Pin From Net: NetName=GND Pin=U1-A1
Removed Pin From Net: NetName=S13GPIO7 Pin=U1-A2
Removed Pin From Net: NetName=S13GPIO2 Pin=U1-A3
Removed Pin From Net: NetName=S14GPIO6 Pin=U1-A4
Removed Pin From Net: NetName=S14TXD Pin=U1-A5
Removed Pin From Net: NetName=S15GPIO3 Pin=U1-A8
Removed Pin From Net: NetName=S15GPIO4 Pin=U1-A9
Removed Pin From Net: NetName=S15GPIO2 Pin=U1-A10
Removed Pin From Net: NetName=S16GPIO7 Pin=U1-A13
Removed Pin From Net: NetName=S16GPIO1 Pin=U1-A14
Removed Pin From Net: NetName=S16TXD Pin=U1-A15
Removed Pin From Net: NetName=S16MISO Pin=U1-A16
Removed Pin From Net: NetName=GND Pin=U1-A22
Removed Pin From Net: NetName=S13GPIO1 Pin=U1-AA1
Removed Pin From Net: NetName=S13MISO Pin=U1-AA2
Removed Pin From Net: NetName=S5MISO Pin=U1-AA3
Removed Pin From Net: NetName=S5GPIO2 Pin=U1-AA4
Removed Pin From Net: NetName=S6RXD Pin=U1-AA6
Removed Pin From Net: NetName=GND Pin=U1-AA7
Removed Pin From Net: NetName=S6GPIO2 Pin=U1-AA8
Removed Pin From Net: NetName=S6GPIO8 Pin=U1-AA10
Removed Pin From Net: NetName=GND Pin=U1-AA11
Removed Pin From Net: NetName=S7TXD Pin=U1-AA12
Removed Pin From Net: NetName=S7GPIO5 Pin=U1-AA14
Removed Pin From Net: NetName=S7GPIO8 Pin=U1-AA15
Removed Pin From Net: NetName=GND Pin=U1-AA16
Removed Pin From Net: NetName=S8MISO Pin=U1-AA17
Removed Pin From Net: NetName=S8GPIO7 Pin=U1-AA19
Removed Pin From Net: NetName=S1SCL Pin=U1-AA22
Removed Pin From Net: NetName=GND Pin=U1-AB1
Removed Pin From Net: NetName=S5GPIO1 Pin=U1-AB2
Removed Pin From Net: NetName=S5GPIO3 Pin=U1-AB3
Removed Pin From Net: NetName=S5GPIO7 Pin=U1-AB4
Removed Pin From Net: NetName=S5GPIO6 Pin=U1-AB5
Removed Pin From Net: NetName=S6SCL Pin=U1-AB6
Removed Pin From Net: NetName=S6ERR Pin=U1-AB7
Removed Pin From Net: NetName=S6GPIO1 Pin=U1-AB8
Removed Pin From Net: NetName=S6GPIO5 Pin=U1-AB9
Removed Pin From Net: NetName=S6GPIO7 Pin=U1-AB10
Removed Pin From Net: NetName=S7SIG Pin=U1-AB11
Removed Pin From Net: NetName=S7SDA Pin=U1-AB12
Removed Pin From Net: NetName=S7GPIO3 Pin=U1-AB13
Removed Pin From Net: NetName=S7GPIO4 Pin=U1-AB14
Removed Pin From Net: NetName=S8SIG Pin=U1-AB15
Removed Pin From Net: NetName=S8SDA Pin=U1-AB16
Removed Pin From Net: NetName=S8GPIO2 Pin=U1-AB17
Removed Pin From Net: NetName=S8GPIO1 Pin=U1-AB18
Removed Pin From Net: NetName=S8GPIO8 Pin=U1-AB19
Removed Pin From Net: NetName=S9ERR Pin=U1-AB21
Removed Pin From Net: NetName=GND Pin=U1-AB22
Removed Pin From Net: NetName=S9GPIO1 Pin=U1-B1
Removed Pin From Net: NetName=S13GPIO8 Pin=U1-B2
Removed Pin From Net: NetName=S13GPIO1 Pin=U1-B3
Removed Pin From Net: NetName=S14GPIO5 Pin=U1-B4
Removed Pin From Net: NetName=S14MISO Pin=U1-B6
Removed Pin From Net: NetName=GND Pin=U1-B7
Removed Pin From Net: NetName=S14RXD Pin=U1-B8
Removed Pin From Net: NetName=S15GPIO8 Pin=U1-B9
Removed Pin From Net: NetName=S15SDA Pin=U1-B11
Removed Pin From Net: NetName=GND Pin=U1-B12
Removed Pin From Net: NetName=S16GPIO8 Pin=U1-B13
Removed Pin From Net: NetName=S16GPIO2 Pin=U1-B15
Removed Pin From Net: NetName=GND Pin=U1-B16
Removed Pin From Net: NetName=S5SIG Pin=U1-B21
Removed Pin From Net: NetName=S5SCL Pin=U1-B22
Removed Pin From Net: NetName=S9TXD Pin=U1-C1
Removed Pin From Net: NetName=S9MISO Pin=U1-C2
Removed Pin From Net: NetName=GND Pin=U1-C3
Removed Pin From Net: NetName=S14GPIO8 Pin=U1-C5
Removed Pin From Net: NetName=S14GPIO2 Pin=U1-C6
Removed Pin From Net: NetName=S14ERR Pin=U1-C7
Removed Pin From Net: NetName=S14SCL Pin=U1-C8
Removed Pin From Net: NetName=S15GPIO7 Pin=U1-C9
Removed Pin From Net: NetName=S15GPIO1 Pin=U1-C10
Removed Pin From Net: NetName=S15ERR Pin=U1-C11
Removed Pin From Net: NetName=S15RXD Pin=U1-C12
Removed Pin From Net: NetName=S16GPIO5 Pin=U1-C13
Removed Pin From Net: NetName=S16RXD Pin=U1-C14
Removed Pin From Net: NetName=S16ERR Pin=U1-C15
Removed Pin From Net: NetName=GND Pin=U1-C20
Removed Pin From Net: NetName=S4GPIO7 Pin=U1-C21
Removed Pin From Net: NetName=S4GPIO8 Pin=U1-C22
Removed Pin From Net: NetName=S9GPIO7 Pin=U1-D1
Removed Pin From Net: NetName=S9SDA Pin=U1-D2
Removed Pin From Net: NetName=S9GPIO3 Pin=U1-D3
Removed Pin From Net: NetName=S14GPIO7 Pin=U1-D5
Removed Pin From Net: NetName=S14GPIO1 Pin=U1-D6
Removed Pin From Net: NetName=S14SDA Pin=U1-D7
Removed Pin From Net: NetName=S14GPIO3 Pin=U1-D8
Removed Pin From Net: NetName=GND Pin=U1-D9
Removed Pin From Net: NetName=S15GPIO6 Pin=U1-D10
Removed Pin From Net: NetName=S15MISO Pin=U1-D11
Removed Pin From Net: NetName=S16GPIO6 Pin=U1-D13
Removed Pin From Net: NetName=GND Pin=U1-D14
Removed Pin From Net: NetName=S16SDA Pin=U1-D15
Removed Pin From Net: NetName=S4GPIO5 Pin=U1-D20
Removed Pin From Net: NetName=S4GPIO6 Pin=U1-D21
Removed Pin From Net: NetName=S4GPIO3 Pin=U1-D22
Removed Pin From Net: NetName=S9GPIO6 Pin=U1-E1
Removed Pin From Net: NetName=S9GPIO8 Pin=U1-E3
Removed Pin From Net: NetName=S9GPIO2 Pin=U1-E4
Removed Pin From Net: NetName=S13GPIO5 Pin=U1-E6
Removed Pin From Net: NetName=S13GPIO4 Pin=U1-E7
Removed Pin From Net: NetName=S14GPIO4 Pin=U1-E9
Removed Pin From Net: NetName=S15GPIO5 Pin=U1-E10
Removed Pin From Net: NetName=S15TXD Pin=U1-E11
Removed Pin From Net: NetName=S15SCL Pin=U1-E12
Removed Pin From Net: NetName=S16GPIO3 Pin=U1-E13
Removed Pin From Net: NetName=S16SCL Pin=U1-E14
Removed Pin From Net: NetName=S4MISO Pin=U1-E20
Removed Pin From Net: NetName=S4GPIO4 Pin=U1-E22
Removed Pin From Net: NetName=S10TXD Pin=U1-F1
Removed Pin From Net: NetName=S10MISO Pin=U1-F2
Removed Pin From Net: NetName=S10RXD Pin=U1-F3
Removed Pin From Net: NetName=S10SIG Pin=U1-F4
Removed Pin From Net: NetName=GND Pin=U1-F6
Removed Pin From Net: NetName=S13GPIO6 Pin=U1-F7
Removed Pin From Net: NetName=S13GPIO3 Pin=U1-F8
Removed Pin From Net: NetName=GND Pin=U1-F11
Removed Pin From Net: NetName=S16GPIO4 Pin=U1-F13
Removed Pin From Net: NetName=GND Pin=U1-F17
Removed Pin From Net: NetName=S4GPIO1 Pin=U1-F18
Removed Pin From Net: NetName=S4GPIO2 Pin=U1-F19
Removed Pin From Net: NetName=S4TXD Pin=U1-F20
Removed Pin From Net: NetName=S4SCL Pin=U1-F21
Removed Pin From Net: NetName=S4RXD Pin=U1-F22
Removed Pin From Net: NetName=S10GPIO1 Pin=U1-G1
Removed Pin From Net: NetName=GND Pin=U1-G2
Removed Pin From Net: NetName=S10GPIO2 Pin=U1-G3
Removed Pin From Net: NetName=S10SCL Pin=U1-G4
Removed Pin From Net: NetName=S9GPIO4 Pin=U1-G5
Removed Pin From Net: NetName=S9GPIO5 Pin=U1-G6
Removed Pin From Net: NetName=S5RXD Pin=U1-G17
Removed Pin From Net: NetName=GND Pin=U1-G21
Removed Pin From Net: NetName=S3GPIO4 Pin=U1-G22
Removed Pin From Net: NetName=S10GPIO5 Pin=U1-H1
Removed Pin From Net: NetName=S10GPIO6 Pin=U1-H2
Removed Pin From Net: NetName=S10GPIO3 Pin=U1-H3
Removed Pin From Net: NetName=S10GPIO4 Pin=U1-H4
Removed Pin From Net: NetName=S4ERR Pin=U1-H19
Removed Pin From Net: NetName=S3GPIO8 Pin=U1-H20
Removed Pin From Net: NetName=S4SIG Pin=U1-H21
Removed Pin From Net: NetName=S3GPIO5 Pin=U1-H22
Removed Pin From Net: NetName=S10GPIO7 Pin=U1-J1
Removed Pin From Net: NetName=S10GPIO8 Pin=U1-J3
Removed Pin From Net: NetName=GND Pin=U1-J4
Removed Pin From Net: NetName=S10ERR Pin=U1-J5
Removed Pin From Net: NetName=GND Pin=U1-J9
Removed Pin From Net: NetName=GND Pin=U1-J11
Removed Pin From Net: NetName=GND Pin=U1-J13
Removed Pin From Net: NetName=GND Pin=U1-J14
Removed Pin From Net: NetName=S4SDA Pin=U1-J18
Removed Pin From Net: NetName=GND Pin=U1-J19
Removed Pin From Net: NetName=S3GPIO2 Pin=U1-J20
Removed Pin From Net: NetName=S3GPIO3 Pin=U1-J21
Removed Pin From Net: NetName=S3SDA Pin=U1-J22
Removed Pin From Net: NetName=S11TXD Pin=U1-K1
Removed Pin From Net: NetName=S11RXD Pin=U1-K2
Removed Pin From Net: NetName=S11SIG Pin=U1-K4
Removed Pin From Net: NetName=S11SCL Pin=U1-K5
Removed Pin From Net: NetName=S10SDA Pin=U1-K6
Removed Pin From Net: NetName=S15SIG Pin=U1-K7
Removed Pin From Net: NetName=GND Pin=U1-K10
Removed Pin From Net: NetName=GND Pin=U1-K12
Removed Pin From Net: NetName=S3GPIO7 Pin=U1-K17
Removed Pin From Net: NetName=S3GPIO6 Pin=U1-K18
Removed Pin From Net: NetName=S3ERR Pin=U1-K20
Removed Pin From Net: NetName=S3TXD Pin=U1-K22
Removed Pin From Net: NetName=S11SDA Pin=U1-L1
Removed Pin From Net: NetName=GND Pin=U1-L2
Removed Pin From Net: NetName=S11ERR Pin=U1-L5
Removed Pin From Net: NetName=GND Pin=U1-L6
Removed Pin From Net: NetName=S14SIG Pin=U1-L8
Removed Pin From Net: NetName=GND Pin=U1-L9
Removed Pin From Net: NetName=GND Pin=U1-L11
Removed Pin From Net: NetName=GND Pin=U1-L13
Removed Pin From Net: NetName=GND Pin=U1-L17
Removed Pin From Net: NetName=S3GPIO1 Pin=U1-L18
Removed Pin From Net: NetName=S3MISO Pin=U1-L19
Removed Pin From Net: NetName=S3SIG Pin=U1-L20
Removed Pin From Net: NetName=S3SCL Pin=U1-L21
Removed Pin From Net: NetName=S2GPIO7 Pin=U1-L22
Removed Pin From Net: NetName=S11GPIO1 Pin=U1-M1
Removed Pin From Net: NetName=S11MISO Pin=U1-M2
Removed Pin From Net: NetName=S11GPIO3 Pin=U1-M3
Removed Pin From Net: NetName=S11GPIO2 Pin=U1-M4
Removed Pin From Net: NetName=S12RXD Pin=U1-M5
Removed Pin From Net: NetName=S16SIG Pin=U1-M8
Removed Pin From Net: NetName=GND Pin=U1-M10
Removed Pin From Net: NetName=GND Pin=U1-M12
Removed Pin From Net: NetName=GND Pin=U1-M14
Removed Pin From Net: NetName=S3RXD Pin=U1-M20
Removed Pin From Net: NetName=GND Pin=U1-M21
Removed Pin From Net: NetName=S2GPIO8 Pin=U1-M22
Removed Pin From Net: NetName=S11GPIO5 Pin=U1-N1
Removed Pin From Net: NetName=S11GPIO4 Pin=U1-N3
Removed Pin From Net: NetName=S12SCL Pin=U1-N4
Removed Pin From Net: NetName=GND Pin=U1-N11
Removed Pin From Net: NetName=GND Pin=U1-N13
Removed Pin From Net: NetName=S2GPIO5 Pin=U1-N17
Removed Pin From Net: NetName=S2GPIO6 Pin=U1-N18
Removed Pin From Net: NetName=S2GPIO3 Pin=U1-N19
Removed Pin From Net: NetName=S2GPIO4 Pin=U1-N20
Removed Pin From Net: NetName=S2GPIO1 Pin=U1-N21
Removed Pin From Net: NetName=S2GPIO2 Pin=U1-N22
Removed Pin From Net: NetName=S11GPIO7 Pin=U1-P1
Removed Pin From Net: NetName=S11GPIO6 Pin=U1-P2
Removed Pin From Net: NetName=S12SIG Pin=U1-P3
Removed Pin From Net: NetName=GND Pin=U1-P4
Removed Pin From Net: NetName=S11GPIO8 Pin=U1-P5
Removed Pin From Net: NetName=GND Pin=U1-P9
Removed Pin From Net: NetName=GND Pin=U1-P10
Removed Pin From Net: NetName=GND Pin=U1-P14
Removed Pin From Net: NetName=S2TXD Pin=U1-P18
Removed Pin From Net: NetName=GND Pin=U1-P19
Removed Pin From Net: NetName=S2SDA Pin=U1-P20
Removed Pin From Net: NetName=S2ERR Pin=U1-P22
Removed Pin From Net: NetName=S12SDA Pin=U1-R3
Removed Pin From Net: NetName=S12ERR Pin=U1-R4
Removed Pin From Net: NetName=S12MISO Pin=U1-R5
Removed Pin From Net: NetName=S2MISO Pin=U1-R19
Removed Pin From Net: NetName=S2RXD Pin=U1-R20
Removed Pin From Net: NetName=S12GPIO2 Pin=U1-T1
Removed Pin From Net: NetName=GND Pin=U1-T2
Removed Pin From Net: NetName=S12GPIO1 Pin=U1-T3
Removed Pin From Net: NetName=S12TXD Pin=U1-T4
Removed Pin From Net: NetName=S12GPIO8 Pin=U1-T5
Removed Pin From Net: NetName=GND Pin=U1-T12
Removed Pin From Net: NetName=S1ERR Pin=U1-T17
Removed Pin From Net: NetName=S2SCL Pin=U1-T19
Removed Pin From Net: NetName=S2SIG Pin=U1-T20
Removed Pin From Net: NetName=GND Pin=U1-T21
Removed Pin From Net: NetName=S1GPIO8 Pin=U1-T22
Removed Pin From Net: NetName=S12GPIO4 Pin=U1-U1
Removed Pin From Net: NetName=S12GPIO3 Pin=U1-U2
Removed Pin From Net: NetName=S13SCL Pin=U1-U3
Removed Pin From Net: NetName=S13SIG Pin=U1-U4
Removed Pin From Net: NetName=S12GPIO7 Pin=U1-U5
Removed Pin From Net: NetName=GND Pin=U1-U6
Removed Pin From Net: NetName=S7MISO Pin=U1-U12
Removed Pin From Net: NetName=GND Pin=U1-U17
Removed Pin From Net: NetName=S1GPIO6 Pin=U1-U19
Removed Pin From Net: NetName=S1GPIO7 Pin=U1-U20
Removed Pin From Net: NetName=S1GPIO4 Pin=U1-U21
Removed Pin From Net: NetName=S1GPIO5 Pin=U1-U22
Removed Pin From Net: NetName=S12GPIO6 Pin=U1-V1
Removed Pin From Net: NetName=S12GPIO5 Pin=U1-V3
Removed Pin From Net: NetName=S13ERR Pin=U1-V4
Removed Pin From Net: NetName=S5ERR Pin=U1-V6
Removed Pin From Net: NetName=S6GPIO4 Pin=U1-V10
Removed Pin From Net: NetName=S7RXD Pin=U1-V11
Removed Pin From Net: NetName=S7GPIO1 Pin=U1-V12
Removed Pin From Net: NetName=S8GPIO4 Pin=U1-V14
Removed Pin From Net: NetName=S8GPIO3 Pin=U1-V15
Removed Pin From Net: NetName=S8GPIO5 Pin=U1-V16
Removed Pin From Net: NetName=S9SIG Pin=U1-V17
Removed Pin From Net: NetName=S1GPIO1 Pin=U1-V19
Removed Pin From Net: NetName=S1MISO Pin=U1-V20
Removed Pin From Net: NetName=S1GPIO2 Pin=U1-V22
Removed Pin From Net: NetName=S13RXD Pin=U1-W2
Removed Pin From Net: NetName=S5TXD Pin=U1-W4
Removed Pin From Net: NetName=S5GPIO5 Pin=U1-W6
Removed Pin From Net: NetName=S6SIG Pin=U1-W7
Removed Pin From Net: NetName=S6MISO Pin=U1-W8
Removed Pin From Net: NetName=GND Pin=U1-W10
Removed Pin From Net: NetName=S7ERR Pin=U1-W12
Removed Pin From Net: NetName=S7GPIO7 Pin=U1-W13
Removed Pin From Net: NetName=GND Pin=U1-W14
Removed Pin From Net: NetName=S8RXD Pin=U1-W15
Removed Pin From Net: NetName=S8GPIO6 Pin=U1-W16
Removed Pin From Net: NetName=S9RXD Pin=U1-W17
Removed Pin From Net: NetName=S9SCL Pin=U1-W18
Removed Pin From Net: NetName=S1RXD Pin=U1-W20
Removed Pin From Net: NetName=S1SDA Pin=U1-W21
Removed Pin From Net: NetName=S1GPIO3 Pin=U1-W22
Removed Pin From Net: NetName=S13TXD Pin=U1-Y1
Removed Pin From Net: NetName=S13SDA Pin=U1-Y2
Removed Pin From Net: NetName=GND Pin=U1-Y3
Removed Pin From Net: NetName=S5SDA Pin=U1-Y4
Removed Pin From Net: NetName=S5GPIO4 Pin=U1-Y5
Removed Pin From Net: NetName=S5GPIO8 Pin=U1-Y6
Removed Pin From Net: NetName=S6SDA Pin=U1-Y7
Removed Pin From Net: NetName=S6TXD Pin=U1-Y8
Removed Pin From Net: NetName=S6GPIO6 Pin=U1-Y9
Removed Pin From Net: NetName=S6GPIO3 Pin=U1-Y10
Removed Pin From Net: NetName=S7SCL Pin=U1-Y11
Removed Pin From Net: NetName=S7GPIO2 Pin=U1-Y13
Removed Pin From Net: NetName=S7GPIO6 Pin=U1-Y14
Removed Pin From Net: NetName=S8SCL Pin=U1-Y15
Removed Pin From Net: NetName=S8ERR Pin=U1-Y16
Removed Pin From Net: NetName=S8TXD Pin=U1-Y17
Removed Pin From Net: NetName=GND Pin=U1-Y20
Removed Pin From Net: NetName=S1SIG Pin=U1-Y21
Removed Pin From Net: NetName=S1TXD Pin=U1-Y22
Removed Pin From Net: NetName=GND Pin=U200-8
Removed Pin From Net: NetName=GND Pin=U200-44
Removed Pin From Net: NetName=GND Pin=U200-61
Removed Pin From Net: NetName=GND Pin=U200-95
Removed Pin From Net: NetName=GND Pin=U200-115
Removed Pin From Net: NetName=GND Pin=U200-135
Removed Pin From Net: NetName=GND Pin=U200-138
Removed Member From Class: ClassName=Sheet3_CPU Member=C219
Removed Member From Class: ClassName=Sheet3_CPU Member=J200
Removed Member From Class: ClassName=Sheet3_CPU Member=U200
Change Component DesignItemId : Designator=U1 Old DesignItemId=XC3S700AN-4FG484C New DesignItemId=SN74LVC1G125DRLR
Change Component Footprint: Designator=U1 Old Footprint=FG484 New Footprint=SOTFL50P160X60-5N
Change Component Comment : Designator=U1 Old Comment=XC3S700AN-4FG484C New Comment=Buffer
Added Component: Designator=*1(SOTFL50P160X60-5N)
Added Component: Designator=J17(PCIE-036-02-F-D-EMS3)
Added Component: Designator=J18(PCIE-036-02-F-D-EMS3)
Added Component: Designator=J20(HDR2X5)
Added Component: Designator=J21(SOP254P740X760-8N)
Added Component: Designator=J22(SOP254P740X760-8N)
Added Component: Designator=J23(HDR2X5)
Added Component: Designator=J24(WIZ820io)
Added Component: Designator=O1(SON254P340X265-4N)
Added Component: Designator=O2(SON254P340X265-4N)
Added Component: Designator=P1(M3Screw)
Added Component: Designator=P2(M3Screw)
Added Component: Designator=P3(M3Screw)
Added Component: Designator=P4(M3Screw)
Added Component: Designator=P5(M3Screw)
Added Component: Designator=P6(M3Screw)
Added Component: Designator=P7(M3Screw)
Added Component: Designator=P8(M3Screw)
Added Component: Designator=P9(M3Screw)
Added Component: Designator=P10(M3Screw)
Added Component: Designator=P11(M3Screw)
Added Component: Designator=P12(usb_a_sh)
Added Component: Designator=R1(AP2-00011)
Added Component: Designator=R5(AP2-00000)
Added Component: Designator=R6(AP1-00001)
Added Component: Designator=R7(AP1-00001)
Added Component: Designator=R8(AP1-00001)
Added Component: Designator=R9(AP1-00001)
Added Component: Designator=R10(AP1-00001)
Added Component: Designator=R11(AP1-00001)
Added Component: Designator=R12(AP1-00001)
Added Component: Designator=R13(AP1-00001)
Added Component: Designator=R14(AP1-00001)
Added Component: Designator=R15(AP1-00001)
Added Component: Designator=R16(AP1-00001)
Added Component: Designator=R17(AP1-00001)
Added Component: Designator=R18(AP1-00001)
Added Component: Designator=R19(AP1-00001)
Added Component: Designator=R20(AP1-00001)
Added Component: Designator=R21(AP1-00001)
Added Component: Designator=R22(AP1-00001)
Added Component: Designator=R23(AP1-00001)
Added Component: Designator=R24(AP1-00001)
Added Component: Designator=R25(AP1-00001)
Added Component: Designator=R27(AP1-00001)
Added Component: Designator=R28(AP1-00001)
Added Component: Designator=R29(AP1-00001)
Added Component: Designator=R31(AP1-00001)
Added Component: Designator=R32(AP1-00001)
Added Component: Designator=R33(AP1-00001)
Added Component: Designator=R34(AP1-00001)
Added Component: Designator=R35(AP1-00001)
Added Component: Designator=R36(AP1-00001)
Added Component: Designator=R37(AP1-00001)
Added Component: Designator=R38(AP1-00001)
Added Component: Designator=R39(AP1-00001)
Added Component: Designator=R40(AP1-00001)
Added Component: Designator=R41(AP1-00001)
Added Component: Designator=R42(AP1-00001)
Added Component: Designator=R43(AP1-00001)
Added Component: Designator=R44(AP1-00001)
Added Component: Designator=R45(AP1-00001)
Added Component: Designator=R46(AP1-00001)
Added Component: Designator=R47(AP1-00001)
Added Component: Designator=R48(AP1-00001)
Added Component: Designator=R49(AP1-00001)
Added Component: Designator=R50(AP1-00001)
Added Component: Designator=R51(AP1-00001)
Added Component: Designator=R52(AP1-00001)
Added Component: Designator=R53(AP1-00001)
Added Component: Designator=R54(AP1-00001)
Added Component: Designator=R55(AP1-00001)
Added Component: Designator=R56(AP1-00001)
Added Component: Designator=U2(SOTFL50P160X60-5N)
Added Component: Designator=U3(SOTFL50P160X60-5N)
Added Component: Designator=U4(SOTFL50P160X60-5N)
Added Component: Designator=U5(SOTFL50P160X60-5N)
Added Component: Designator=U6(SOTFL50P160X60-5N)
Added Component: Designator=U7(SOTFL50P160X60-5N)
Added Component: Designator=U8(SOTFL50P160X60-5N)
Added Component: Designator=U9(SOTFL50P160X60-5N)
Added Component: Designator=U10(SOTFL50P160X60-5N)
Added Component: Designator=U11(SOTFL50P160X60-5N)
Added Component: Designator=U12(SOTFL50P160X60-5N)
Added Component: Designator=U13(SOTFL50P160X60-5N)
Added Component: Designator=U14(SOTFL50P160X60-5N)
Added Component: Designator=U15(SOTFL50P160X60-5N)
Added Component: Designator=U16(SOTFL50P160X60-5N)
Added Component: Designator=U17(SOTFL50P160X60-5N)
Added Component: Designator=U18(TSQFP50P1300X1300X120-64N)
Added Component: Designator=U19(SOTFL50P160X60-5N)
Added Component: Designator=U20(SOTFL50P160X60-5N)
Added Component: Designator=U21(SOTFL50P160X60-5N)
Added Component: Designator=U22(SOTFL50P160X60-5N)
Added Component: Designator=U23(SOTFL50P160X60-5N)
Added Component: Designator=U24(SOTFL50P160X60-5N)
Added Component: Designator=U25(SOTFL50P160X60-5N)
Added Component: Designator=U26(SOTFL50P160X60-5N)
Added Component: Designator=U27(SOTFL50P160X60-5N)
Added Component: Designator=U28(SOTFL50P160X60-5N)
Added Component: Designator=U29(SOTFL50P160X60-5N)
Added Component: Designator=U30(SOTFL50P160X60-5N)
Added Component: Designator=U31(SOIC127P1030X265-24N)
Added Component: Designator=U32(SOTFL50P160X60-5N)
Added Component: Designator=U33(SOTFL50P160X60-5N)
Added Component: Designator=U34(SOTFL50P160X60-5N)
Added Component: Designator=U35(SOTFL50P160X60-5N)
Added Component: Designator=U36(SOIC127P1030X265-24N)
Added Component: Designator=U37(PQFN50P500X500X100_HS-33N)
Added Component: Designator=U38(USB_A_SH)
Added Component: Designator=U39(S-PVQFN-N16)
Added Component: Designator=U40(SOTFL50P160X60-5N)
Added Component: Designator=U41(SOTFL50P160X60-5N)
Added Component: Designator=U42(SOTFL50P160X60-5N)
Added Component: Designator=U43(S-PVQFN-N16)
Added Component: Designator=U45(SOTFL50P160X60-5N)
Added Component: Designator=U46(S-PVQFN-N16)
Added Component: Designator=U47(S-PVQFN-N16)
Added Component: Designator=U48(SOTFL50P160X60-5N)
Added Component: Designator=U49(S-PVQFN-N16)
Added Component: Designator=U51(S-PVQFN-N16)
Added Component: Designator=U52(SOTFL50P160X60-5N)
Added Component: Designator=U53(PQFN50P400X400X90_HS-25N)
Added Component: Designator=U54(PQFN50P400X400X90_HS-25N)
Added Component: Designator=U55(PQFN50P400X400X90_HS-25N)
Added Component: Designator=U56(PQFN50P400X400X90_HS-25N)
Added Component: Designator=U57(SOTFL50P160X60-5N)
Added Component: Designator=U58(SOTFL50P160X60-5N)
Added Component: Designator=U59(SOTFL50P160X60-5N)
Added Component: Designator=U60(SOTFL50P160X60-5N)
Added Component: Designator=U61(PQFN50P400X400X90_HS-25N)
Added Component: Designator=U62(PQFN50P400X400X90_HS-25N)
Added Component: Designator=U63(PQFN50P400X400X90_HS-25N)
Added Component: Designator=U64(SOTFL50P160X60-5N)
Added Component: Designator=U65(SOTFL50P160X60-5N)
Added Component: Designator=U66(SOTFL50P160X60-5N)
Added Component: Designator=U67(PQFN50P400X400X90_HS-25N)
Added Component: Designator=U68(SOTFL50P160X60-5N)
Added Pin To Net: NetName=GND Pin=*1-3
Added Pin To Net: NetName=V5SLOT Pin=J17-A1
Added Pin To Net: NetName=GND Pin=J17-A5
Added Pin To Net: NetName=SLOTGND Pin=J17-A12
Added Pin To Net: NetName=SLOTGND Pin=J17-A13
Added Pin To Net: NetName=SLOTGND Pin=J17-A14
Added Pin To Net: NetName=SLOTGND Pin=J17-A15
Added Pin To Net: NetName=SLOTGND Pin=J17-A16
Added Pin To Net: NetName=SLOTGND Pin=J17-A17
Added Pin To Net: NetName=SLOTGND Pin=J17-A18
Added Pin To Net: NetName=GND Pin=J17-B1
Added Pin To Net: NetName=V3V3SLOT Pin=J17-B5
Added Pin To Net: NetName=GND Pin=J17-B7
Added Pin To Net: NetName=V12NEG Pin=J17-B12
Added Pin To Net: NetName=V12 Pin=J17-B13
Added Pin To Net: NetName=V40SG4 Pin=J17-B14
Added Pin To Net: NetName=V40SG4 Pin=J17-B15
Added Pin To Net: NetName=V40SG4 Pin=J17-B16
Added Pin To Net: NetName=V40SG4 Pin=J17-B17
Added Pin To Net: NetName=V40SG4 Pin=J17-B18
Added Pin To Net: NetName=V5SLOT Pin=J18-A1
Added Pin To Net: NetName=GND Pin=J18-A5
Added Pin To Net: NetName=SLOTGND Pin=J18-A12
Added Pin To Net: NetName=SLOTGND Pin=J18-A13
Added Pin To Net: NetName=SLOTGND Pin=J18-A14
Added Pin To Net: NetName=SLOTGND Pin=J18-A15
Added Pin To Net: NetName=SLOTGND Pin=J18-A16
Added Pin To Net: NetName=SLOTGND Pin=J18-A17
Added Pin To Net: NetName=SLOTGND Pin=J18-A18
Added Pin To Net: NetName=GND Pin=J18-B1
Added Pin To Net: NetName=V3V3SLOT Pin=J18-B5
Added Pin To Net: NetName=GND Pin=J18-B7
Added Pin To Net: NetName=V12NEG Pin=J18-B12
Added Pin To Net: NetName=V12 Pin=J18-B13
Added Pin To Net: NetName=V40SG4 Pin=J18-B14
Added Pin To Net: NetName=V40SG4 Pin=J18-B15
Added Pin To Net: NetName=V40SG4 Pin=J18-B16
Added Pin To Net: NetName=V40SG4 Pin=J18-B17
Added Pin To Net: NetName=V40SG4 Pin=J18-B18
Added Pin To Net: NetName=GND Pin=J20-9
Added Pin To Net: NetName=GND Pin=J21-2
Added Pin To Net: NetName=GND Pin=J22-2
Added Pin To Net: NetName=GND Pin=J23-9
Added Pin To Net: NetName=GND Pin=J24-1
Added Pin To Net: NetName=GND Pin=J24-2
Added Pin To Net: NetName=GND Pin=O1-2
Added Pin To Net: NetName=GND Pin=O2-2
Added Pin To Net: NetName=V3V3SLOT Pin=P3-1
Added Pin To Net: NetName=V5SLOT Pin=P7-1
Added Pin To Net: NetName=V12 Pin=P9-1
Added Pin To Net: NetName=V12NEG Pin=P11-1
Added Pin To Net: NetName=GND Pin=P12-4
Added Pin To Net: NetName=GND Pin=P12-5
Added Pin To Net: NetName=GND Pin=P12-6
Added Pin To Net: NetName=S1SDA Pin=R5-2
Added Pin To Net: NetName=S1SCL Pin=R6-2
Added Pin To Net: NetName=S2SDA Pin=R8-2
Added Pin To Net: NetName=S2SCL Pin=R9-2
Added Pin To Net: NetName=S3SDA Pin=R11-2
Added Pin To Net: NetName=S3SCL Pin=R12-2
Added Pin To Net: NetName=S4SDA Pin=R14-2
Added Pin To Net: NetName=S4SCL Pin=R15-2
Added Pin To Net: NetName=S5SDA Pin=R17-2
Added Pin To Net: NetName=S5SCL Pin=R18-2
Added Pin To Net: NetName=S6SDA Pin=R20-2
Added Pin To Net: NetName=S6SCL Pin=R21-2
Added Pin To Net: NetName=S7SDA Pin=R23-2
Added Pin To Net: NetName=S7SCL Pin=R24-2
Added Pin To Net: NetName=S8SDA Pin=R27-2
Added Pin To Net: NetName=S8SCL Pin=R28-2
Added Pin To Net: NetName=S9SDA Pin=R31-2
Added Pin To Net: NetName=S9SCL Pin=R32-2
Added Pin To Net: NetName=S10SDA Pin=R34-2
Added Pin To Net: NetName=S10SCL Pin=R35-2
Added Pin To Net: NetName=S11SDA Pin=R37-2
Added Pin To Net: NetName=S11SCL Pin=R38-2
Added Pin To Net: NetName=S12SDA Pin=R40-2
Added Pin To Net: NetName=S12SCL Pin=R41-2
Added Pin To Net: NetName=S13SDA Pin=R43-2
Added Pin To Net: NetName=S13SCL Pin=R44-2
Added Pin To Net: NetName=S14SDA Pin=R46-2
Added Pin To Net: NetName=S14SCL Pin=R47-2
Added Pin To Net: NetName=S15SDA Pin=R49-2
Added Pin To Net: NetName=S15SCL Pin=R50-2
Added Pin To Net: NetName=S16SDA Pin=R53-2
Added Pin To Net: NetName=S16SCL Pin=R54-2
Added Pin To Net: NetName=S1GPIO1 Pin=U1-1
Added Pin To Net: NetName=S1MISO Pin=U1-2
Added Pin To Net: NetName=GND Pin=U1-3
Added Pin To Net: NetName=S5GPIO1 Pin=U2-1
Added Pin To Net: NetName=S5MISO Pin=U2-2
Added Pin To Net: NetName=GND Pin=U2-3
Added Pin To Net: NetName=S9GPIO1 Pin=U3-1
Added Pin To Net: NetName=S9MISO Pin=U3-2
Added Pin To Net: NetName=GND Pin=U3-3
Added Pin To Net: NetName=S13GPIO1 Pin=U4-1
Added Pin To Net: NetName=S13MISO Pin=U4-2
Added Pin To Net: NetName=GND Pin=U4-3
Added Pin To Net: NetName=S2GPIO1 Pin=U5-1
Added Pin To Net: NetName=S2MISO Pin=U5-2
Added Pin To Net: NetName=GND Pin=U5-3
Added Pin To Net: NetName=S6GPIO1 Pin=U6-1
Added Pin To Net: NetName=S6MISO Pin=U6-2
Added Pin To Net: NetName=GND Pin=U6-3
Added Pin To Net: NetName=S10GPIO1 Pin=U7-1
Added Pin To Net: NetName=S10MISO Pin=U7-2
Added Pin To Net: NetName=GND Pin=U7-3
Added Pin To Net: NetName=S14GPIO1 Pin=U8-1
Added Pin To Net: NetName=S14MISO Pin=U8-2
Added Pin To Net: NetName=GND Pin=U8-3
Added Pin To Net: NetName=S3GPIO1 Pin=U9-1
Added Pin To Net: NetName=S3MISO Pin=U9-2
Added Pin To Net: NetName=GND Pin=U9-3
Added Pin To Net: NetName=S7GPIO1 Pin=U10-1
Added Pin To Net: NetName=S7MISO Pin=U10-2
Added Pin To Net: NetName=GND Pin=U10-3
Added Pin To Net: NetName=S11GPIO1 Pin=U11-1
Added Pin To Net: NetName=S11MISO Pin=U11-2
Added Pin To Net: NetName=GND Pin=U11-3
Added Pin To Net: NetName=S15GPIO1 Pin=U12-1
Added Pin To Net: NetName=S15MISO Pin=U12-2
Added Pin To Net: NetName=GND Pin=U12-3
Added Pin To Net: NetName=S4GPIO1 Pin=U13-1
Added Pin To Net: NetName=S4MISO Pin=U13-2
Added Pin To Net: NetName=GND Pin=U13-3
Added Pin To Net: NetName=S8GPIO1 Pin=U14-1
Added Pin To Net: NetName=S8MISO Pin=U14-2
Added Pin To Net: NetName=GND Pin=U14-3
Added Pin To Net: NetName=S12GPIO1 Pin=U15-1
Added Pin To Net: NetName=S12MISO Pin=U15-2
Added Pin To Net: NetName=GND Pin=U15-3
Added Pin To Net: NetName=S16GPIO1 Pin=U16-1
Added Pin To Net: NetName=S16MISO Pin=U16-2
Added Pin To Net: NetName=GND Pin=U16-3
Added Pin To Net: NetName=GND Pin=U17-3
Added Pin To Net: NetName=S1GPIO6 Pin=U18-5
Added Pin To Net: NetName=S1GPIO7 Pin=U18-6
Added Pin To Net: NetName=GND Pin=U18-7
Added Pin To Net: NetName=S4GPIO6 Pin=U18-9
Added Pin To Net: NetName=S4GPIO7 Pin=U18-10
Added Pin To Net: NetName=S5GPIO6 Pin=U18-11
Added Pin To Net: NetName=S5GPIO7 Pin=U18-12
Added Pin To Net: NetName=S11GPIO6 Pin=U18-15
Added Pin To Net: NetName=S11GPIO7 Pin=U18-16
Added Pin To Net: NetName=S12GPIO6 Pin=U18-17
Added Pin To Net: NetName=S12GPIO7 Pin=U18-18
Added Pin To Net: NetName=S13GPIO6 Pin=U18-19
Added Pin To Net: NetName=S13GPIO7 Pin=U18-20
Added Pin To Net: NetName=GND Pin=U18-22
Added Pin To Net: NetName=S6GPIO6 Pin=U18-23
Added Pin To Net: NetName=S6GPIO7 Pin=U18-24
Added Pin To Net: NetName=S7GPIO6 Pin=U18-25
Added Pin To Net: NetName=S7GPIO7 Pin=U18-26
Added Pin To Net: NetName=S8GPIO6 Pin=U18-27
Added Pin To Net: NetName=S8GPIO7 Pin=U18-28
Added Pin To Net: NetName=S14GPIO6 Pin=U18-29
Added Pin To Net: NetName=S14GPIO7 Pin=U18-30
Added Pin To Net: NetName=S10GPIO6 Pin=U18-31
Added Pin To Net: NetName=S10GPIO7 Pin=U18-32
Added Pin To Net: NetName=GND Pin=U18-33
Added Pin To Net: NetName=S9GPIO6 Pin=U18-39
Added Pin To Net: NetName=S9GPIO7 Pin=U18-40
Added Pin To Net: NetName=S15GPIO6 Pin=U18-43
Added Pin To Net: NetName=S15GPIO7 Pin=U18-44
Added Pin To Net: NetName=S2GPIO6 Pin=U18-51
Added Pin To Net: NetName=S2GPIO7 Pin=U18-53
Added Pin To Net: NetName=GND Pin=U18-54
Added Pin To Net: NetName=S1GPIO6 Pin=U18-59
Added Pin To Net: NetName=S1GPIO7 Pin=U18-60
Added Pin To Net: NetName=GND Pin=U19-3
Added Pin To Net: NetName=GND Pin=U20-3
Added Pin To Net: NetName=GND Pin=U21-3
Added Pin To Net: NetName=GND Pin=U22-3
Added Pin To Net: NetName=GND Pin=U23-3
Added Pin To Net: NetName=GND Pin=U24-3
Added Pin To Net: NetName=GND Pin=U25-3
Added Pin To Net: NetName=GND Pin=U26-3
Added Pin To Net: NetName=GND Pin=U27-3
Added Pin To Net: NetName=GND Pin=U28-3
Added Pin To Net: NetName=GND Pin=U29-3
Added Pin To Net: NetName=GND Pin=U30-3
Added Pin To Net: NetName=S1GPIO1 Pin=U31-1
Added Pin To Net: NetName=S2GPIO1 Pin=U31-2
Added Pin To Net: NetName=S3GPIO1 Pin=U31-3
Added Pin To Net: NetName=S4GPIO1 Pin=U31-4
Added Pin To Net: NetName=S5GPIO1 Pin=U31-5
Added Pin To Net: NetName=S6GPIO1 Pin=U31-6
Added Pin To Net: NetName=S7GPIO1 Pin=U31-7
Added Pin To Net: NetName=S8GPIO1 Pin=U31-8
Added Pin To Net: NetName=S9GPIO1 Pin=U31-9
Added Pin To Net: NetName=S10GPIO1 Pin=U31-10
Added Pin To Net: NetName=S11GPIO1 Pin=U31-11
Added Pin To Net: NetName=GND Pin=U31-12
Added Pin To Net: NetName=S12GPIO1 Pin=U31-13
Added Pin To Net: NetName=S13GPIO1 Pin=U31-14
Added Pin To Net: NetName=S14GPIO1 Pin=U31-15
Added Pin To Net: NetName=S15GPIO1 Pin=U31-16
Added Pin To Net: NetName=S16GPIO2 Pin=U31-17
Added Pin To Net: NetName=GND Pin=U32-3
Added Pin To Net: NetName=GND Pin=U33-3
Added Pin To Net: NetName=GND Pin=U34-3
Added Pin To Net: NetName=GND Pin=U35-3
Added Pin To Net: NetName=GND Pin=U36-12
Added Pin To Net: NetName=GND Pin=U37-11
Added Pin To Net: NetName=GND Pin=U37-12
Added Pin To Net: NetName=GND Pin=U37-21
Added Pin To Net: NetName=GND Pin=U37-29
Added Pin To Net: NetName=GND Pin=U37-33
Added Pin To Net: NetName=GND Pin=U38-3
Added Pin To Net: NetName=S1SDA Pin=U39-2
Added Pin To Net: NetName=S1SCL Pin=U39-3
Added Pin To Net: NetName=S2SDA Pin=U39-4
Added Pin To Net: NetName=S2SCL Pin=U39-5
Added Pin To Net: NetName=GND Pin=U39-6
Added Pin To Net: NetName=S3SDA Pin=U39-7
Added Pin To Net: NetName=S3SCL Pin=U39-8
Added Pin To Net: NetName=S4SDA Pin=U39-9
Added Pin To Net: NetName=S4SCL Pin=U39-10
Added Pin To Net: NetName=GND Pin=U39-11
Added Pin To Net: NetName=GND Pin=U39-15
Added Pin To Net: NetName=GND Pin=U39-16
Added Pin To Net: NetName=GND Pin=U40-3
Added Pin To Net: NetName=GND Pin=U41-3
Added Pin To Net: NetName=GND Pin=U42-3
Added Pin To Net: NetName=S5SDA Pin=U43-2
Added Pin To Net: NetName=S5SCL Pin=U43-3
Added Pin To Net: NetName=S6SDA Pin=U43-4
Added Pin To Net: NetName=S6SCL Pin=U43-5
Added Pin To Net: NetName=GND Pin=U43-6
Added Pin To Net: NetName=S7SDA Pin=U43-7
Added Pin To Net: NetName=S7SCL Pin=U43-8
Added Pin To Net: NetName=S8SDA Pin=U43-9
Added Pin To Net: NetName=S8SCL Pin=U43-10
Added Pin To Net: NetName=GND Pin=U43-11
Added Pin To Net: NetName=GND Pin=U43-16
Added Pin To Net: NetName=GND Pin=U45-3
Added Pin To Net: NetName=S9SDA Pin=U46-2
Added Pin To Net: NetName=S9SCL Pin=U46-3
Added Pin To Net: NetName=S10SDA Pin=U46-4
Added Pin To Net: NetName=S10SCL Pin=U46-5
Added Pin To Net: NetName=GND Pin=U46-6
Added Pin To Net: NetName=S11SDA Pin=U46-7
Added Pin To Net: NetName=S11SCL Pin=U46-8
Added Pin To Net: NetName=S12SDA Pin=U46-9
Added Pin To Net: NetName=S12SCL Pin=U46-10
Added Pin To Net: NetName=GND Pin=U46-11
Added Pin To Net: NetName=GND Pin=U46-15
Added Pin To Net: NetName=GND Pin=U47-6
Added Pin To Net: NetName=GND Pin=U47-15
Added Pin To Net: NetName=GND Pin=U47-16
Added Pin To Net: NetName=GND Pin=U48-3
Added Pin To Net: NetName=S13SDA Pin=U49-2
Added Pin To Net: NetName=S13SCL Pin=U49-3
Added Pin To Net: NetName=S14SDA Pin=U49-4
Added Pin To Net: NetName=S14SCL Pin=U49-5
Added Pin To Net: NetName=GND Pin=U49-6
Added Pin To Net: NetName=S15SDA Pin=U49-7
Added Pin To Net: NetName=S15SCL Pin=U49-8
Added Pin To Net: NetName=S16SDA Pin=U49-9
Added Pin To Net: NetName=S16SCL Pin=U49-10
Added Pin To Net: NetName=GND Pin=U49-11
Added Pin To Net: NetName=GND Pin=U51-6
Added Pin To Net: NetName=GND Pin=U51-16
Added Pin To Net: NetName=GND Pin=U52-3
Added Pin To Net: NetName=S10ERR Pin=U53-1
Added Pin To Net: NetName=S11ERR Pin=U53-2
Added Pin To Net: NetName=S12ERR Pin=U53-3
Added Pin To Net: NetName=S13ERR Pin=U53-4
Added Pin To Net: NetName=S14ERR Pin=U53-5
Added Pin To Net: NetName=S15ERR Pin=U53-6
Added Pin To Net: NetName=S16ERR Pin=U53-7
Added Pin To Net: NetName=S1ERR Pin=U53-15
Added Pin To Net: NetName=S2ERR Pin=U53-16
Added Pin To Net: NetName=S3ERR Pin=U53-17
Added Pin To Net: NetName=S4ERR Pin=U53-18
Added Pin To Net: NetName=S5ERR Pin=U53-19
Added Pin To Net: NetName=S6ERR Pin=U53-20
Added Pin To Net: NetName=S7ERR Pin=U53-21
Added Pin To Net: NetName=S8ERR Pin=U53-22
Added Pin To Net: NetName=GND Pin=U53-23
Added Pin To Net: NetName=S9ERR Pin=U53-24
Added Pin To Net: NetName=S10GPIO5 Pin=U54-1
Added Pin To Net: NetName=S11GPIO5 Pin=U54-2
Added Pin To Net: NetName=S12GPIO5 Pin=U54-3
Added Pin To Net: NetName=S13GPIO5 Pin=U54-4
Added Pin To Net: NetName=S14GPIO5 Pin=U54-5
Added Pin To Net: NetName=S15GPIO5 Pin=U54-6
Added Pin To Net: NetName=S16GPIO5 Pin=U54-7
Added Pin To Net: NetName=S1GPIO5 Pin=U54-15
Added Pin To Net: NetName=S2GPIO5 Pin=U54-16
Added Pin To Net: NetName=S3GPIO5 Pin=U54-17
Added Pin To Net: NetName=S4GPIO5 Pin=U54-18
Added Pin To Net: NetName=S5GPIO5 Pin=U54-19
Added Pin To Net: NetName=S6GPIO5 Pin=U54-20
Added Pin To Net: NetName=S7GPIO5 Pin=U54-21
Added Pin To Net: NetName=S8GPIO5 Pin=U54-22
Added Pin To Net: NetName=GND Pin=U54-23
Added Pin To Net: NetName=S9GPIO5 Pin=U54-24
Added Pin To Net: NetName=S10SIG Pin=U55-1
Added Pin To Net: NetName=S11SIG Pin=U55-2
Added Pin To Net: NetName=S12SIG Pin=U55-3
Added Pin To Net: NetName=S13SIG Pin=U55-4
Added Pin To Net: NetName=S14SIG Pin=U55-5
Added Pin To Net: NetName=S15SIG Pin=U55-6
Added Pin To Net: NetName=S16SIG Pin=U55-7
Added Pin To Net: NetName=S1SIG Pin=U55-15
Added Pin To Net: NetName=S2SIG Pin=U55-16
Added Pin To Net: NetName=S3SIG Pin=U55-17
Added Pin To Net: NetName=S4SIG Pin=U55-18
Added Pin To Net: NetName=S5SIG Pin=U55-19
Added Pin To Net: NetName=S6SIG Pin=U55-20
Added Pin To Net: NetName=S7SIG Pin=U55-21
Added Pin To Net: NetName=S8SIG Pin=U55-22
Added Pin To Net: NetName=GND Pin=U55-23
Added Pin To Net: NetName=S9SIG Pin=U55-24
Added Pin To Net: NetName=S3GPIO3 Pin=U56-1
Added Pin To Net: NetName=S3GPIO4 Pin=U56-2
Added Pin To Net: NetName=S3GPIO8 Pin=U56-3
Added Pin To Net: NetName=S4GPIO2 Pin=U56-4
Added Pin To Net: NetName=S4GPIO3 Pin=U56-5
Added Pin To Net: NetName=S4GPIO4 Pin=U56-6
Added Pin To Net: NetName=S4GPIO8 Pin=U56-7
Added Pin To Net: NetName=S1GPIO2 Pin=U56-15
Added Pin To Net: NetName=S1GPIO3 Pin=U56-16
Added Pin To Net: NetName=S1GPIO4 Pin=U56-17
Added Pin To Net: NetName=S1GPIO8 Pin=U56-18
Added Pin To Net: NetName=S2GPIO2 Pin=U56-19
Added Pin To Net: NetName=S2GPIO3 Pin=U56-20
Added Pin To Net: NetName=S2GPIO4 Pin=U56-21
Added Pin To Net: NetName=S2GPIO8 Pin=U56-22
Added Pin To Net: NetName=GND Pin=U56-23
Added Pin To Net: NetName=S3GPIO2 Pin=U56-24
Added Pin To Net: NetName=GND Pin=U57-3
Added Pin To Net: NetName=GND Pin=U58-3
Added Pin To Net: NetName=GND Pin=U59-3
Added Pin To Net: NetName=GND Pin=U60-3
Added Pin To Net: NetName=S7GPIO3 Pin=U61-1
Added Pin To Net: NetName=S7GPIO4 Pin=U61-2
Added Pin To Net: NetName=S7GPIO8 Pin=U61-3
Added Pin To Net: NetName=S8GPIO2 Pin=U61-4
Added Pin To Net: NetName=S8GPIO3 Pin=U61-5
Added Pin To Net: NetName=S8GPIO4 Pin=U61-6
Added Pin To Net: NetName=S8GPIO8 Pin=U61-7
Added Pin To Net: NetName=S5GPIO2 Pin=U61-15
Added Pin To Net: NetName=S5GPIO3 Pin=U61-16
Added Pin To Net: NetName=S5GPIO4 Pin=U61-17
Added Pin To Net: NetName=S5GPIO8 Pin=U61-18
Added Pin To Net: NetName=S6GPIO2 Pin=U61-19
Added Pin To Net: NetName=S6GPIO3 Pin=U61-20
Added Pin To Net: NetName=S6GPIO4 Pin=U61-21
Added Pin To Net: NetName=S6GPIO8 Pin=U61-22
Added Pin To Net: NetName=GND Pin=U61-23
Added Pin To Net: NetName=S7GPIO2 Pin=U61-24
Added Pin To Net: NetName=S11GPIO3 Pin=U62-1
Added Pin To Net: NetName=S11GPIO4 Pin=U62-2
Added Pin To Net: NetName=S11GPIO8 Pin=U62-3
Added Pin To Net: NetName=S12GPIO2 Pin=U62-4
Added Pin To Net: NetName=S12GPIO3 Pin=U62-5
Added Pin To Net: NetName=S12GPIO4 Pin=U62-6
Added Pin To Net: NetName=S12GPIO8 Pin=U62-7
Added Pin To Net: NetName=S9GPIO2 Pin=U62-15
Added Pin To Net: NetName=S9GPIO3 Pin=U62-16
Added Pin To Net: NetName=S9GPIO4 Pin=U62-17
Added Pin To Net: NetName=S9GPIO8 Pin=U62-18
Added Pin To Net: NetName=S10GPIO2 Pin=U62-19
Added Pin To Net: NetName=S10GPIO3 Pin=U62-20
Added Pin To Net: NetName=S10GPIO4 Pin=U62-21
Added Pin To Net: NetName=S10GPIO8 Pin=U62-22
Added Pin To Net: NetName=GND Pin=U62-23
Added Pin To Net: NetName=S11GPIO2 Pin=U62-24
Added Pin To Net: NetName=S15GPIO3 Pin=U63-1
Added Pin To Net: NetName=S15GPIO4 Pin=U63-2
Added Pin To Net: NetName=S15GPIO8 Pin=U63-3
Added Pin To Net: NetName=S16GPIO2 Pin=U63-4
Added Pin To Net: NetName=S16GPIO3 Pin=U63-5
Added Pin To Net: NetName=S16GPIO4 Pin=U63-6
Added Pin To Net: NetName=S16GPIO8 Pin=U63-7
Added Pin To Net: NetName=S13GPIO2 Pin=U63-15
Added Pin To Net: NetName=S13GPIO3 Pin=U63-16
Added Pin To Net: NetName=S13GPIO4 Pin=U63-17
Added Pin To Net: NetName=S13GPIO8 Pin=U63-18
Added Pin To Net: NetName=S14GPIO2 Pin=U63-19
Added Pin To Net: NetName=S14GPIO3 Pin=U63-20
Added Pin To Net: NetName=S14GPIO4 Pin=U63-21
Added Pin To Net: NetName=S14GPIO8 Pin=U63-22
Added Pin To Net: NetName=GND Pin=U63-23
Added Pin To Net: NetName=S15GPIO2 Pin=U63-24
Added Pin To Net: NetName=GND Pin=U64-3
Added Pin To Net: NetName=GND Pin=U65-3
Added Pin To Net: NetName=GND Pin=U66-3
Added Pin To Net: NetName=GND Pin=U67-23
Added Pin To Net: NetName=GND Pin=U68-3
Added Pin To Net: NetName=+5V Pin=J20-10
Added Net: Name=+5V
Added Pin To Net: NetName=CLK12 Pin=O2-3
Added Net: Name=CLK12
Added Pin To Net: NetName=CLK3072 Pin=O1-3
Added Pin To Net: NetName=CLK3072 Pin=U37-3
Added Net: Name=CLK3072
Added Pin To Net: NetName=CSEEPROM Pin=U36-17
Added Pin To Net: NetName=CSEEPROM Pin=U52-1
Added Net: Name=CSEEPROM
Added Pin To Net: NetName=CSES Pin=J17-A8
Added Pin To Net: NetName=CSES Pin=U17-1
Added Pin To Net: NetName=CSES Pin=U36-8
Added Net: Name=CSES
Added Pin To Net: NetName=CSETH Pin=J24-5
Added Pin To Net: NetName=CSETH Pin=U36-14
Added Pin To Net: NetName=CSETH Pin=U48-1
Added Net: Name=CSETH
Added Pin To Net: NetName=CSGEN Pin=U36-9
Added Pin To Net: NetName=CSGEN Pin=U67-9
Added Pin To Net: NetName=CSGEN Pin=U68-1
Added Net: Name=CSGEN
Added Pin To Net: NetName=CSINT Pin=U36-1
Added Pin To Net: NetName=CSINT Pin=U53-9
Added Pin To Net: NetName=CSINT Pin=U57-1
Added Pin To Net: NetName=CSINT Pin=U58-1
Added Net: Name=CSINT
Added Pin To Net: NetName=CSIO0 Pin=U36-4
Added Pin To Net: NetName=CSIO0 Pin=U56-9
Added Pin To Net: NetName=CSIO0 Pin=U60-1
Added Net: Name=CSIO0
Added Pin To Net: NetName=CSIO1 Pin=U36-5
Added Pin To Net: NetName=CSIO1 Pin=U61-9
Added Pin To Net: NetName=CSIO1 Pin=U64-1
Added Net: Name=CSIO1
Added Pin To Net: NetName=CSIO2 Pin=U36-6
Added Pin To Net: NetName=CSIO2 Pin=U62-9
Added Pin To Net: NetName=CSIO2 Pin=U65-1
Added Net: Name=CSIO2
Added Pin To Net: NetName=CSIO3 Pin=U36-7
Added Pin To Net: NetName=CSIO3 Pin=U63-9
Added Pin To Net: NetName=CSIO3 Pin=U66-1
Added Net: Name=CSIO3
Added Pin To Net: NetName=CSLCD Pin=J20-4
Added Pin To Net: NetName=CSLCD Pin=U36-11
Added Net: Name=CSLCD
Added Pin To Net: NetName=CSLSD Pin=J23-4
Added Pin To Net: NetName=CSLSD Pin=U36-13
Added Pin To Net: NetName=CSLSD Pin=U45-1
Added Net: Name=CSLSD
Added Pin To Net: NetName=CSRESET Pin=U36-2
Added Pin To Net: NetName=CSRESET Pin=U54-9
Added Net: Name=CSRESET
Added Pin To Net: NetName=CSSDCARD Pin=U36-10
Added Pin To Net: NetName=CSSDCARD Pin=U40-1
Added Net: Name=CSSDCARD
Added Pin To Net: NetName=CSSIG Pin=U36-3
Added Pin To Net: NetName=CSSIG Pin=U55-9
Added Pin To Net: NetName=CSSIG Pin=U59-1
Added Net: Name=CSSIG
Added Pin To Net: NetName=CSUART Pin=U36-15
Added Pin To Net: NetName=CSUART Pin=U37-7
Added Pin To Net: NetName=CSUART Pin=U42-1
Added Net: Name=CSUART
Added Pin To Net: NetName=CSUSB Pin=U36-16
Added Pin To Net: NetName=CSUSB Pin=U41-1
Added Net: Name=CSUSB
Added Net: Name=EEMISO
Added Pin To Net: NetName=ENDSTOPINT Pin=J17-B2
Added Pin To Net: NetName=ENDSTOPINT Pin=U18-42
Added Net: Name=ENDSTOPINT
Added Pin To Net: NetName=ESMISO Pin=J17-B6
Added Pin To Net: NetName=ESMISO Pin=U17-2
Added Net: Name=ESMISO
Added Pin To Net: NetName=ETHMISO Pin=J24-8
Added Pin To Net: NetName=ETHMISO Pin=U48-2
Added Pin To Net: NetName=ETHMISO Pin=U52-2
Added Net: Name=ETHMISO
Added Pin To Net: NetName=ETHPWDN Pin=J24-10
Added Pin To Net: NetName=ETHPWDN Pin=U67-2
Added Net: Name=ETHPWDN
Added Pin To Net: NetName=ETHRESET Pin=J24-9
Added Pin To Net: NetName=ETHRESET Pin=U67-1
Added Net: Name=ETHRESET
Added Pin To Net: NetName=GENMISO Pin=U67-12
Added Pin To Net: NetName=GENMISO Pin=U68-2
Added Net: Name=GENMISO
Added Pin To Net: NetName=I2CRESET Pin=U39-1
Added Pin To Net: NetName=I2CRESET Pin=U43-1
Added Pin To Net: NetName=I2CRESET Pin=U46-1
Added Pin To Net: NetName=I2CRESET Pin=U47-1
Added Pin To Net: NetName=I2CRESET Pin=U49-1
Added Pin To Net: NetName=I2CRESET Pin=U51-1
Added Pin To Net: NetName=I2CRESET Pin=U67-5
Added Net: Name=I2CRESET
Added Pin To Net: NetName=INTMISO Pin=U53-12
Added Pin To Net: NetName=INTMISO Pin=U57-2
Added Net: Name=INTMISO
Added Pin To Net: NetName=IO0MISO Pin=U56-12
Added Pin To Net: NetName=IO0MISO Pin=U60-2
Added Net: Name=IO0MISO
Added Pin To Net: NetName=IO1MISO Pin=U61-12
Added Pin To Net: NetName=IO1MISO Pin=U64-2
Added Net: Name=IO1MISO
Added Pin To Net: NetName=IO2MISO Pin=U62-12
Added Pin To Net: NetName=IO2MISO Pin=U65-2
Added Net: Name=IO2MISO
Added Pin To Net: NetName=IO3MISO Pin=U63-12
Added Pin To Net: NetName=IO3MISO Pin=U66-2
Added Net: Name=IO3MISO
Added Pin To Net: NetName=LCD_BEEP Pin=J20-1
Added Pin To Net: NetName=LCD_BEEP Pin=U67-22
Added Net: Name=LCD_BEEP
Added Pin To Net: NetName=LCD_BTN_EN1 Pin=J23-5
Added Pin To Net: NetName=LCD_BTN_EN1 Pin=U67-19
Added Net: Name=LCD_BTN_EN1
Added Pin To Net: NetName=LCD_BTN_EN2 Pin=J23-3
Added Pin To Net: NetName=LCD_BTN_EN2 Pin=U67-20
Added Net: Name=LCD_BTN_EN2
Added Pin To Net: NetName=LCD_BTN_ENC Pin=J20-2
Added Pin To Net: NetName=LCD_BTN_ENC Pin=U67-18
Added Net: Name=LCD_BTN_ENC
Added Pin To Net: NetName=LCD_CARD Pin=J23-7
Added Pin To Net: NetName=LCD_CARD Pin=U67-17
Added Net: Name=LCD_CARD
Added Pin To Net: NetName=LCD_KILL Pin=J23-10
Added Pin To Net: NetName=LCD_KILL Pin=U67-21
Added Net: Name=LCD_KILL
Added Pin To Net: NetName=LCD_RESET Pin=J23-8
Added Pin To Net: NetName=LCD_RESET Pin=U67-24
Added Net: Name=LCD_RESET
Added Pin To Net: NetName=LSDMISO Pin=J23-1
Added Pin To Net: NetName=LSDMISO Pin=U45-2
Added Net: Name=LSDMISO
Added Pin To Net: NetName=MISO Pin=U1-4
Added Pin To Net: NetName=MISO Pin=U2-4
Added Pin To Net: NetName=MISO Pin=U3-4
Added Pin To Net: NetName=MISO Pin=U4-4
Added Pin To Net: NetName=MISO Pin=U5-4
Added Pin To Net: NetName=MISO Pin=U6-4
Added Pin To Net: NetName=MISO Pin=U7-4
Added Pin To Net: NetName=MISO Pin=U8-4
Added Pin To Net: NetName=MISO Pin=U9-4
Added Pin To Net: NetName=MISO Pin=U10-4
Added Pin To Net: NetName=MISO Pin=U11-4
Added Pin To Net: NetName=MISO Pin=U12-4
Added Pin To Net: NetName=MISO Pin=U13-4
Added Pin To Net: NetName=MISO Pin=U14-4
Added Pin To Net: NetName=MISO Pin=U15-4
Added Pin To Net: NetName=MISO Pin=U16-4
Added Pin To Net: NetName=MISO Pin=U17-4
Added Pin To Net: NetName=MISO Pin=U18-38
Added Pin To Net: NetName=MISO Pin=U40-4
Added Pin To Net: NetName=MISO Pin=U41-4
Added Pin To Net: NetName=MISO Pin=U42-4
Added Pin To Net: NetName=MISO Pin=U45-4
Added Pin To Net: NetName=MISO Pin=U48-4
Added Pin To Net: NetName=MISO Pin=U52-4
Added Pin To Net: NetName=MISO Pin=U57-4
Added Pin To Net: NetName=MISO Pin=U58-4
Added Pin To Net: NetName=MISO Pin=U59-4
Added Pin To Net: NetName=MISO Pin=U60-4
Added Pin To Net: NetName=MISO Pin=U64-4
Added Pin To Net: NetName=MISO Pin=U65-4
Added Pin To Net: NetName=MISO Pin=U66-4
Added Pin To Net: NetName=MISO Pin=U68-4
Added Net: Name=MISO
Added Pin To Net: NetName=MOSI Pin=U18-35
Added Pin To Net: NetName=MOSI Pin=U19-2
Added Pin To Net: NetName=MOSI Pin=U21-2
Added Pin To Net: NetName=MOSI Pin=U23-2
Added Pin To Net: NetName=MOSI Pin=U25-2
Added Pin To Net: NetName=MOSI Pin=U27-2
Added Pin To Net: NetName=MOSI Pin=U29-2
Added Pin To Net: NetName=MOSI Pin=U32-2
Added Pin To Net: NetName=MOSI Pin=U34-2
Added Net: Name=MOSI
Added Pin To Net: NetName=Net*1_4 Pin=*1-4
Added Pin To Net: NetName=Net*1_4 Pin=U36-18
Added Net: Name=Net*1_4
Added Pin To Net: NetName=NetR4_2 Pin=U37-6
Added Net: Name=NetR4_2
Added Net: Name=NetR26_1
Added Net: Name=NetR30_2
Added Pin To Net: NetName=RESETENDS Pin=J17-A10
Added Pin To Net: NetName=RESETENDS Pin=U67-6
Added Net: Name=RESETENDS
Added Pin To Net: NetName=RESETMISO Pin=U54-12
Added Pin To Net: NetName=RESETMISO Pin=U58-2
Added Net: Name=RESETMISO
Added Pin To Net: NetName=RESETN Pin=U18-52
Added Pin To Net: NetName=RESETN Pin=U53-13
Added Pin To Net: NetName=RESETN Pin=U54-13
Added Pin To Net: NetName=RESETN Pin=U55-13
Added Pin To Net: NetName=RESETN Pin=U56-13
Added Pin To Net: NetName=RESETN Pin=U61-13
Added Pin To Net: NetName=RESETN Pin=U62-13
Added Pin To Net: NetName=RESETN Pin=U63-13
Added Pin To Net: NetName=RESETN Pin=U67-13
Added Net: Name=RESETN
Added Pin To Net: NetName=S17SCL Pin=R33-2
Added Pin To Net: NetName=S17SCL Pin=U47-3
Added Net: Name=S17SCL
Added Pin To Net: NetName=S17SDA Pin=R7-2
Added Pin To Net: NetName=S17SDA Pin=U47-2
Added Net: Name=S17SDA
Added Pin To Net: NetName=S18SCL Pin=R36-2
Added Pin To Net: NetName=S18SCL Pin=U47-5
Added Net: Name=S18SCL
Added Pin To Net: NetName=S18SDA Pin=R10-2
Added Pin To Net: NetName=S18SDA Pin=U47-4
Added Net: Name=S18SDA
Added Pin To Net: NetName=S19SCL Pin=R39-2
Added Pin To Net: NetName=S19SCL Pin=U47-8
Added Net: Name=S19SCL
Added Pin To Net: NetName=S19SDA Pin=R13-2
Added Pin To Net: NetName=S19SDA Pin=U47-7
Added Net: Name=S19SDA
Added Pin To Net: NetName=S20SCL Pin=R42-2
Added Pin To Net: NetName=S20SCL Pin=U47-10
Added Net: Name=S20SCL
Added Pin To Net: NetName=S20SDA Pin=R16-2
Added Pin To Net: NetName=S20SDA Pin=U47-9
Added Net: Name=S20SDA
Added Pin To Net: NetName=S21SCL Pin=R45-2
Added Pin To Net: NetName=S21SCL Pin=U51-3
Added Net: Name=S21SCL
Added Pin To Net: NetName=S21SDA Pin=R19-2
Added Pin To Net: NetName=S21SDA Pin=U51-2
Added Net: Name=S21SDA
Added Pin To Net: NetName=S22SCL Pin=R48-2
Added Pin To Net: NetName=S22SCL Pin=U51-5
Added Net: Name=S22SCL
Added Pin To Net: NetName=S22SDA Pin=R22-2
Added Pin To Net: NetName=S22SDA Pin=U51-4
Added Net: Name=S22SDA
Added Pin To Net: NetName=S23SCL Pin=R51-2
Added Pin To Net: NetName=S23SCL Pin=U51-8
Added Net: Name=S23SCL
Added Pin To Net: NetName=S23SDA Pin=R25-2
Added Pin To Net: NetName=S23SDA Pin=U51-7
Added Net: Name=S23SDA
Added Pin To Net: NetName=S24SCL Pin=R55-2
Added Pin To Net: NetName=S24SCL Pin=U51-10
Added Net: Name=S24SCL
Added Pin To Net: NetName=S24SDA Pin=R29-2
Added Pin To Net: NetName=S24SDA Pin=U51-9
Added Net: Name=S24SDA
Added Pin To Net: NetName=SCK Pin=U18-36
Added Pin To Net: NetName=SCK Pin=U20-2
Added Pin To Net: NetName=SCK Pin=U22-2
Added Pin To Net: NetName=SCK Pin=U24-2
Added Pin To Net: NetName=SCK Pin=U26-2
Added Pin To Net: NetName=SCK Pin=U28-2
Added Pin To Net: NetName=SCK Pin=U30-2
Added Pin To Net: NetName=SCK Pin=U33-2
Added Pin To Net: NetName=SCK Pin=U35-2
Added Net: Name=SCK
Added Pin To Net: NetName=SCL Pin=R52-2
Added Pin To Net: NetName=SCL Pin=U18-50
Added Pin To Net: NetName=SCL Pin=U39-12
Added Pin To Net: NetName=SCL Pin=U43-12
Added Pin To Net: NetName=SCL Pin=U46-12
Added Pin To Net: NetName=SCL Pin=U47-12
Added Pin To Net: NetName=SCL Pin=U49-12
Added Pin To Net: NetName=SCL Pin=U51-12
Added Net: Name=SCL
Added Pin To Net: NetName=SDA Pin=R56-2
Added Pin To Net: NetName=SDA Pin=U18-49
Added Pin To Net: NetName=SDA Pin=U39-13
Added Pin To Net: NetName=SDA Pin=U43-13
Added Pin To Net: NetName=SDA Pin=U46-13
Added Pin To Net: NetName=SDA Pin=U47-13
Added Pin To Net: NetName=SDA Pin=U49-13
Added Pin To Net: NetName=SDA Pin=U51-13
Added Net: Name=SDA
Added Pin To Net: NetName=SDCARD Pin=U67-15
Added Net: Name=SDCARD
Added Pin To Net: NetName=SDMISO Pin=R1-1
Added Pin To Net: NetName=SDMISO Pin=U40-2
Added Net: Name=SDMISO
Added Pin To Net: NetName=SDWP Pin=U67-16
Added Net: Name=SDWP
Added Pin To Net: NetName=SG1CK Pin=J1-A7
Added Pin To Net: NetName=SG1CK Pin=J2-A7
Added Pin To Net: NetName=SG1CK Pin=J3-A7
Added Pin To Net: NetName=SG1CK Pin=J4-A7
Added Pin To Net: NetName=SG1CK Pin=U20-4
Added Net: Name=SG1CK
Added Pin To Net: NetName=SG1MOSI Pin=J1-A6
Added Pin To Net: NetName=SG1MOSI Pin=J2-A6
Added Pin To Net: NetName=SG1MOSI Pin=J3-A6
Added Pin To Net: NetName=SG1MOSI Pin=J4-A6
Added Pin To Net: NetName=SG1MOSI Pin=U19-4
Added Net: Name=SG1MOSI
Added Pin To Net: NetName=SG2CK Pin=J5-A7
Added Pin To Net: NetName=SG2CK Pin=J6-A7
Added Pin To Net: NetName=SG2CK Pin=J7-A7
Added Pin To Net: NetName=SG2CK Pin=J8-A7
Added Pin To Net: NetName=SG2CK Pin=U22-4
Added Net: Name=SG2CK
Added Pin To Net: NetName=SG2MOSI Pin=J5-A6
Added Pin To Net: NetName=SG2MOSI Pin=J6-A6
Added Pin To Net: NetName=SG2MOSI Pin=J7-A6
Added Pin To Net: NetName=SG2MOSI Pin=J8-A6
Added Pin To Net: NetName=SG2MOSI Pin=U21-4
Added Net: Name=SG2MOSI
Added Pin To Net: NetName=SG3CK Pin=J9-A7
Added Pin To Net: NetName=SG3CK Pin=J10-A7
Added Pin To Net: NetName=SG3CK Pin=J11-A7
Added Pin To Net: NetName=SG3CK Pin=J12-A7
Added Pin To Net: NetName=SG3CK Pin=U24-4
Added Net: Name=SG3CK
Added Pin To Net: NetName=SG3MOSI Pin=J9-A6
Added Pin To Net: NetName=SG3MOSI Pin=J10-A6
Added Pin To Net: NetName=SG3MOSI Pin=J11-A6
Added Pin To Net: NetName=SG3MOSI Pin=J12-A6
Added Pin To Net: NetName=SG3MOSI Pin=U23-4
Added Net: Name=SG3MOSI
Added Pin To Net: NetName=SG4CK Pin=J13-A7
Added Pin To Net: NetName=SG4CK Pin=J14-A7
Added Pin To Net: NetName=SG4CK Pin=J15-A7
Added Pin To Net: NetName=SG4CK Pin=J16-A7
Added Pin To Net: NetName=SG4CK Pin=U26-4
Added Net: Name=SG4CK
Added Pin To Net: NetName=SG4MOSI Pin=J13-A6
Added Pin To Net: NetName=SG4MOSI Pin=J14-A6
Added Pin To Net: NetName=SG4MOSI Pin=J15-A6
Added Pin To Net: NetName=SG4MOSI Pin=J16-A6
Added Pin To Net: NetName=SG4MOSI Pin=U25-4
Added Net: Name=SG4MOSI
Added Pin To Net: NetName=SG5CK Pin=U28-4
Added Pin To Net: NetName=SG5CK Pin=U53-10
Added Pin To Net: NetName=SG5CK Pin=U54-10
Added Pin To Net: NetName=SG5CK Pin=U55-10
Added Pin To Net: NetName=SG5CK Pin=U56-10
Added Net: Name=SG5CK
Added Pin To Net: NetName=SG5MOSI Pin=U27-4
Added Pin To Net: NetName=SG5MOSI Pin=U53-11
Added Pin To Net: NetName=SG5MOSI Pin=U54-11
Added Pin To Net: NetName=SG5MOSI Pin=U55-11
Added Pin To Net: NetName=SG5MOSI Pin=U56-11
Added Net: Name=SG5MOSI
Added Pin To Net: NetName=SG6CK Pin=J17-A7
Added Pin To Net: NetName=SG6CK Pin=U30-4
Added Pin To Net: NetName=SG6CK Pin=U61-10
Added Pin To Net: NetName=SG6CK Pin=U62-10
Added Pin To Net: NetName=SG6CK Pin=U63-10
Added Net: Name=SG6CK
Added Pin To Net: NetName=SG6MOSI Pin=J17-A6
Added Pin To Net: NetName=SG6MOSI Pin=U29-4
Added Pin To Net: NetName=SG6MOSI Pin=U61-11
Added Pin To Net: NetName=SG6MOSI Pin=U62-11
Added Pin To Net: NetName=SG6MOSI Pin=U63-11
Added Net: Name=SG6MOSI
Added Pin To Net: NetName=SG7CK Pin=J20-5
Added Pin To Net: NetName=SG7CK Pin=J23-2
Added Pin To Net: NetName=SG7CK Pin=U33-4
Added Pin To Net: NetName=SG7CK Pin=U67-10
Added Net: Name=SG7CK
Added Pin To Net: NetName=SG7MOSI Pin=J20-3
Added Pin To Net: NetName=SG7MOSI Pin=J23-6
Added Pin To Net: NetName=SG7MOSI Pin=U32-4
Added Pin To Net: NetName=SG7MOSI Pin=U67-11
Added Net: Name=SG7MOSI
Added Pin To Net: NetName=SG8CK Pin=J24-4
Added Pin To Net: NetName=SG8CK Pin=U35-4
Added Pin To Net: NetName=SG8CK Pin=U37-10
Added Net: Name=SG8CK
Added Pin To Net: NetName=SG8MOSI Pin=J24-3
Added Pin To Net: NetName=SG8MOSI Pin=U34-4
Added Pin To Net: NetName=SG8MOSI Pin=U37-8
Added Net: Name=SG8MOSI
Added Pin To Net: NetName=SIGMISO Pin=U55-12
Added Pin To Net: NetName=SIGMISO Pin=U59-2
Added Net: Name=SIGMISO
Added Pin To Net: NetName=SLOTINT Pin=U18-41
Added Pin To Net: NetName=SLOTINT Pin=U53-14
Added Net: Name=SLOTINT
Added Pin To Net: NetName=SPIADDR0 Pin=U18-1
Added Pin To Net: NetName=SPIADDR0 Pin=U31-23
Added Pin To Net: NetName=SPIADDR0 Pin=U36-23
Added Net: Name=SPIADDR0
Added Pin To Net: NetName=SPIADDR1 Pin=U18-2
Added Pin To Net: NetName=SPIADDR1 Pin=U31-22
Added Pin To Net: NetName=SPIADDR1 Pin=U36-22
Added Net: Name=SPIADDR1
Added Pin To Net: NetName=SPIADDR2 Pin=U18-3
Added Pin To Net: NetName=SPIADDR2 Pin=U31-21
Added Pin To Net: NetName=SPIADDR2 Pin=U36-21
Added Net: Name=SPIADDR2
Added Pin To Net: NetName=SPIADDR3 Pin=U18-4
Added Pin To Net: NetName=SPIADDR3 Pin=U31-20
Added Pin To Net: NetName=SPIADDR3 Pin=U36-20
Added Net: Name=SPIADDR3
Added Pin To Net: NetName=SPIADDR4 Pin=*1-2
Added Pin To Net: NetName=SPIADDR4 Pin=U18-13
Added Pin To Net: NetName=SPIADDR4 Pin=U31-18
Added Net: Name=SPIADDR4
Added Pin To Net: NetName=SS Pin=U18-37
Added Pin To Net: NetName=SS Pin=U31-19
Added Pin To Net: NetName=SS Pin=U36-19
Added Net: Name=SS
Added Pin To Net: NetName=SWCLK Pin=U18-57
Added Net: Name=SWCLK
Added Pin To Net: NetName=SWDIO Pin=U18-58
Added Net: Name=SWDIO
Added Pin To Net: NetName=THERM0 Pin=J18-A8
Added Pin To Net: NetName=THERM0 Pin=U18-61
Added Net: Name=THERM0
Added Pin To Net: NetName=THERM1 Pin=J18-B8
Added Pin To Net: NetName=THERM1 Pin=U18-62
Added Net: Name=THERM1
Added Pin To Net: NetName=THERM2 Pin=J18-A9
Added Pin To Net: NetName=THERM2 Pin=U18-63
Added Net: Name=THERM2
Added Pin To Net: NetName=THERM3 Pin=J18-B9
Added Pin To Net: NetName=THERM3 Pin=U18-64
Added Net: Name=THERM3
Added Pin To Net: NetName=THERM4 Pin=J18-A10
Added Pin To Net: NetName=THERM4 Pin=U18-14
Added Net: Name=THERM4
Added Pin To Net: NetName=UAENABLE Pin=J21-5
Added Pin To Net: NetName=UAENABLE Pin=U37-18
Added Net: Name=UAENABLE
Added Pin To Net: NetName=UAGPIO0 Pin=J21-6
Added Pin To Net: NetName=UAGPIO0 Pin=U37-19
Added Net: Name=UAGPIO0
Added Pin To Net: NetName=UAGPIO2 Pin=J21-4
Added Pin To Net: NetName=UAGPIO2 Pin=U37-20
Added Net: Name=UAGPIO2
Added Pin To Net: NetName=UARESET Pin=J21-3
Added Pin To Net: NetName=UARESET Pin=U37-17
Added Net: Name=UARESET
Added Pin To Net: NetName=UARTMISO Pin=U37-9
Added Pin To Net: NetName=UARTMISO Pin=U42-2
Added Net: Name=UARTMISO
Added Pin To Net: NetName=UARTRESET Pin=U37-2
Added Pin To Net: NetName=UARTRESET Pin=U67-3
Added Net: Name=UARTRESET
Added Pin To Net: NetName=UARXD Pin=J21-1
Added Pin To Net: NetName=UARXD Pin=J21-1
Added Pin To Net: NetName=UARXD Pin=U37-1
Added Net: Name=UARXD
Added Pin To Net: NetName=UATXD Pin=J21-8
Added Pin To Net: NetName=UATXD Pin=U37-32
Added Net: Name=UATXD
Added Pin To Net: NetName=UBENABLE Pin=J22-5
Added Pin To Net: NetName=UBENABLE Pin=U37-25
Added Net: Name=UBENABLE
Added Pin To Net: NetName=UBGPIO0 Pin=J22-6
Added Pin To Net: NetName=UBGPIO0 Pin=U37-26
Added Net: Name=UBGPIO0
Added Pin To Net: NetName=UBGPIO2 Pin=J22-4
Added Pin To Net: NetName=UBGPIO2 Pin=U37-27
Added Net: Name=UBGPIO2
Added Pin To Net: NetName=UBRESET Pin=J22-3
Added Pin To Net: NetName=UBRESET Pin=U37-24
Added Net: Name=UBRESET
Added Pin To Net: NetName=UBRXD Pin=J22-1
Added Pin To Net: NetName=UBRXD Pin=J22-1
Added Pin To Net: NetName=UBRXD Pin=U37-23
Added Net: Name=UBRXD
Added Pin To Net: NetName=UBTXD Pin=J22-8
Added Pin To Net: NetName=UBTXD Pin=U37-22
Added Net: Name=UBTXD
Added Pin To Net: NetName=USB5V Pin=P12-1
Added Net: Name=USB5V
Added Pin To Net: NetName=USB_N Pin=P12-2
Added Pin To Net: NetName=USB_N Pin=U18-45
Added Net: Name=USB_N
Added Pin To Net: NetName=USB_P Pin=P12-3
Added Pin To Net: NetName=USB_P Pin=U18-46
Added Net: Name=USB_P
Added Net: Name=USBDNEG
Added Net: Name=USBDPOS
Added Pin To Net: NetName=USBEN Pin=U38-4
Added Net: Name=USBEN
Added Pin To Net: NetName=USBMISO Pin=U41-2
Added Net: Name=USBMISO
Added Net: Name=USBOC
Added Pin To Net: NetName=USBRESET Pin=U67-4
Added Net: Name=USBRESET
Added Pin To Net: NetName=V3V3 Pin=*1-5
Added Pin To Net: NetName=V3V3 Pin=J21-7
Added Pin To Net: NetName=V3V3 Pin=J22-7
Added Pin To Net: NetName=V3V3 Pin=J24-12
Added Pin To Net: NetName=V3V3 Pin=O1-4
Added Pin To Net: NetName=V3V3 Pin=O2-4
Added Pin To Net: NetName=V3V3 Pin=P1-1
Added Pin To Net: NetName=V3V3 Pin=R1-2
Added Pin To Net: NetName=V3V3 Pin=R52-1
Added Pin To Net: NetName=V3V3 Pin=R56-1
Added Pin To Net: NetName=V3V3 Pin=U1-5
Added Pin To Net: NetName=V3V3 Pin=U2-5
Added Pin To Net: NetName=V3V3 Pin=U3-5
Added Pin To Net: NetName=V3V3 Pin=U4-5
Added Pin To Net: NetName=V3V3 Pin=U5-5
Added Pin To Net: NetName=V3V3 Pin=U6-5
Added Pin To Net: NetName=V3V3 Pin=U7-5
Added Pin To Net: NetName=V3V3 Pin=U8-5
Added Pin To Net: NetName=V3V3 Pin=U9-5
Added Pin To Net: NetName=V3V3 Pin=U10-5
Added Pin To Net: NetName=V3V3 Pin=U11-5
Added Pin To Net: NetName=V3V3 Pin=U12-5
Added Pin To Net: NetName=V3V3 Pin=U13-5
Added Pin To Net: NetName=V3V3 Pin=U14-5
Added Pin To Net: NetName=V3V3 Pin=U15-5
Added Pin To Net: NetName=V3V3 Pin=U16-5
Added Pin To Net: NetName=V3V3 Pin=U17-5
Added Pin To Net: NetName=V3V3 Pin=U19-5
Added Pin To Net: NetName=V3V3 Pin=U20-5
Added Pin To Net: NetName=V3V3 Pin=U21-5
Added Pin To Net: NetName=V3V3 Pin=U22-5
Added Pin To Net: NetName=V3V3 Pin=U23-5
Added Pin To Net: NetName=V3V3 Pin=U24-5
Added Pin To Net: NetName=V3V3 Pin=U25-5
Added Pin To Net: NetName=V3V3 Pin=U26-5
Added Pin To Net: NetName=V3V3 Pin=U27-5
Added Pin To Net: NetName=V3V3 Pin=U28-5
Added Pin To Net: NetName=V3V3 Pin=U29-5
Added Pin To Net: NetName=V3V3 Pin=U30-5
Added Pin To Net: NetName=V3V3 Pin=U31-24
Added Pin To Net: NetName=V3V3 Pin=U32-5
Added Pin To Net: NetName=V3V3 Pin=U33-5
Added Pin To Net: NetName=V3V3 Pin=U34-5
Added Pin To Net: NetName=V3V3 Pin=U35-5
Added Pin To Net: NetName=V3V3 Pin=U36-24
Added Pin To Net: NetName=V3V3 Pin=U37-5
Added Pin To Net: NetName=V3V3 Pin=U37-13
Added Pin To Net: NetName=V3V3 Pin=U37-28
Added Pin To Net: NetName=V3V3 Pin=U38-2
Added Pin To Net: NetName=V3V3 Pin=U39-14
Added Pin To Net: NetName=V3V3 Pin=U40-5
Added Pin To Net: NetName=V3V3 Pin=U41-5
Added Pin To Net: NetName=V3V3 Pin=U42-5
Added Pin To Net: NetName=V3V3 Pin=U43-14
Added Pin To Net: NetName=V3V3 Pin=U43-15
Added Pin To Net: NetName=V3V3 Pin=U45-5
Added Pin To Net: NetName=V3V3 Pin=U46-14
Added Pin To Net: NetName=V3V3 Pin=U46-16
Added Pin To Net: NetName=V3V3 Pin=U47-11
Added Pin To Net: NetName=V3V3 Pin=U47-14
Added Pin To Net: NetName=V3V3 Pin=U48-5
Added Pin To Net: NetName=V3V3 Pin=U49-14
Added Pin To Net: NetName=V3V3 Pin=U49-15
Added Pin To Net: NetName=V3V3 Pin=U49-16
Added Pin To Net: NetName=V3V3 Pin=U51-11
Added Pin To Net: NetName=V3V3 Pin=U51-14
Added Pin To Net: NetName=V3V3 Pin=U51-15
Added Pin To Net: NetName=V3V3 Pin=U52-5
Added Pin To Net: NetName=V3V3 Pin=U53-8
Added Pin To Net: NetName=V3V3 Pin=U54-8
Added Pin To Net: NetName=V3V3 Pin=U55-8
Added Pin To Net: NetName=V3V3 Pin=U56-8
Added Pin To Net: NetName=V3V3 Pin=U57-5
Added Pin To Net: NetName=V3V3 Pin=U58-5
Added Pin To Net: NetName=V3V3 Pin=U59-5
Added Pin To Net: NetName=V3V3 Pin=U60-5
Added Pin To Net: NetName=V3V3 Pin=U61-8
Added Pin To Net: NetName=V3V3 Pin=U62-8
Added Pin To Net: NetName=V3V3 Pin=U63-8
Added Pin To Net: NetName=V3V3 Pin=U64-5
Added Pin To Net: NetName=V3V3 Pin=U65-5
Added Pin To Net: NetName=V3V3 Pin=U66-5
Added Pin To Net: NetName=V3V3 Pin=U67-8
Added Pin To Net: NetName=V3V3 Pin=U68-5
Added Net: Name=V3V3
Added Pin To Net: NetName=V3V4 Pin=J24-11
Added Net: Name=V3V4
Added Pin To Net: NetName=V5 Pin=P5-1
Added Pin To Net: NetName=V5 Pin=R5-1
Added Pin To Net: NetName=V5 Pin=R6-1
Added Pin To Net: NetName=V5 Pin=R7-1
Added Pin To Net: NetName=V5 Pin=R8-1
Added Pin To Net: NetName=V5 Pin=R9-1
Added Pin To Net: NetName=V5 Pin=R10-1
Added Pin To Net: NetName=V5 Pin=R11-1
Added Pin To Net: NetName=V5 Pin=R12-1
Added Pin To Net: NetName=V5 Pin=R13-1
Added Pin To Net: NetName=V5 Pin=R14-1
Added Pin To Net: NetName=V5 Pin=R15-1
Added Pin To Net: NetName=V5 Pin=R16-1
Added Pin To Net: NetName=V5 Pin=R17-1
Added Pin To Net: NetName=V5 Pin=R18-1
Added Pin To Net: NetName=V5 Pin=R19-1
Added Pin To Net: NetName=V5 Pin=R20-1
Added Pin To Net: NetName=V5 Pin=R21-1
Added Pin To Net: NetName=V5 Pin=R22-1
Added Pin To Net: NetName=V5 Pin=R23-1
Added Pin To Net: NetName=V5 Pin=R24-1
Added Pin To Net: NetName=V5 Pin=R25-1
Added Pin To Net: NetName=V5 Pin=R27-1
Added Pin To Net: NetName=V5 Pin=R28-1
Added Pin To Net: NetName=V5 Pin=R29-1
Added Pin To Net: NetName=V5 Pin=R31-1
Added Pin To Net: NetName=V5 Pin=R32-1
Added Pin To Net: NetName=V5 Pin=R33-1
Added Pin To Net: NetName=V5 Pin=R34-1
Added Pin To Net: NetName=V5 Pin=R35-1
Added Pin To Net: NetName=V5 Pin=R36-1
Added Pin To Net: NetName=V5 Pin=R37-1
Added Pin To Net: NetName=V5 Pin=R38-1
Added Pin To Net: NetName=V5 Pin=R39-1
Added Pin To Net: NetName=V5 Pin=R40-1
Added Pin To Net: NetName=V5 Pin=R41-1
Added Pin To Net: NetName=V5 Pin=R42-1
Added Pin To Net: NetName=V5 Pin=R43-1
Added Pin To Net: NetName=V5 Pin=R44-1
Added Pin To Net: NetName=V5 Pin=R45-1
Added Pin To Net: NetName=V5 Pin=R46-1
Added Pin To Net: NetName=V5 Pin=R47-1
Added Pin To Net: NetName=V5 Pin=R48-1
Added Pin To Net: NetName=V5 Pin=R49-1
Added Pin To Net: NetName=V5 Pin=R50-1
Added Pin To Net: NetName=V5 Pin=R51-1
Added Pin To Net: NetName=V5 Pin=R53-1
Added Pin To Net: NetName=V5 Pin=R54-1
Added Pin To Net: NetName=V5 Pin=R55-1
Added Net: Name=V5
Added Class: Name=Sheet0_Top
Added Class: Name=Sheet2_IoExp
Added Class: Name=Sheet4_GenIo
Added Member To Class: ClassName=Sheet3_CPU Member=Component *1 Inverter
Added Member To Class: ClassName=Sheet1_PciExpress Member=Component J17 PCI Express Connector - Saddle
Added Member To Class: ClassName=Sheet1_PciExpress Member=Component J18 PCI Express Connector - Saddle
Added Member To Class: ClassName=Sheet1_PciExpress Member=Component U1 Buffer
Added Member To Class: ClassName=Sheet1_PciExpress Member=Component U2 Buffer
Added Member To Class: ClassName=Sheet1_PciExpress Member=Component U3 Buffer
Added Member To Class: ClassName=Sheet1_PciExpress Member=Component U4 Buffer
Added Member To Class: ClassName=Sheet1_PciExpress Member=Component U5 Buffer
Added Member To Class: ClassName=Sheet1_PciExpress Member=Component U6 Buffer
Added Member To Class: ClassName=Sheet1_PciExpress Member=Component U7 Buffer
Added Member To Class: ClassName=Sheet1_PciExpress Member=Component U8 Buffer
Added Member To Class: ClassName=Sheet1_PciExpress Member=Component U9 Buffer
Added Member To Class: ClassName=Sheet1_PciExpress Member=Component U10 Buffer
Added Member To Class: ClassName=Sheet1_PciExpress Member=Component U11 Buffer
Added Member To Class: ClassName=Sheet1_PciExpress Member=Component U12 Buffer
Added Member To Class: ClassName=Sheet1_PciExpress Member=Component U13 Buffer
Added Member To Class: ClassName=Sheet1_PciExpress Member=Component U14 Buffer
Added Member To Class: ClassName=Sheet1_PciExpress Member=Component U15 Buffer
Added Member To Class: ClassName=Sheet1_PciExpress Member=Component U16 Buffer
Added Member To Class: ClassName=Sheet1_PciExpress Member=Component U17 Buffer
Added Member To Class: ClassName=Sheet3_CPU Member=Component U18 SAMD21TQFP64
Added Member To Class: ClassName=Sheet3_CPU Member=Component U19 Buffer
Added Member To Class: ClassName=Sheet3_CPU Member=Component U20 Buffer
Added Member To Class: ClassName=Sheet3_CPU Member=Component U21 Buffer
Added Member To Class: ClassName=Sheet3_CPU Member=Component U22 Buffer
Added Member To Class: ClassName=Sheet3_CPU Member=Component U23 Buffer
Added Member To Class: ClassName=Sheet3_CPU Member=Component U24 Buffer
Added Member To Class: ClassName=Sheet3_CPU Member=Component U25 Buffer
Added Member To Class: ClassName=Sheet3_CPU Member=Component U26 Buffer
Added Member To Class: ClassName=Sheet3_CPU Member=Component U27 Buffer
Added Member To Class: ClassName=Sheet3_CPU Member=Component U28 Buffer
Added Member To Class: ClassName=Sheet3_CPU Member=Component U29 Buffer
Added Member To Class: ClassName=Sheet3_CPU Member=Component U30 Buffer
Added Member To Class: ClassName=Sheet3_CPU Member=Component U31 4to16 Decoder
Added Member To Class: ClassName=Sheet3_CPU Member=Component U32 Buffer
Added Member To Class: ClassName=Sheet3_CPU Member=Component U33 Buffer
Added Member To Class: ClassName=Sheet3_CPU Member=Component U34 Buffer
Added Member To Class: ClassName=Sheet3_CPU Member=Component U35 Buffer
Added Member To Class: ClassName=Sheet3_CPU Member=Component U36 4to16 Decoder
Added Room: Name=Sheet0_Top
Added Room: Name=Sheet2_IoExp
Added Room: Name=Sheet4_GenIo
