Added Component: Designator=C77(AP1-00001)
Added Component: Designator=C78(AP1-00041)
Added Component: Designator=C79(AP1-00001)
Added Component: Designator=J38(AP8-00852)
Added Component: Designator=J39(3220-10-0100)
Added Component: Designator=R57(AP2-00011)
Added Pin To Net: NetName=GND Pin=C77-1
Added Pin To Net: NetName=GND Pin=C78-2
Added Pin To Net: NetName=GND Pin=C79-2
Added Pin To Net: NetName=USB_N Pin=J38-2
Added Pin To Net: NetName=USB_P Pin=J38-3
Added Pin To Net: NetName=GND Pin=J38-5
Added Pin To Net: NetName=V3V3 Pin=J39-1
Added Pin To Net: NetName=SWDIO Pin=J39-2
Added Pin To Net: NetName=GND Pin=J39-3
Added Pin To Net: NetName=SWCLK Pin=J39-4
Added Pin To Net: NetName=GND Pin=J39-5
Added Pin To Net: NetName=GND Pin=J39-9
Added Pin To Net: NetName=RESETENDS Pin=J39-10
Added Pin To Net: NetName=GND Pin=R57-1
Added Pin To Net: NetName=V3V3 Pin=U18-56
Added Pin To Net: NetName=NetC77_2 Pin=C77-2
Added Pin To Net: NetName=NetC77_2 Pin=J38-6
Added Pin To Net: NetName=NetC77_2 Pin=J38-6
Added Pin To Net: NetName=NetC77_2 Pin=J38-7
Added Pin To Net: NetName=NetC77_2 Pin=J38-7
Added Pin To Net: NetName=NetC77_2 Pin=J38-8
Added Pin To Net: NetName=NetC77_2 Pin=J38-8
Added Pin To Net: NetName=NetC77_2 Pin=J38-9
Added Pin To Net: NetName=NetC77_2 Pin=J38-9
Added Pin To Net: NetName=NetC77_2 Pin=R57-2
Added Net: Name=NetC77_2
Added Pin To Net: NetName=VCORE Pin=C78-1
Added Pin To Net: NetName=VCORE Pin=C79-1
Added Pin To Net: NetName=VCORE Pin=U18-55
Added Net: Name=VCORE
Added Member To Class: ClassName=Sheet3_CPU Member=Component C77 CAP-NONPOL
Added Member To Class: ClassName=Sheet3_CPU Member=Component C78 
Added Member To Class: ClassName=Sheet3_CPU Member=Component C79 CAP-NONPOL
Added Member To Class: ClassName=Sheet3_CPU Member=Component J38 ZX62D-AB-5P8
Added Member To Class: ClassName=Sheet3_CPU Member=Component J39 3220-10-0100 SWD
Added Member To Class: ClassName=Sheet3_CPU Member=Component R57 R2
