Change Component Designator: OldDesignator=*1 NewDesignator=U69
Added Component: Designator=C1(AP1-00041)
Added Component: Designator=C2(AP1-00001)
Added Component: Designator=J19(AP8-00377)
Added Component: Designator=R2(AP2-00000)
Added Component: Designator=R3(AP2-00000)
Added Component: Designator=R4(AP2-00000)
Added Component: Designator=R26(AP2-00000)
Added Component: Designator=R30(AP2-00000)
Added Pin To Net: NetName=V3V3 Pin=C1-1
Added Pin To Net: NetName=GND Pin=C1-2
Added Pin To Net: NetName=V3V3 Pin=C2-1
Added Pin To Net: NetName=GND Pin=C2-2
Added Pin To Net: NetName=SG7MOSI Pin=J19-2
Added Pin To Net: NetName=GND Pin=J19-3
Added Pin To Net: NetName=V3V3 Pin=J19-4
Added Pin To Net: NetName=SG7CK Pin=J19-5
Added Pin To Net: NetName=GND Pin=J19-6
Added Pin To Net: NetName=SDMISO Pin=J19-7
Added Pin To Net: NetName=SDCARD Pin=J19-10
Added Pin To Net: NetName=GND Pin=J19-11
Added Pin To Net: NetName=SDWP Pin=J19-12
Added Pin To Net: NetName=GND Pin=J19-13
Added Pin To Net: NetName=GND Pin=J19-14
Added Pin To Net: NetName=GND Pin=J19-15
Added Pin To Net: NetName=GND Pin=J19-16
Added Pin To Net: NetName=SDCARD Pin=R2-1
Added Pin To Net: NetName=V3V3 Pin=R2-2
Added Pin To Net: NetName=SDWP Pin=R3-1
Added Pin To Net: NetName=V3V3 Pin=R3-2
Added Pin To Net: NetName=GND Pin=R4-1
Added Pin To Net: NetName=NetR4_2 Pin=R4-2
Added Pin To Net: NetName=NetR26_1 Pin=R26-1
Added Pin To Net: NetName=V3V3 Pin=R26-2
Added Pin To Net: NetName=V3V3 Pin=R30-1
Added Pin To Net: NetName=NetR30_2 Pin=R30-2
Change Net Name : Old Net Name=Net*1_4 New Net Name=NetU36_18
Added Member To Class: ClassName=Sheet4_GenIo Member=Component C1 
Added Member To Class: ClassName=Sheet4_GenIo Member=Component C2 CAP-NONPOL
Added Member To Class: ClassName=Sheet4_GenIo Member=Component J19 SD/MMC Card socket
Added Member To Class: ClassName=Sheet4_GenIo Member=Component R2
Added Member To Class: ClassName=Sheet4_GenIo Member=Component R3 R2
Added Member To Class: ClassName=Sheet4_GenIo Member=Component R4 R2
Added Member To Class: ClassName=Sheet4_GenIo Member=Component R26 R2
Added Member To Class: ClassName=Sheet4_GenIo Member=Component R30 R2
