Added Component: Designator=C3(AP1-00041)
Added Component: Designator=C4(AP1-00041)
Added Component: Designator=C5(AP1-00041)
Added Component: Designator=C6(AP1-00001)
Added Component: Designator=C7(AP1-00001)
Added Component: Designator=C8(AP1-00001)
Added Component: Designator=C9(AP1-00041)
Added Component: Designator=C10(AP1-00001)
Added Component: Designator=C11(AP1-00041)
Added Component: Designator=C12(AP1-00001)
Added Component: Designator=C13(AP1-00041)
Added Component: Designator=C14(AP1-00001)
Added Component: Designator=C15(AP1-00041)
Added Component: Designator=C16(AP1-00001)
Added Component: Designator=C17(AP1-00041)
Added Component: Designator=C18(AP1-00001)
Added Component: Designator=C19(AP1-00041)
Added Component: Designator=C20(AP1-00001)
Added Component: Designator=C21(AP1-00041)
Added Component: Designator=C22(AP1-00001)
Added Component: Designator=C23(AP1-00041)
Added Component: Designator=C24(AP1-00041)
Added Component: Designator=C25(AP1-00001)
Added Component: Designator=C26(AP1-00001)
Added Component: Designator=C27(AP1-00041)
Added Component: Designator=C28(AP1-00001)
Added Component: Designator=C29(AP1-00041)
Added Component: Designator=C30(AP1-00001)
Added Component: Designator=C31(AP1-00041)
Added Component: Designator=C32(AP1-00001)
Added Component: Designator=C33(AP1-00041)
Added Component: Designator=C34(AP1-00001)
Added Component: Designator=C35(AP1-00041)
Added Component: Designator=C36(AP1-00001)
Added Component: Designator=C37(1206C-GENERIC)
Added Component: Designator=C38(1206C-GENERIC)
Added Component: Designator=C39(1206C-GENERIC)
Added Component: Designator=C40(1206C-GENERIC)
Added Component: Designator=C41(0603C-2U2)
Added Component: Designator=C42(0603C-2U2)
Added Component: Designator=C43(0603C-2U2)
Added Component: Designator=C44(0603C-2U2)
Added Component: Designator=C45(2413)
Added Component: Designator=C46(2413)
Added Component: Designator=C47(2413)
Added Component: Designator=C48(2413)
Added Component: Designator=C49(1913-X-GENERIC)
Added Component: Designator=C50(1913-X-GENERIC)
Added Component: Designator=C51(1913-X-GENERIC)
Added Component: Designator=C52(1913-X-GENERIC)
Added Component: Designator=C53(1206R-GENERIC)
Added Component: Designator=C54(1206R-GENERIC)
Added Component: Designator=C55(1206R-GENERIC)
Added Component: Designator=C56(1206R-GENERIC)
Added Component: Designator=C57(1206R-GENERIC)
Added Component: Designator=C58(1206R-GENERIC)
Added Component: Designator=C59(1206R-GENERIC)
Added Component: Designator=C60(1206R-GENERIC)
Added Component: Designator=C61(1206R-GENERIC)
Added Component: Designator=C62(1206R-GENERIC)
Added Component: Designator=C63(1206R-GENERIC)
Added Component: Designator=C64(1206R-GENERIC)
Added Component: Designator=C65(1206R-GENERIC)
Added Component: Designator=C66(1206R-GENERIC)
Added Component: Designator=C67(1206R-GENERIC)
Added Component: Designator=C68(1206R-GENERIC)
Added Component: Designator=C69(1206R-GENERIC)
Added Component: Designator=C70(1206R-GENERIC)
Added Component: Designator=C71(1206R-GENERIC)
Added Component: Designator=C72(1206R-GENERIC)
Added Component: Designator=C73(1206R-GENERIC)
Added Component: Designator=C74(1206R-GENERIC)
Added Component: Designator=C75(1206R-GENERIC)
Added Component: Designator=C76(1206R-GENERIC)
Added Pin To Net: NetName=V3V3 Pin=C3-1
Added Pin To Net: NetName=GND Pin=C3-2
Added Pin To Net: NetName=V3V3 Pin=C4-1
Added Pin To Net: NetName=GND Pin=C4-2
Added Pin To Net: NetName=V3V3 Pin=C5-1
Added Pin To Net: NetName=GND Pin=C5-2
Added Pin To Net: NetName=V3V3 Pin=C6-1
Added Pin To Net: NetName=GND Pin=C6-2
Added Pin To Net: NetName=V3V3 Pin=C7-1
Added Pin To Net: NetName=GND Pin=C7-2
Added Pin To Net: NetName=V3V3 Pin=C8-1
Added Pin To Net: NetName=GND Pin=C8-2
Added Pin To Net: NetName=V3V3 Pin=C9-1
Added Pin To Net: NetName=GND Pin=C9-2
Added Pin To Net: NetName=V3V3 Pin=C10-1
Added Pin To Net: NetName=GND Pin=C10-2
Added Pin To Net: NetName=V3V3 Pin=C11-1
Added Pin To Net: NetName=GND Pin=C11-2
Added Pin To Net: NetName=V3V3 Pin=C12-1
Added Pin To Net: NetName=GND Pin=C12-2
Added Pin To Net: NetName=V3V3 Pin=C13-1
Added Pin To Net: NetName=GND Pin=C13-2
Added Pin To Net: NetName=V3V3 Pin=C14-1
Added Pin To Net: NetName=GND Pin=C14-2
Added Pin To Net: NetName=V3V3 Pin=C15-1
Added Pin To Net: NetName=GND Pin=C15-2
Added Pin To Net: NetName=V3V3 Pin=C16-1
Added Pin To Net: NetName=GND Pin=C16-2
Added Pin To Net: NetName=V3V3 Pin=C17-1
Added Pin To Net: NetName=GND Pin=C17-2
Added Pin To Net: NetName=V3V3 Pin=C18-1
Added Pin To Net: NetName=GND Pin=C18-2
Added Pin To Net: NetName=V3V3 Pin=C19-1
Added Pin To Net: NetName=GND Pin=C19-2
Added Pin To Net: NetName=V3V3 Pin=C20-1
Added Pin To Net: NetName=GND Pin=C20-2
Added Pin To Net: NetName=V3V3 Pin=C21-1
Added Pin To Net: NetName=GND Pin=C21-2
Added Pin To Net: NetName=V3V3 Pin=C22-1
Added Pin To Net: NetName=GND Pin=C22-2
Added Pin To Net: NetName=V3V3 Pin=C23-1
Added Pin To Net: NetName=GND Pin=C23-2
Added Pin To Net: NetName=V5 Pin=C24-1
Added Pin To Net: NetName=GND Pin=C24-2
Added Pin To Net: NetName=V3V3 Pin=C25-1
Added Pin To Net: NetName=GND Pin=C25-2
Added Pin To Net: NetName=V5 Pin=C26-1
Added Pin To Net: NetName=GND Pin=C26-2
Added Pin To Net: NetName=V3V3 Pin=C27-1
Added Pin To Net: NetName=GND Pin=C27-2
Added Pin To Net: NetName=V3V3 Pin=C28-1
Added Pin To Net: NetName=GND Pin=C28-2
Added Pin To Net: NetName=V3V3 Pin=C29-1
Added Pin To Net: NetName=GND Pin=C29-2
Added Pin To Net: NetName=V3V3 Pin=C30-1
Added Pin To Net: NetName=GND Pin=C30-2
Added Pin To Net: NetName=V3V3 Pin=C31-1
Added Pin To Net: NetName=GND Pin=C31-2
Added Pin To Net: NetName=V3V3 Pin=C32-1
Added Pin To Net: NetName=GND Pin=C32-2
Added Pin To Net: NetName=V3V3 Pin=C33-1
Added Pin To Net: NetName=GND Pin=C33-2
Added Pin To Net: NetName=V3V3 Pin=C34-1
Added Pin To Net: NetName=GND Pin=C34-2
Added Pin To Net: NetName=V3V3 Pin=C35-1
Added Pin To Net: NetName=GND Pin=C35-2
Added Pin To Net: NetName=V3V3 Pin=C36-1
Added Pin To Net: NetName=GND Pin=C36-2
Added Pin To Net: NetName=V3V3 Pin=C37-1
Added Pin To Net: NetName=GND Pin=C37-2
Added Pin To Net: NetName=GND Pin=C38-2
Added Pin To Net: NetName=GND Pin=C39-2
Added Pin To Net: NetName=GND Pin=C40-2
Added Pin To Net: NetName=V3V3 Pin=C41-1
Added Pin To Net: NetName=GND Pin=C41-2
Added Pin To Net: NetName=GND Pin=C42-2
Added Pin To Net: NetName=GND Pin=C43-2
Added Pin To Net: NetName=GND Pin=C44-2
Added Pin To Net: NetName=V3V3 Pin=U18-8
Added Pin To Net: NetName=V3V3 Pin=U18-21
Added Pin To Net: NetName=V3V3 Pin=U18-34
Added Pin To Net: NetName=GND Pin=U18-47
Added Pin To Net: NetName=V3V3 Pin=U18-48
Added Pin To Net: NetName=NetC38_1 Pin=C38-1
Added Pin To Net: NetName=NetC38_1 Pin=C42-1
Added Net: Name=NetC38_1
Added Pin To Net: NetName=NetC39_1 Pin=C39-1
Added Pin To Net: NetName=NetC39_1 Pin=C43-1
Added Net: Name=NetC39_1
Added Pin To Net: NetName=NetC40_1 Pin=C40-1
Added Pin To Net: NetName=NetC40_1 Pin=C44-1
Added Net: Name=NetC40_1
Added Member To Class: ClassName=Sheet3_CPU Member=Component C3 
Added Member To Class: ClassName=Sheet3_CPU Member=Component C4 
Added Member To Class: ClassName=Sheet3_CPU Member=Component C5 
Added Member To Class: ClassName=Sheet3_CPU Member=Component C7 CAP-NONPOL
Added Member To Class: ClassName=Sheet3_CPU Member=Component C8 CAP-NONPOL
Added Member To Class: ClassName=Sheet3_CPU Member=Component C9 
Added Member To Class: ClassName=Sheet3_CPU Member=Component C10 CAP-NONPOL
Added Member To Class: ClassName=Sheet3_CPU Member=Component C11 
Added Member To Class: ClassName=Sheet3_CPU Member=Component C12 CAP-NONPOL
Added Member To Class: ClassName=Sheet4_GenIo Member=Component C13 
Added Member To Class: ClassName=Sheet4_GenIo Member=Component C14 CAP-NONPOL
Added Member To Class: ClassName=Sheet4_GenIo Member=Component C15 
Added Member To Class: ClassName=Sheet4_GenIo Member=Component C16 CAP-NONPOL
Added Member To Class: ClassName=Sheet4_GenIo Member=Component C17 
Added Member To Class: ClassName=Sheet4_GenIo Member=Component C18 CAP-NONPOL
Added Member To Class: ClassName=Sheet4_GenIo Member=Component C19 
Added Member To Class: ClassName=Sheet4_GenIo Member=Component C20 CAP-NONPOL
Added Member To Class: ClassName=Sheet4_GenIo Member=Component C21 
Added Member To Class: ClassName=Sheet4_GenIo Member=Component C22 CAP-NONPOL
Added Member To Class: ClassName=Sheet4_GenIo Member=Component C23 
Added Member To Class: ClassName=Sheet4_GenIo Member=Component C24 
Added Member To Class: ClassName=Sheet4_GenIo Member=Component C25 CAP-NONPOL
Added Member To Class: ClassName=Sheet4_GenIo Member=Component C26 CAP-NONPOL
Added Member To Class: ClassName=Sheet4_GenIo Member=Component C27 
Added Member To Class: ClassName=Sheet4_GenIo Member=Component C28 CAP-NONPOL
Added Member To Class: ClassName=Sheet4_GenIo Member=Component C29 
Added Member To Class: ClassName=Sheet4_GenIo Member=Component C30 CAP-NONPOL
Added Member To Class: ClassName=Sheet4_GenIo Member=Component C31 
Added Member To Class: ClassName=Sheet4_GenIo Member=Component C32 CAP-NONPOL
Added Member To Class: ClassName=Sheet4_GenIo Member=Component C33 
Added Member To Class: ClassName=Sheet4_GenIo Member=Component C34 CAP-NONPOL
Added Member To Class: ClassName=Sheet4_GenIo Member=Component C35 
Added Member To Class: ClassName=Sheet4_GenIo Member=Component C36 CAP-NONPOL
