Added Component: Designator=J25(B4B-PH-K-S(LF)(SN))
Added Component: Designator=J26(B4B-PH-K-S(LF)(SN))
Added Component: Designator=J27(B4B-PH-K-S(LF)(SN))
Added Component: Designator=J28(B4B-PH-K-S(LF)(SN))
Added Component: Designator=J29(B4B-PH-K-S(LF)(SN))
Added Component: Designator=J30(B4B-PH-K-S(LF)(SN))
Added Component: Designator=J31(B4B-PH-K-S(LF)(SN))
Added Component: Designator=J32(B4B-PH-K-S(LF)(SN))
Added Pin To Net: NetName=S17SCL Pin=J25-1
Added Pin To Net: NetName=S17SDA Pin=J25-2
Added Pin To Net: NetName=V5 Pin=J25-3
Added Pin To Net: NetName=GND Pin=J25-4
Added Pin To Net: NetName=S18SCL Pin=J26-1
Added Pin To Net: NetName=S18SDA Pin=J26-2
Added Pin To Net: NetName=V5 Pin=J26-3
Added Pin To Net: NetName=GND Pin=J26-4
Added Pin To Net: NetName=S19SCL Pin=J27-1
Added Pin To Net: NetName=S19SDA Pin=J27-2
Added Pin To Net: NetName=V5 Pin=J27-3
Added Pin To Net: NetName=GND Pin=J27-4
Added Pin To Net: NetName=S20SCL Pin=J28-1
Added Pin To Net: NetName=S20SDA Pin=J28-2
Added Pin To Net: NetName=V5 Pin=J28-3
Added Pin To Net: NetName=GND Pin=J28-4
Added Pin To Net: NetName=S21SDA Pin=J29-1
Added Pin To Net: NetName=S21SCL Pin=J29-2
Added Pin To Net: NetName=V5 Pin=J29-3
Added Pin To Net: NetName=GND Pin=J29-4
Added Pin To Net: NetName=S22SCL Pin=J30-1
Added Pin To Net: NetName=S22SDA Pin=J30-2
Added Pin To Net: NetName=V5 Pin=J30-3
Added Pin To Net: NetName=GND Pin=J30-4
Added Pin To Net: NetName=S23SCL Pin=J31-1
Added Pin To Net: NetName=S23SDA Pin=J31-2
Added Pin To Net: NetName=V5 Pin=J31-3
Added Pin To Net: NetName=GND Pin=J31-4
Added Pin To Net: NetName=S24SCL Pin=J32-1
Added Pin To Net: NetName=S24SDA Pin=J32-2
Added Pin To Net: NetName=V5 Pin=J32-3
Added Pin To Net: NetName=GND Pin=J32-4
Added Member To Class: ClassName=Sheet4_GenIo Member=Component J25 B4B-PH-K-S(LF)(SN)
Added Member To Class: ClassName=Sheet4_GenIo Member=Component J26 B4B-PH-K-S(LF)(SN)
Added Member To Class: ClassName=Sheet4_GenIo Member=Component J27 B4B-PH-K-S(LF)(SN)
Added Member To Class: ClassName=Sheet4_GenIo Member=Component J28 B4B-PH-K-S(LF)(SN)
Added Member To Class: ClassName=Sheet4_GenIo Member=Component J29 B4B-PH-K-S(LF)(SN)
Added Member To Class: ClassName=Sheet4_GenIo Member=Component J30 B4B-PH-K-S(LF)(SN)
Added Member To Class: ClassName=Sheet4_GenIo Member=Component J31 B4B-PH-K-S(LF)(SN)
Added Member To Class: ClassName=Sheet4_GenIo Member=Component J32 B4B-PH-K-S(LF)(SN)
