Added Component: Designator=P2(M3Screw)
Added Component: Designator=P3(M3Screw)
Added Component: Designator=P4(M3Screw)
Added Component: Designator=P5(M3Screw)
Added Component: Designator=P6(M3Screw)
Added Component: Designator=P7(M3Screw)
Added Component: Designator=P8(M3Screw)
Added Component: Designator=P9(M3Screw)
Added Member To Class: ClassName=Sheet3_CPU Member=Component C1 
Added Member To Class: ClassName=Sheet3_CPU Member=Component C2 
Added Member To Class: ClassName=Sheet3_CPU Member=Component C3 
Added Member To Class: ClassName=Sheet3_CPU Member=Component C4 CAP-NONPOL
Added Member To Class: ClassName=Sheet3_CPU Member=Component C5 CAP-NONPOL
Added Member To Class: ClassName=Sheet3_CPU Member=Component C6 CAP-NONPOL
Added Member To Class: ClassName=Sheet3_CPU Member=Component C7 
Added Member To Class: ClassName=Sheet3_CPU Member=Component C8 CAP-NONPOL
Added Member To Class: ClassName=Sheet3_CPU Member=Component C9 
Added Member To Class: ClassName=Sheet3_CPU Member=Component C10 CAP-NONPOL
Added Member To Class: ClassName=Sheet4_GenIo Member=Component C11 
Added Member To Class: ClassName=Sheet4_GenIo Member=Component C12 CAP-NONPOL
Added Member To Class: ClassName=Sheet4_GenIo Member=Component C13 
Added Member To Class: ClassName=Sheet4_GenIo Member=Component C14 CAP-NONPOL
Added Member To Class: ClassName=Sheet4_GenIo Member=Component C15 
Added Member To Class: ClassName=Sheet4_GenIo Member=Component C16 CAP-NONPOL
Added Member To Class: ClassName=Sheet4_GenIo Member=Component C17 
Added Member To Class: ClassName=Sheet4_GenIo Member=Component C18 CAP-NONPOL
Added Member To Class: ClassName=Sheet4_GenIo Member=Component C19 
Added Member To Class: ClassName=Sheet4_GenIo Member=Component C20 CAP-NONPOL
Added Member To Class: ClassName=Sheet4_GenIo Member=Component C21 
Added Member To Class: ClassName=Sheet4_GenIo Member=Component C22 CAP-NONPOL
Added Member To Class: ClassName=Sheet4_GenIo Member=Component C23 
Added Member To Class: ClassName=Sheet4_GenIo Member=Component C24 
Added Member To Class: ClassName=Sheet4_GenIo Member=Component C25 CAP-NONPOL
Added Member To Class: ClassName=Sheet4_GenIo Member=Component C26 CAP-NONPOL
Added Member To Class: ClassName=Sheet4_GenIo Member=Component C27 
Added Member To Class: ClassName=Sheet4_GenIo Member=Component C28 CAP-NONPOL
Added Member To Class: ClassName=Sheet4_GenIo Member=Component C29 
Added Member To Class: ClassName=Sheet4_GenIo Member=Component C30 CAP-NONPOL
Added Member To Class: ClassName=Sheet4_GenIo Member=Component C31 
Added Member To Class: ClassName=Sheet4_GenIo Member=Component C32 CAP-NONPOL
Added Member To Class: ClassName=Sheet4_GenIo Member=Component C33 
Added Member To Class: ClassName=Sheet4_GenIo Member=Component C34 CAP-NONPOL
Added Member To Class: ClassName=Sheet4_GenIo Member=Component C35 
Added Member To Class: ClassName=Sheet4_GenIo Member=Component C36 CAP-NONPOL
Added Member To Class: ClassName=Sheet5_Bypass Member=Component C37 C1206C104KARACTU
Added Member To Class: ClassName=Sheet5_Bypass Member=Component C38 UMK107BJ105KA-T
Added Member To Class: ClassName=Sheet5_Bypass Member=Component C39 T494C105K050AT
Added Member To Class: ClassName=Sheet5_Bypass Member=Component C40 ECW-U4103V17
Added Member To Class: ClassName=Sheet5_Bypass Member=Component C41 ECW-U1102JX5
Added Member To Class: ClassName=Sheet5_Bypass Member=Component C42 UMK316BBJ106ML-T
Added Member To Class: ClassName=Sheet5_Bypass Member=Component C43 UMK316BBJ106ML-T
Added Member To Class: ClassName=Sheet5_Bypass Member=Component C44 UMK316BBJ106ML-T
Added Member To Class: ClassName=Sheet5_Bypass Member=Component C45 UMK316BBJ106ML-T
Added Member To Class: ClassName=Sheet5_Bypass Member=Component C46 UMK316BBJ106ML-T
Added Member To Class: ClassName=Sheet5_Bypass Member=Component C47 C1206C104KARACTU
Added Member To Class: ClassName=Sheet5_Bypass Member=Component C48 UMK107BJ105KA-T
Added Member To Class: ClassName=Sheet5_Bypass Member=Component C49 T494C105K050AT
Added Member To Class: ClassName=Sheet5_Bypass Member=Component C50 ECW-U4103V17
Added Member To Class: ClassName=Sheet5_Bypass Member=Component C51 ECW-U1102JX5
Added Member To Class: ClassName=Sheet5_Bypass Member=Component C52 UMK316BBJ106ML-T
Added Member To Class: ClassName=Sheet5_Bypass Member=Component C53 UMK316BBJ106ML-T
Added Member To Class: ClassName=Sheet5_Bypass Member=Component C54 UMK316BBJ106ML-T
Added Member To Class: ClassName=Sheet5_Bypass Member=Component C55 UMK316BBJ106ML-T
Added Member To Class: ClassName=Sheet5_Bypass Member=Component C56 UMK316BBJ106ML-T
Added Member To Class: ClassName=Sheet5_Bypass Member=Component C57 C1206C104KARACTU
Added Member To Class: ClassName=Sheet5_Bypass Member=Component C58 UMK107BJ105KA-T
Added Member To Class: ClassName=Sheet5_Bypass Member=Component C59 T494C105K050AT
Added Member To Class: ClassName=Sheet5_Bypass Member=Component C60 ECW-U4103V17
Added Member To Class: ClassName=Sheet5_Bypass Member=Component C61 ECW-U1102JX5
Added Member To Class: ClassName=Sheet5_Bypass Member=Component C62 UMK316BBJ106ML-T
Added Member To Class: ClassName=Sheet5_Bypass Member=Component C63 UMK316BBJ106ML-T
Added Member To Class: ClassName=Sheet5_Bypass Member=Component C64 UMK316BBJ106ML-T
Added Member To Class: ClassName=Sheet5_Bypass Member=Component C65 UMK316BBJ106ML-T
Added Member To Class: ClassName=Sheet5_Bypass Member=Component C66 UMK316BBJ106ML-T
Added Member To Class: ClassName=Sheet5_Bypass Member=Component C67 C1206C104KARACTU
Added Member To Class: ClassName=Sheet5_Bypass Member=Component C68 UMK107BJ105KA-T
Added Member To Class: ClassName=Sheet5_Bypass Member=Component C69 T494C105K050AT
Added Member To Class: ClassName=Sheet5_Bypass Member=Component C70 ECW-U4103V17
Added Member To Class: ClassName=Sheet5_Bypass Member=Component C71 ECW-U1102JX5
Added Member To Class: ClassName=Sheet5_Bypass Member=Component C72 UMK316BBJ106ML-T
Added Member To Class: ClassName=Sheet5_Bypass Member=Component C73 UMK316BBJ106ML-T
Added Member To Class: ClassName=Sheet5_Bypass Member=Component C74 UMK316BBJ106ML-T
Added Member To Class: ClassName=Sheet5_Bypass Member=Component C75 UMK316BBJ106ML-T
Added Member To Class: ClassName=Sheet5_Bypass Member=Component C76 UMK316BBJ106ML-T
Added Member To Class: ClassName=Sheet3_CPU Member=Component C77 CAP-NONPOL
Added Member To Class: ClassName=Sheet3_CPU Member=Component C78 
Added Member To Class: ClassName=Sheet3_CPU Member=Component C79 CAP-NONPOL
Added Member To Class: ClassName=Sheet1_PciExpress Member=Component J1 PCI Express Connector - Saddle
Added Member To Class: ClassName=Sheet1_PciExpress Member=Component J2 PCI Express Connector - Saddle
Added Member To Class: ClassName=Sheet1_PciExpress Member=Component J3 PCI Express Connector - Saddle
Added Member To Class: ClassName=Sheet1_PciExpress Member=Component J4 PCI Express Connector - Saddle
Added Member To Class: ClassName=Sheet1_PciExpress Member=Component J5 PCI Express Connector - Saddle
Added Member To Class: ClassName=Sheet1_PciExpress Member=Component J6 PCI Express Connector - Saddle
Added Member To Class: ClassName=Sheet1_PciExpress Member=Component J7 PCI Express Connector - Saddle
Added Member To Class: ClassName=Sheet1_PciExpress Member=Component J8 PCI Express Connector - Saddle
Added Member To Class: ClassName=Sheet1_PciExpress Member=Component J9 PCI Express Connector - Saddle
Added Member To Class: ClassName=Sheet1_PciExpress Member=Component J10 PCI Express Connector - Saddle
Added Member To Class: ClassName=Sheet1_PciExpress Member=Component J11 PCI Express Connector - Saddle
Added Member To Class: ClassName=Sheet1_PciExpress Member=Component J12 PCI Express Connector - Saddle
Added Member To Class: ClassName=Sheet1_PciExpress Member=Component J13 PCI Express Connector - Saddle
Added Member To Class: ClassName=Sheet1_PciExpress Member=Component J14 PCI Express Connector - Saddle
Added Member To Class: ClassName=Sheet1_PciExpress Member=Component J15 PCI Express Connector - Saddle
Added Member To Class: ClassName=Sheet1_PciExpress Member=Component J16 PCI Express Connector - Saddle
Added Member To Class: ClassName=Sheet1_PciExpress Member=Component J17 PCI Express Connector - Saddle
Added Member To Class: ClassName=Sheet1_PciExpress Member=Component J18 PCI Express Connector - Saddle
Added Member To Class: ClassName=Sheet4_GenIo Member=Component J20 Header 5X2
Added Member To Class: ClassName=Sheet4_GenIo Member=Component J21 8PinFemale
Added Member To Class: ClassName=Sheet4_GenIo Member=Component J22 8PinFemale
Added Member To Class: ClassName=Sheet4_GenIo Member=Component J23 Header 5X2
Added Member To Class: ClassName=Sheet4_GenIo Member=Component J24 Wiznet Module (Qty 2 6 Pin .1 Header)
Added Member To Class: ClassName=Sheet4_GenIo Member=Component J25 B4B-PH-K-S(LF)(SN)
Added Member To Class: ClassName=Sheet0_Top Member=Component J33 ATX Power
Added Member To Class: ClassName=Sheet0_Top Member=Component J34 0455580003
Added Member To Class: ClassName=Sheet0_Top Member=Component J35 0455580003
Added Member To Class: ClassName=Sheet0_Top Member=Component J36 0455580003
Added Member To Class: ClassName=Sheet0_Top Member=Component J37 0455580003
Added Member To Class: ClassName=Sheet3_CPU Member=Component J38 ZX62D-AB-5P8
Added Member To Class: ClassName=Sheet3_CPU Member=Component J39 3220-10-0100 SWD
Added Member To Class: ClassName=Sheet4_GenIo Member=Component O1 3.072MHZ
Added Member To Class: ClassName=Sheet4_GenIo Member=Component O2 12MHZ
Added Member To Class: ClassName=Sheet4_GenIo Member=Component P1 USB-A Conn. - 87520-xx1xx
Added Member To Class: ClassName=Sheet0_Top Member=Component P2-V3V3 CopperScrewM3
Added Member To Class: ClassName=Sheet0_Top Member=Component P2 CopperScrewM3
Added Member To Class: ClassName=Sheet0_Top Member=Component P3-V3V3 CopperScrewM3
Added Member To Class: ClassName=Sheet0_Top Member=Component P3 CopperScrewM3
Added Member To Class: ClassName=Sheet0_Top Member=Component P4-V5 CopperScrewM3
Added Member To Class: ClassName=Sheet0_Top Member=Component P4 CopperScrewM3
Added Member To Class: ClassName=Sheet0_Top Member=Component P5-V5 CopperScrewM3
Added Member To Class: ClassName=Sheet0_Top Member=Component P5 CopperScrewM3
Added Member To Class: ClassName=Sheet0_Top Member=Component P6-V12 CopperScrewM3
Added Member To Class: ClassName=Sheet0_Top Member=Component P6 CopperScrewM3
Added Member To Class: ClassName=Sheet0_Top Member=Component P7-V12Neg CopperScrewM3
Added Member To Class: ClassName=Sheet0_Top Member=Component P7 CopperScrewM3
Added Member To Class: ClassName=Sheet0_Top Member=Component P8-V5 CopperScrewM3
Added Member To Class: ClassName=Sheet0_Top Member=Component P8 CopperScrewM3
Added Member To Class: ClassName=Sheet0_Top Member=Component P9-V40SG1 CopperScrewM3
Added Member To Class: ClassName=Sheet0_Top Member=Component P9 CopperScrewM3
Added Member To Class: ClassName=Sheet0_Top Member=Component P10-V40SG2 CopperScrewM3
Added Member To Class: ClassName=Sheet0_Top Member=Component P11-V40SG3 CopperScrewM3
Added Member To Class: ClassName=Sheet0_Top Member=Component P12-V40SG4 CopperScrewM3
Added Member To Class: ClassName=Sheet0_Top Member=Component P13-GND CopperScrewM3
Added Member To Class: ClassName=Sheet0_Top Member=Component P14-GND CopperScrewM3
Added Member To Class: ClassName=Sheet0_Top Member=Component P15-GND CopperScrewM3
Added Member To Class: ClassName=Sheet0_Top Member=Component P16-GND CopperScrewM3
Added Member To Class: ClassName=Sheet0_Top Member=Component P17-GND CopperScrewM3
Added Member To Class: ClassName=Sheet4_GenIo Member=Component R1 R2
Added Member To Class: ClassName=Sheet4_GenIo Member=Component R5 Pullup
Added Member To Class: ClassName=Sheet4_GenIo Member=Component R6 Pullup
Added Member To Class: ClassName=Sheet4_GenIo Member=Component R7 Pullup
Added Member To Class: ClassName=Sheet4_GenIo Member=Component R8 Pullup
Added Member To Class: ClassName=Sheet4_GenIo Member=Component R9 Pullup
Added Member To Class: ClassName=Sheet4_GenIo Member=Component R10 Pullup
Added Member To Class: ClassName=Sheet4_GenIo Member=Component R11 Pullup
Added Member To Class: ClassName=Sheet4_GenIo Member=Component R12 Pullup
Added Member To Class: ClassName=Sheet4_GenIo Member=Component R13 Pullup
Added Member To Class: ClassName=Sheet4_GenIo Member=Component R14 Pullup
Added Member To Class: ClassName=Sheet4_GenIo Member=Component R15 Pullup
Added Member To Class: ClassName=Sheet4_GenIo Member=Component R16 Pullup
Added Member To Class: ClassName=Sheet4_GenIo Member=Component R17 Pullup
Added Member To Class: ClassName=Sheet4_GenIo Member=Component R18 Pullup
Added Member To Class: ClassName=Sheet4_GenIo Member=Component R19 Pullup
Added Member To Class: ClassName=Sheet4_GenIo Member=Component R20 Pullup
Added Member To Class: ClassName=Sheet4_GenIo Member=Component R21 Pullup
Added Member To Class: ClassName=Sheet4_GenIo Member=Component R22 Pullup
Added Member To Class: ClassName=Sheet4_GenIo Member=Component R23 Pullup
Added Member To Class: ClassName=Sheet4_GenIo Member=Component R24 Pullup
Added Member To Class: ClassName=Sheet4_GenIo Member=Component R25 Pullup
Added Member To Class: ClassName=Sheet4_GenIo Member=Component R27 Pullup
Added Member To Class: ClassName=Sheet4_GenIo Member=Component R28 Pullup
Added Member To Class: ClassName=Sheet4_GenIo Member=Component R29 Pullup
Added Member To Class: ClassName=Sheet4_GenIo Member=Component R31 Pullup
Added Member To Class: ClassName=Sheet4_GenIo Member=Component R32 Pullup
Added Member To Class: ClassName=Sheet4_GenIo Member=Component R33 Pullup
Added Member To Class: ClassName=Sheet4_GenIo Member=Component R34 Pullup
Added Member To Class: ClassName=Sheet4_GenIo Member=Component R35 Pullup
Added Member To Class: ClassName=Sheet4_GenIo Member=Component R36 Pullup
Added Member To Class: ClassName=Sheet4_GenIo Member=Component R37 Pullup
Added Member To Class: ClassName=Sheet4_GenIo Member=Component R38 Pullup
Added Member To Class: ClassName=Sheet4_GenIo Member=Component R39 Pullup
Added Member To Class: ClassName=Sheet4_GenIo Member=Component R40 Pullup
Added Member To Class: ClassName=Sheet4_GenIo Member=Component R41 Pullup
Added Member To Class: ClassName=Sheet4_GenIo Member=Component R42 Pullup
Added Member To Class: ClassName=Sheet4_GenIo Member=Component R43 Pullup
Added Member To Class: ClassName=Sheet4_GenIo Member=Component R44 Pullup
Added Member To Class: ClassName=Sheet4_GenIo Member=Component R45 Pullup
Added Member To Class: ClassName=Sheet4_GenIo Member=Component R46 Pullup
Added Member To Class: ClassName=Sheet4_GenIo Member=Component R47 Pullup
Added Member To Class: ClassName=Sheet4_GenIo Member=Component R48 Pullup
Added Member To Class: ClassName=Sheet4_GenIo Member=Component R49 Pullup
Added Member To Class: ClassName=Sheet4_GenIo Member=Component R50 Pullup
Added Member To Class: ClassName=Sheet4_GenIo Member=Component R51 Pullup
Added Member To Class: ClassName=Sheet4_GenIo Member=Component R52 Pullup
Added Member To Class: ClassName=Sheet4_GenIo Member=Component R53 Pullup
Added Member To Class: ClassName=Sheet4_GenIo Member=Component R54 Pullup
Added Member To Class: ClassName=Sheet4_GenIo Member=Component R55 Pullup
Added Member To Class: ClassName=Sheet4_GenIo Member=Component R56 Pullup
Added Member To Class: ClassName=Sheet3_CPU Member=Component R57 R2
Added Member To Class: ClassName=Sheet1_PciExpress Member=Component U1 Buffer
Added Member To Class: ClassName=Sheet1_PciExpress Member=Component U2 Buffer
Added Member To Class: ClassName=Sheet1_PciExpress Member=Component U3 Buffer
Added Member To Class: ClassName=Sheet1_PciExpress Member=Component U4 Buffer
Added Member To Class: ClassName=Sheet1_PciExpress Member=Component U5 Buffer
Added Member To Class: ClassName=Sheet1_PciExpress Member=Component U6 Buffer
Added Member To Class: ClassName=Sheet1_PciExpress Member=Component U7 Buffer
Added Member To Class: ClassName=Sheet1_PciExpress Member=Component U8 Buffer
Added Member To Class: ClassName=Sheet1_PciExpress Member=Component U9 Buffer
Added Member To Class: ClassName=Sheet1_PciExpress Member=Component U10 Buffer
Added Member To Class: ClassName=Sheet1_PciExpress Member=Component U11 Buffer
Added Member To Class: ClassName=Sheet1_PciExpress Member=Component U12 Buffer
Added Member To Class: ClassName=Sheet1_PciExpress Member=Component U13 Buffer
Added Member To Class: ClassName=Sheet1_PciExpress Member=Component U14 Buffer
Added Member To Class: ClassName=Sheet1_PciExpress Member=Component U15 Buffer
Added Member To Class: ClassName=Sheet1_PciExpress Member=Component U16 Buffer
Added Member To Class: ClassName=Sheet1_PciExpress Member=Component U17 Buffer
Added Member To Class: ClassName=Sheet3_CPU Member=Component U18 SAMD21TQFP64
Added Member To Class: ClassName=Sheet3_CPU Member=Component U19 Buffer
Added Member To Class: ClassName=Sheet3_CPU Member=Component U20 Buffer
Added Member To Class: ClassName=Sheet3_CPU Member=Component U21 Buffer
Added Member To Class: ClassName=Sheet3_CPU Member=Component U22 Buffer
Added Member To Class: ClassName=Sheet3_CPU Member=Component U23 Buffer
Added Member To Class: ClassName=Sheet3_CPU Member=Component U24 Buffer
Added Member To Class: ClassName=Sheet3_CPU Member=Component U25 Buffer
Added Member To Class: ClassName=Sheet3_CPU Member=Component U26 Buffer
Added Member To Class: ClassName=Sheet3_CPU Member=Component U27 Buffer
Added Member To Class: ClassName=Sheet3_CPU Member=Component U28 Buffer
Added Member To Class: ClassName=Sheet3_CPU Member=Component U29 Buffer
Added Member To Class: ClassName=Sheet3_CPU Member=Component U30 Buffer
Added Member To Class: ClassName=Sheet3_CPU Member=Component U31 4to16 Decoder
Added Member To Class: ClassName=Sheet3_CPU Member=Component U32 Buffer
Added Member To Class: ClassName=Sheet3_CPU Member=Component U33 Buffer
Added Member To Class: ClassName=Sheet3_CPU Member=Component U34 Buffer
Added Member To Class: ClassName=Sheet3_CPU Member=Component U35 Buffer
Added Member To Class: ClassName=Sheet3_CPU Member=Component U36 4to16 Decoder
Added Member To Class: ClassName=Sheet3_CPU Member=Component U37 Inverter
Added Member To Class: ClassName=Sheet4_GenIo Member=Component U38 NXP Dual Uart
Added Member To Class: ClassName=Sheet4_GenIo Member=Component U39 MAX3421EETJ+
Added Member To Class: ClassName=Sheet4_GenIo Member=Component U40 PCA9546A
Added Member To Class: ClassName=Sheet4_GenIo Member=Component U41 Buffer
Added Member To Class: ClassName=Sheet4_GenIo Member=Component U42 Buffer
Added Member To Class: ClassName=Sheet4_GenIo Member=Component U43 Buffer
Added Member To Class: ClassName=Sheet4_GenIo Member=Component U45 TPS2021D
Added Member To Class: ClassName=Sheet4_GenIo Member=Component U46 Buffer
Added Member To Class: ClassName=Sheet4_GenIo Member=Component U47 PCA9546A
Added Member To Class: ClassName=Sheet4_GenIo Member=Component U48 PCA9546A
Added Member To Class: ClassName=Sheet4_GenIo Member=Component U49 Buffer
Added Member To Class: ClassName=Sheet4_GenIo Member=Component U51 AT25512
Added Member To Class: ClassName=Sheet4_GenIo Member=Component U52 PCA9546A
Added Member To Class: ClassName=Sheet4_GenIo Member=Component U53 Buffer
Added Member To Class: ClassName=Sheet2_IoExp Member=Component U54 IO Expander
Added Member To Class: ClassName=Sheet2_IoExp Member=Component U55 IO Expander
Added Member To Class: ClassName=Sheet2_IoExp Member=Component U56 IO Expander
Added Member To Class: ClassName=Sheet2_IoExp Member=Component U57 IO Expander
Added Member To Class: ClassName=Sheet2_IoExp Member=Component U58 Buffer
Added Member To Class: ClassName=Sheet2_IoExp Member=Component U59 Buffer
Added Member To Class: ClassName=Sheet2_IoExp Member=Component U60 Buffer
Added Member To Class: ClassName=Sheet2_IoExp Member=Component U61 Buffer
Added Member To Class: ClassName=Sheet2_IoExp Member=Component U62 IO Expander
Added Member To Class: ClassName=Sheet2_IoExp Member=Component U63 IO Expander
Added Member To Class: ClassName=Sheet2_IoExp Member=Component U64 IO Expander
Added Member To Class: ClassName=Sheet2_IoExp Member=Component U65 Buffer
Added Member To Class: ClassName=Sheet2_IoExp Member=Component U66 Buffer
Added Member To Class: ClassName=Sheet2_IoExp Member=Component U67 Buffer
Added Member To Class: ClassName=Sheet2_IoExp Member=Component U68 IO Expander
Added Member To Class: ClassName=Sheet2_IoExp Member=Component U69 Buffer
