Replace Part *1 SN74AHC1G04DRLR in Z:\3dprinter\fastcar\pcbdesign\Sheet3_CPU.SchDoc with SN74AHC1G04DRLR from fastcar.SchLib
Replace Part U17 SN74LVC1G34DRLR in Z:\3dprinter\fastcar\pcbdesign\Sheet3_CPU.SchDoc with SN74LVC1G34DRLR from fastcar.SchLib
Replace Part U18 SN74LVC1G34DRLR in Z:\3dprinter\fastcar\pcbdesign\Sheet3_CPU.SchDoc with SN74LVC1G34DRLR from fastcar.SchLib
Replace Part U19 SN74LVC1G34DRLR in Z:\3dprinter\fastcar\pcbdesign\Sheet3_CPU.SchDoc with SN74LVC1G34DRLR from fastcar.SchLib
Replace Part U20 SN74LVC1G34DRLR in Z:\3dprinter\fastcar\pcbdesign\Sheet3_CPU.SchDoc with SN74LVC1G34DRLR from fastcar.SchLib
Replace Part U21 SAMD21TQFP64 in Z:\3dprinter\fastcar\pcbdesign\Sheet3_CPU.SchDoc with SAMD21TQFP64 from fastcar.SchLib
Replace Part U22 SN74LVC1G34DRLR in Z:\3dprinter\fastcar\pcbdesign\Sheet3_CPU.SchDoc with SN74LVC1G34DRLR from fastcar.SchLib
Replace Part U23 SN74LVC1G34DRLR in Z:\3dprinter\fastcar\pcbdesign\Sheet3_CPU.SchDoc with SN74LVC1G34DRLR from fastcar.SchLib
Replace Part U24 SN74LVC1G34DRLR in Z:\3dprinter\fastcar\pcbdesign\Sheet3_CPU.SchDoc with SN74LVC1G34DRLR from fastcar.SchLib
Replace Part U25 SN74LVC1G34DRLR in Z:\3dprinter\fastcar\pcbdesign\Sheet3_CPU.SchDoc with SN74LVC1G34DRLR from fastcar.SchLib
Replace Part U26 SN74LVC1G34DRLR in Z:\3dprinter\fastcar\pcbdesign\Sheet3_CPU.SchDoc with SN74LVC1G34DRLR from fastcar.SchLib
Replace Part U27 SN74LVC1G34DRLR in Z:\3dprinter\fastcar\pcbdesign\Sheet3_CPU.SchDoc with SN74LVC1G34DRLR from fastcar.SchLib
Replace Part U28 SN74LVC1G34DRLR in Z:\3dprinter\fastcar\pcbdesign\Sheet3_CPU.SchDoc with SN74LVC1G34DRLR from fastcar.SchLib
Replace Part U29 SN74LVC1G34DRLR in Z:\3dprinter\fastcar\pcbdesign\Sheet3_CPU.SchDoc with SN74LVC1G34DRLR from fastcar.SchLib
Replace Part U30 SN74LVC1G34DRLR in Z:\3dprinter\fastcar\pcbdesign\Sheet3_CPU.SchDoc with SN74LVC1G34DRLR from fastcar.SchLib
Replace Part U31 SN74LVC1G34DRLR in Z:\3dprinter\fastcar\pcbdesign\Sheet3_CPU.SchDoc with SN74LVC1G34DRLR from fastcar.SchLib
Replace Part U32 SN74LVC1G34DRLR in Z:\3dprinter\fastcar\pcbdesign\Sheet3_CPU.SchDoc with SN74LVC1G34DRLR from fastcar.SchLib
Replace Part U33 SN74LVC1G34DRLR in Z:\3dprinter\fastcar\pcbdesign\Sheet3_CPU.SchDoc with SN74LVC1G34DRLR from fastcar.SchLib
Replace Part U34 CD74HC154M in Z:\3dprinter\fastcar\pcbdesign\Sheet3_CPU.SchDoc with CD74HC154M from fastcar.SchLib
Replace Part U35 CD74HC154M in Z:\3dprinter\fastcar\pcbdesign\Sheet3_CPU.SchDoc with CD74HC154M from fastcar.SchLib
