Replace Part *? CopperScrewM3 in Z:\3dprinter\fastcar\pcbdesign\Sheet0_Top.SchDoc with CopperScrewM3 from fastcar.SchLib
Replace Part *? CopperScrewM3 in Z:\3dprinter\fastcar\pcbdesign\Sheet0_Top.SchDoc with CopperScrewM3 from fastcar.SchLib
Replace Part *? CopperScrewM3 in Z:\3dprinter\fastcar\pcbdesign\Sheet0_Top.SchDoc with CopperScrewM3 from fastcar.SchLib
Replace Part *? CopperScrewM3 in Z:\3dprinter\fastcar\pcbdesign\Sheet0_Top.SchDoc with CopperScrewM3 from fastcar.SchLib
Replace Part *? CopperScrewM3 in Z:\3dprinter\fastcar\pcbdesign\Sheet0_Top.SchDoc with CopperScrewM3 from fastcar.SchLib
Replace Part *? CopperScrewM3 in Z:\3dprinter\fastcar\pcbdesign\Sheet0_Top.SchDoc with CopperScrewM3 from fastcar.SchLib
Replace Part *? CopperScrewM3 in Z:\3dprinter\fastcar\pcbdesign\Sheet0_Top.SchDoc with CopperScrewM3 from fastcar.SchLib
Replace Part *? CopperScrewM3 in Z:\3dprinter\fastcar\pcbdesign\Sheet0_Top.SchDoc with CopperScrewM3 from fastcar.SchLib
Replace Part P? CopperScrewM3 in Z:\3dprinter\fastcar\pcbdesign\Sheet0_Top.SchDoc with CopperScrewM3 from fastcar.SchLib
Replace Part P? CopperScrewM3 in Z:\3dprinter\fastcar\pcbdesign\Sheet0_Top.SchDoc with CopperScrewM3 from fastcar.SchLib
Replace Part P? CopperScrewM3 in Z:\3dprinter\fastcar\pcbdesign\Sheet0_Top.SchDoc with CopperScrewM3 from fastcar.SchLib
