Replace Part U53 MCP23S18T-E/MJ in Z:\3dprinter\fastcar\pcbdesign\Sheet2_IoExp.SchDoc with MCP23S18T-E/MJ from fastcar.SchLib
Replace Part U54 MCP23S18T-E/MJ in Z:\3dprinter\fastcar\pcbdesign\Sheet2_IoExp.SchDoc with MCP23S18T-E/MJ from fastcar.SchLib
Replace Part U55 MCP23S18T-E/MJ in Z:\3dprinter\fastcar\pcbdesign\Sheet2_IoExp.SchDoc with MCP23S18T-E/MJ from fastcar.SchLib
Replace Part U56 MCP23S18T-E/MJ in Z:\3dprinter\fastcar\pcbdesign\Sheet2_IoExp.SchDoc with MCP23S18T-E/MJ from fastcar.SchLib
Replace Part U57 SN74LVC1G125DRLR in Z:\3dprinter\fastcar\pcbdesign\Sheet2_IoExp.SchDoc with SN74LVC1G125DRLR from fastcar.SchLib
Replace Part U58 SN74LVC1G125DRLR in Z:\3dprinter\fastcar\pcbdesign\Sheet2_IoExp.SchDoc with SN74LVC1G125DRLR from fastcar.SchLib
Replace Part U59 SN74LVC1G125DRLR in Z:\3dprinter\fastcar\pcbdesign\Sheet2_IoExp.SchDoc with SN74LVC1G125DRLR from fastcar.SchLib
Replace Part U60 SN74LVC1G125DRLR in Z:\3dprinter\fastcar\pcbdesign\Sheet2_IoExp.SchDoc with SN74LVC1G125DRLR from fastcar.SchLib
Replace Part U61 MCP23S18T-E/MJ in Z:\3dprinter\fastcar\pcbdesign\Sheet2_IoExp.SchDoc with MCP23S18T-E/MJ from fastcar.SchLib
Replace Part U62 MCP23S18T-E/MJ in Z:\3dprinter\fastcar\pcbdesign\Sheet2_IoExp.SchDoc with MCP23S18T-E/MJ from fastcar.SchLib
Replace Part U63 MCP23S18T-E/MJ in Z:\3dprinter\fastcar\pcbdesign\Sheet2_IoExp.SchDoc with MCP23S18T-E/MJ from fastcar.SchLib
Replace Part U64 SN74LVC1G125DRLR in Z:\3dprinter\fastcar\pcbdesign\Sheet2_IoExp.SchDoc with SN74LVC1G125DRLR from fastcar.SchLib
Replace Part U65 SN74LVC1G125DRLR in Z:\3dprinter\fastcar\pcbdesign\Sheet2_IoExp.SchDoc with SN74LVC1G125DRLR from fastcar.SchLib
Replace Part U66 SN74LVC1G125DRLR in Z:\3dprinter\fastcar\pcbdesign\Sheet2_IoExp.SchDoc with SN74LVC1G125DRLR from fastcar.SchLib
Replace Part U67 MCP23S18T-E/MJ in Z:\3dprinter\fastcar\pcbdesign\Sheet2_IoExp.SchDoc with MCP23S18T-E/MJ from fastcar.SchLib
Replace Part U68 SN74LVC1G125DRLR in Z:\3dprinter\fastcar\pcbdesign\Sheet2_IoExp.SchDoc with SN74LVC1G125DRLR from fastcar.SchLib
