Replace Part *? SN74LVC1G125DRLR in Z:\3dprinter\fastcar\pcbdesign\Sheet1_PciExpress.SchDoc with SN74LVC1G125DRLR from fastcar.SchLib
Replace Part *? SN74LVC1G125DRLR in Z:\3dprinter\fastcar\pcbdesign\Sheet1_PciExpress.SchDoc with SN74LVC1G125DRLR from fastcar.SchLib
Replace Part *? SN74LVC1G125DRLR in Z:\3dprinter\fastcar\pcbdesign\Sheet1_PciExpress.SchDoc with SN74LVC1G125DRLR from fastcar.SchLib
Replace Part *? SN74LVC1G125DRLR in Z:\3dprinter\fastcar\pcbdesign\Sheet1_PciExpress.SchDoc with SN74LVC1G125DRLR from fastcar.SchLib
Replace Part *? SN74LVC1G125DRLR in Z:\3dprinter\fastcar\pcbdesign\Sheet1_PciExpress.SchDoc with SN74LVC1G125DRLR from fastcar.SchLib
Replace Part *? SN74LVC1G125DRLR in Z:\3dprinter\fastcar\pcbdesign\Sheet1_PciExpress.SchDoc with SN74LVC1G125DRLR from fastcar.SchLib
Replace Part *? SN74LVC1G125DRLR in Z:\3dprinter\fastcar\pcbdesign\Sheet1_PciExpress.SchDoc with SN74LVC1G125DRLR from fastcar.SchLib
Replace Part *? SN74LVC1G125DRLR in Z:\3dprinter\fastcar\pcbdesign\Sheet1_PciExpress.SchDoc with SN74LVC1G125DRLR from fastcar.SchLib
Replace Part *? SN74LVC1G125DRLR in Z:\3dprinter\fastcar\pcbdesign\Sheet1_PciExpress.SchDoc with SN74LVC1G125DRLR from fastcar.SchLib
Replace Part *? SN74LVC1G125DRLR in Z:\3dprinter\fastcar\pcbdesign\Sheet1_PciExpress.SchDoc with SN74LVC1G125DRLR from fastcar.SchLib
Replace Part *? SN74LVC1G125DRLR in Z:\3dprinter\fastcar\pcbdesign\Sheet1_PciExpress.SchDoc with SN74LVC1G125DRLR from fastcar.SchLib
Replace Part *? SN74LVC1G125DRLR in Z:\3dprinter\fastcar\pcbdesign\Sheet1_PciExpress.SchDoc with SN74LVC1G125DRLR from fastcar.SchLib
Replace Part *? SN74LVC1G125DRLR in Z:\3dprinter\fastcar\pcbdesign\Sheet1_PciExpress.SchDoc with SN74LVC1G125DRLR from fastcar.SchLib
Replace Part *? SN74LVC1G125DRLR in Z:\3dprinter\fastcar\pcbdesign\Sheet1_PciExpress.SchDoc with SN74LVC1G125DRLR from fastcar.SchLib
Replace Part *? SN74LVC1G125DRLR in Z:\3dprinter\fastcar\pcbdesign\Sheet1_PciExpress.SchDoc with SN74LVC1G125DRLR from fastcar.SchLib
Replace Part *? SN74LVC1G125DRLR in Z:\3dprinter\fastcar\pcbdesign\Sheet1_PciExpress.SchDoc with SN74LVC1G125DRLR from fastcar.SchLib
Replace Part *? SN74LVC1G125DRLR in Z:\3dprinter\fastcar\pcbdesign\Sheet1_PciExpress.SchDoc with SN74LVC1G125DRLR from fastcar.SchLib
Replace Part J? PCIE-036-02-F-D-EMS3 in Z:\3dprinter\fastcar\pcbdesign\Sheet1_PciExpress.SchDoc with PCIE-036-02-F-D-EMS3 from fastcar.SchLib
Replace Part J? PCIE-036-02-F-D-EMS3 in Z:\3dprinter\fastcar\pcbdesign\Sheet1_PciExpress.SchDoc with PCIE-036-02-F-D-EMS3 from fastcar.SchLib
Replace Part J? PCIE-036-02-F-D-EMS3 in Z:\3dprinter\fastcar\pcbdesign\Sheet1_PciExpress.SchDoc with PCIE-036-02-F-D-EMS3 from fastcar.SchLib
Replace Part J? PCIE-036-02-F-D-EMS3 in Z:\3dprinter\fastcar\pcbdesign\Sheet1_PciExpress.SchDoc with PCIE-036-02-F-D-EMS3 from fastcar.SchLib
Replace Part J? PCIE-036-02-F-D-EMS3 in Z:\3dprinter\fastcar\pcbdesign\Sheet1_PciExpress.SchDoc with PCIE-036-02-F-D-EMS3 from fastcar.SchLib
Replace Part J? PCIE-036-02-F-D-EMS3 in Z:\3dprinter\fastcar\pcbdesign\Sheet1_PciExpress.SchDoc with PCIE-036-02-F-D-EMS3 from fastcar.SchLib
Replace Part J? PCIE-036-02-F-D-EMS3 in Z:\3dprinter\fastcar\pcbdesign\Sheet1_PciExpress.SchDoc with PCIE-036-02-F-D-EMS3 from fastcar.SchLib
Replace Part J? PCIE-036-02-F-D-EMS3 in Z:\3dprinter\fastcar\pcbdesign\Sheet1_PciExpress.SchDoc with PCIE-036-02-F-D-EMS3 from fastcar.SchLib
Replace Part J? PCIE-036-02-F-D-EMS3 in Z:\3dprinter\fastcar\pcbdesign\Sheet1_PciExpress.SchDoc with PCIE-036-02-F-D-EMS3 from fastcar.SchLib
Replace Part J? PCIE-036-02-F-D-EMS3 in Z:\3dprinter\fastcar\pcbdesign\Sheet1_PciExpress.SchDoc with PCIE-036-02-F-D-EMS3 from fastcar.SchLib
Replace Part J? PCIE-036-02-F-D-EMS3 in Z:\3dprinter\fastcar\pcbdesign\Sheet1_PciExpress.SchDoc with PCIE-036-02-F-D-EMS3 from fastcar.SchLib
Replace Part J? PCIE-036-02-F-D-EMS3 in Z:\3dprinter\fastcar\pcbdesign\Sheet1_PciExpress.SchDoc with PCIE-036-02-F-D-EMS3 from fastcar.SchLib
Replace Part J? PCIE-036-02-F-D-EMS3 in Z:\3dprinter\fastcar\pcbdesign\Sheet1_PciExpress.SchDoc with PCIE-036-02-F-D-EMS3 from fastcar.SchLib
Replace Part J? PCIE-036-02-F-D-EMS3 in Z:\3dprinter\fastcar\pcbdesign\Sheet1_PciExpress.SchDoc with PCIE-036-02-F-D-EMS3 from fastcar.SchLib
Replace Part J? PCIE-036-02-F-D-EMS3 in Z:\3dprinter\fastcar\pcbdesign\Sheet1_PciExpress.SchDoc with PCIE-036-02-F-D-EMS3 from fastcar.SchLib
Replace Part J? PCIE-036-02-F-D-EMS3 in Z:\3dprinter\fastcar\pcbdesign\Sheet1_PciExpress.SchDoc with PCIE-036-02-F-D-EMS3 from fastcar.SchLib
Replace Part J? PCIE-036-02-F-D-EMS3 in Z:\3dprinter\fastcar\pcbdesign\Sheet1_PciExpress.SchDoc with PCIE-036-02-F-D-EMS3 from fastcar.SchLib
Replace Part J? PCIE-036-02-F-D-EMS3 in Z:\3dprinter\fastcar\pcbdesign\Sheet1_PciExpress.SchDoc with PCIE-036-02-F-D-EMS3 from fastcar.SchLib
