Change Component Designator: Old Designator=*70 New Designator=*?
Change Component Designator: Old Designator=*71 New Designator=*?
Change Component Designator: Old Designator=*72 New Designator=*?
Change Component Designator: Old Designator=*73 New Designator=*?
Change Component Designator: Old Designator=*74 New Designator=*?
Change Component Designator: Old Designator=*75 New Designator=*?
Change Component Designator: Old Designator=*76 New Designator=*?
Change Component Designator: Old Designator=*77 New Designator=*?
Change Component Designator: Old Designator=*78 New Designator=*?
Change Component Designator: Old Designator=*79 New Designator=*?
Change Component Designator: Old Designator=*80 New Designator=*?
Change Component Designator: Old Designator=*81 New Designator=*?
Change Component Designator: Old Designator=*82 New Designator=*?
Change Component Designator: Old Designator=*83 New Designator=*?
Change Component Designator: Old Designator=*84 New Designator=*?
Change Component Designator: Old Designator=*85 New Designator=*?
