Change Component Designator: Old Designator=C? New Designator=C77
Change Component Designator: Old Designator=J? New Designator=J38
Change Component Designator: Old Designator=R? New Designator=R57
