Replace Part J15 PCIE-036-02-F-D-EMS3 in Z:\3dprinter\fastcar\pcbdesign\Sheet1_PciExpress.SchDoc with PCIE-036-02-F-D-EMS3 from fastcar.SchLib
Replace Part J16 PCIE-036-02-F-D-EMS3 in Z:\3dprinter\fastcar\pcbdesign\Sheet1_PciExpress.SchDoc with PCIE-036-02-F-D-EMS3 from fastcar.SchLib
Replace Part J17 PCIE-036-02-F-D-EMS3 in Z:\3dprinter\fastcar\pcbdesign\Sheet1_PciExpress.SchDoc with PCIE-036-02-F-D-EMS3 from fastcar.SchLib
Replace Part J18 PCIE-036-02-F-D-EMS3 in Z:\3dprinter\fastcar\pcbdesign\Sheet1_PciExpress.SchDoc with PCIE-036-02-F-D-EMS3 from fastcar.SchLib
Replace Part J19 PCIE-036-02-F-D-EMS3 in Z:\3dprinter\fastcar\pcbdesign\Sheet1_PciExpress.SchDoc with PCIE-036-02-F-D-EMS3 from fastcar.SchLib
Replace Part J20 PCIE-036-02-F-D-EMS3 in Z:\3dprinter\fastcar\pcbdesign\Sheet1_PciExpress.SchDoc with PCIE-036-02-F-D-EMS3 from fastcar.SchLib
Replace Part J21 PCIE-036-02-F-D-EMS3 in Z:\3dprinter\fastcar\pcbdesign\Sheet1_PciExpress.SchDoc with PCIE-036-02-F-D-EMS3 from fastcar.SchLib
Replace Part J22 PCIE-036-02-F-D-EMS3 in Z:\3dprinter\fastcar\pcbdesign\Sheet1_PciExpress.SchDoc with PCIE-036-02-F-D-EMS3 from fastcar.SchLib
Replace Part J23 PCIE-036-02-F-D-EMS3 in Z:\3dprinter\fastcar\pcbdesign\Sheet1_PciExpress.SchDoc with PCIE-036-02-F-D-EMS3 from fastcar.SchLib
Replace Part J24 PCIE-036-02-F-D-EMS3 in Z:\3dprinter\fastcar\pcbdesign\Sheet1_PciExpress.SchDoc with PCIE-036-02-F-D-EMS3 from fastcar.SchLib
Replace Part J25 PCIE-036-02-F-D-EMS3 in Z:\3dprinter\fastcar\pcbdesign\Sheet1_PciExpress.SchDoc with PCIE-036-02-F-D-EMS3 from fastcar.SchLib
Replace Part J26 PCIE-036-02-F-D-EMS3 in Z:\3dprinter\fastcar\pcbdesign\Sheet1_PciExpress.SchDoc with PCIE-036-02-F-D-EMS3 from fastcar.SchLib
Replace Part J27 PCIE-036-02-F-D-EMS3 in Z:\3dprinter\fastcar\pcbdesign\Sheet1_PciExpress.SchDoc with PCIE-036-02-F-D-EMS3 from fastcar.SchLib
Replace Part J28 PCIE-036-02-F-D-EMS3 in Z:\3dprinter\fastcar\pcbdesign\Sheet1_PciExpress.SchDoc with PCIE-036-02-F-D-EMS3 from fastcar.SchLib
Replace Part J29 PCIE-036-02-F-D-EMS3 in Z:\3dprinter\fastcar\pcbdesign\Sheet1_PciExpress.SchDoc with PCIE-036-02-F-D-EMS3 from fastcar.SchLib
Replace Part J30 PCIE-036-02-F-D-EMS3 in Z:\3dprinter\fastcar\pcbdesign\Sheet1_PciExpress.SchDoc with PCIE-036-02-F-D-EMS3 from fastcar.SchLib
Replace Part J31 PCIE-036-02-F-D-EMS3 in Z:\3dprinter\fastcar\pcbdesign\Sheet1_PciExpress.SchDoc with PCIE-036-02-F-D-EMS3 from fastcar.SchLib
Replace Part J32 PCIE-036-02-F-D-EMS3 in Z:\3dprinter\fastcar\pcbdesign\Sheet1_PciExpress.SchDoc with PCIE-036-02-F-D-EMS3 from fastcar.SchLib
Replace Part U36 SN74LVC1G125DRLR in Z:\3dprinter\fastcar\pcbdesign\Sheet1_PciExpress.SchDoc with SN74LVC1G125DRLR from fastcar.SchLib
Replace Part U37 SN74LVC1G125DRLR in Z:\3dprinter\fastcar\pcbdesign\Sheet1_PciExpress.SchDoc with SN74LVC1G125DRLR from fastcar.SchLib
Replace Part U38 SN74LVC1G125DRLR in Z:\3dprinter\fastcar\pcbdesign\Sheet1_PciExpress.SchDoc with SN74LVC1G125DRLR from fastcar.SchLib
Replace Part U39 SN74LVC1G125DRLR in Z:\3dprinter\fastcar\pcbdesign\Sheet1_PciExpress.SchDoc with SN74LVC1G125DRLR from fastcar.SchLib
Replace Part U40 SN74LVC1G125DRLR in Z:\3dprinter\fastcar\pcbdesign\Sheet1_PciExpress.SchDoc with SN74LVC1G125DRLR from fastcar.SchLib
Replace Part U41 SN74LVC1G125DRLR in Z:\3dprinter\fastcar\pcbdesign\Sheet1_PciExpress.SchDoc with SN74LVC1G125DRLR from fastcar.SchLib
Replace Part U42 SN74LVC1G125DRLR in Z:\3dprinter\fastcar\pcbdesign\Sheet1_PciExpress.SchDoc with SN74LVC1G125DRLR from fastcar.SchLib
Replace Part U43 SN74LVC1G125DRLR in Z:\3dprinter\fastcar\pcbdesign\Sheet1_PciExpress.SchDoc with SN74LVC1G125DRLR from fastcar.SchLib
Replace Part U44 SN74LVC1G125DRLR in Z:\3dprinter\fastcar\pcbdesign\Sheet1_PciExpress.SchDoc with SN74LVC1G125DRLR from fastcar.SchLib
Replace Part U45 SN74LVC1G125DRLR in Z:\3dprinter\fastcar\pcbdesign\Sheet1_PciExpress.SchDoc with SN74LVC1G125DRLR from fastcar.SchLib
Replace Part U46 SN74LVC1G125DRLR in Z:\3dprinter\fastcar\pcbdesign\Sheet1_PciExpress.SchDoc with SN74LVC1G125DRLR from fastcar.SchLib
Replace Part U47 SN74LVC1G125DRLR in Z:\3dprinter\fastcar\pcbdesign\Sheet1_PciExpress.SchDoc with SN74LVC1G125DRLR from fastcar.SchLib
Replace Part U48 SN74LVC1G125DRLR in Z:\3dprinter\fastcar\pcbdesign\Sheet1_PciExpress.SchDoc with SN74LVC1G125DRLR from fastcar.SchLib
Replace Part U49 SN74LVC1G125DRLR in Z:\3dprinter\fastcar\pcbdesign\Sheet1_PciExpress.SchDoc with SN74LVC1G125DRLR from fastcar.SchLib
Replace Part U50 SN74LVC1G125DRLR in Z:\3dprinter\fastcar\pcbdesign\Sheet1_PciExpress.SchDoc with SN74LVC1G125DRLR from fastcar.SchLib
Replace Part U51 SN74LVC1G125DRLR in Z:\3dprinter\fastcar\pcbdesign\Sheet1_PciExpress.SchDoc with SN74LVC1G125DRLR from fastcar.SchLib
Replace Part U52 SN74LVC1G125DRLR in Z:\3dprinter\fastcar\pcbdesign\Sheet1_PciExpress.SchDoc with SN74LVC1G125DRLR from fastcar.SchLib
