Replace Part *? SN74LVC1G125DRLR in Z:\3dprinter\fastcar\pcbdesign\Sheet2_IoExp.SchDoc with SN74LVC1G125DRLR from fastcar.SchLib
Replace Part *? MCP23S18T-E/MJ in Z:\3dprinter\fastcar\pcbdesign\Sheet2_IoExp.SchDoc with MCP23S18T-E/MJ from fastcar.SchLib
Replace Part *? SN74LVC1G125DRLR in Z:\3dprinter\fastcar\pcbdesign\Sheet2_IoExp.SchDoc with SN74LVC1G125DRLR from fastcar.SchLib
Replace Part *? MCP23S18T-E/MJ in Z:\3dprinter\fastcar\pcbdesign\Sheet2_IoExp.SchDoc with MCP23S18T-E/MJ from fastcar.SchLib
Replace Part *? SN74LVC1G125DRLR in Z:\3dprinter\fastcar\pcbdesign\Sheet2_IoExp.SchDoc with SN74LVC1G125DRLR from fastcar.SchLib
Replace Part *? MCP23S18T-E/MJ in Z:\3dprinter\fastcar\pcbdesign\Sheet2_IoExp.SchDoc with MCP23S18T-E/MJ from fastcar.SchLib
Replace Part *? SN74LVC1G125DRLR in Z:\3dprinter\fastcar\pcbdesign\Sheet2_IoExp.SchDoc with SN74LVC1G125DRLR from fastcar.SchLib
Replace Part *? MCP23S18T-E/MJ in Z:\3dprinter\fastcar\pcbdesign\Sheet2_IoExp.SchDoc with MCP23S18T-E/MJ from fastcar.SchLib
Replace Part *? SN74LVC1G125DRLR in Z:\3dprinter\fastcar\pcbdesign\Sheet2_IoExp.SchDoc with SN74LVC1G125DRLR from fastcar.SchLib
Replace Part *? MCP23S18T-E/MJ in Z:\3dprinter\fastcar\pcbdesign\Sheet2_IoExp.SchDoc with MCP23S18T-E/MJ from fastcar.SchLib
Replace Part *? SN74LVC1G125DRLR in Z:\3dprinter\fastcar\pcbdesign\Sheet2_IoExp.SchDoc with SN74LVC1G125DRLR from fastcar.SchLib
Replace Part *? MCP23S18T-E/MJ in Z:\3dprinter\fastcar\pcbdesign\Sheet2_IoExp.SchDoc with MCP23S18T-E/MJ from fastcar.SchLib
Replace Part *? SN74LVC1G125DRLR in Z:\3dprinter\fastcar\pcbdesign\Sheet2_IoExp.SchDoc with SN74LVC1G125DRLR from fastcar.SchLib
Replace Part *? MCP23S18T-E/MJ in Z:\3dprinter\fastcar\pcbdesign\Sheet2_IoExp.SchDoc with MCP23S18T-E/MJ from fastcar.SchLib
Replace Part *? SN74LVC1G125DRLR in Z:\3dprinter\fastcar\pcbdesign\Sheet2_IoExp.SchDoc with SN74LVC1G125DRLR from fastcar.SchLib
Replace Part *? MCP23S18T-E/MJ in Z:\3dprinter\fastcar\pcbdesign\Sheet2_IoExp.SchDoc with MCP23S18T-E/MJ from fastcar.SchLib
