Change Component Designator: Old Designator=*45 New Designator=*?
Change Component Designator: Old Designator=*46 New Designator=*?
Change Component Designator: Old Designator=*47 New Designator=*?
Change Component Designator: Old Designator=*48 New Designator=*?
Change Component Designator: Old Designator=*49 New Designator=*?
Change Component Designator: Old Designator=*50 New Designator=*?
Change Component Designator: Old Designator=*51 New Designator=*?
Change Component Designator: Old Designator=*52 New Designator=*?
Change Component Designator: Old Designator=*53 New Designator=*?
Change Component Designator: Old Designator=*54 New Designator=*?
Change Component Designator: Old Designator=*55 New Designator=*?
Change Component Designator: Old Designator=*56 New Designator=*?
Change Component Designator: Old Designator=*57 New Designator=*?
Change Component Designator: Old Designator=*58 New Designator=*?
Change Component Designator: Old Designator=*59 New Designator=*?
Change Component Designator: Old Designator=*60 New Designator=*?
Change Component Designator: Old Designator=*61 New Designator=*?
Change Component Designator: Old Designator=J5 New Designator=J?
Change Component Designator: Old Designator=J6 New Designator=J?
Change Component Designator: Old Designator=J7 New Designator=J?
Change Component Designator: Old Designator=J8 New Designator=J?
Change Component Designator: Old Designator=J9 New Designator=J?
Change Component Designator: Old Designator=J10 New Designator=J?
Change Component Designator: Old Designator=J11 New Designator=J?
Change Component Designator: Old Designator=J12 New Designator=J?
Change Component Designator: Old Designator=J13 New Designator=J?
Change Component Designator: Old Designator=J14 New Designator=J?
Change Component Designator: Old Designator=J15 New Designator=J?
Change Component Designator: Old Designator=J16 New Designator=J?
Change Component Designator: Old Designator=J17 New Designator=J?
Change Component Designator: Old Designator=J18 New Designator=J?
Change Component Designator: Old Designator=J19 New Designator=J?
Change Component Designator: Old Designator=J20 New Designator=J?
Change Component Designator: Old Designator=J21 New Designator=J?
Change Component Designator: Old Designator=J22 New Designator=J?
